SN;FHK;DXB;;S;W20;20011028000000;20020330235900;UTC;
N;DXB;BG  046;A;0001;20020106;20020127;0000060;KWI;;P;1;;;;
N;DXB;BG  005;A;0015;20020102;20020130;0200000;DAC;;P;1;;;;
N;DXB;HM  027;A;0015;20020106;20020127;0000060;LGW;;P;1;;;;
N;DXB;LZ  537;A;0015;20020106;20020127;0000060;SOF;;P;1;;;;
N;DXB;LZ  539;A;0015;20020102;20020130;0200000;SOF;;P;1;;;;
N;DXB;SQ 7376;A;0015;20020106;20020127;0000060;SIN;;C;1;;;;
N;DXB;EK  083;A;0025;20020102;20020130;0230507;BKK;HKG;P;1;;;;
N;DXB;EK  085;A;0025;20020102;20020128;1230567;MNL;;P;1;;;;
N;DXB;EK  085;A;0025;20020122;20020129;1200000;MNL;;P;1;;;;
N;DXB;EK  087;A;0025;20020104;20020127;1004060;BKK;HKG;P;1;;;;
N;DXB;EK  087;A;0025;20020122;20020129;1000000;BKK;HKG;P;1;;;;
N;DXB;UL  531;A;0025;20020102;20020130;0200000;CMB;;P;1;;;;
N;DXB;BR  678;A;0055;20020102;20020130;0200000;LHR;;C;1;;;;
N;DXB;RB  526;A;0100;20020105;20020126;0000060;MCT;;P;1;;;;
N;DXB;BI  095;A;0110;20020107;20020128;1000000;SIN;BWN;P;1;;;;
N;DXB;EK  069;A;0110;20020101;20020130;1234567;SIN;MEL;P;1;;;;
N;DXB;BG  057;A;0115;20020103;20020124;0004000;DAC;;P;1;;;;
N;DXB;CX  066;A;0115;20020102;20020130;0030000;FRA;;C;1;;;;
N;DXB;EK  815;A;0115;20020102;20020130;1034060;MLE;CMB;P;1;;;;
N;DXB;UL  531;A;0120;20020107;20020128;1000000;CMB;;P;1;;;;
N;DXB;EK  077;A;0130;20020101;20020129;1204060;CMB;CGK;P;1;;;;
N;DXB;EK  464;A;0130;20020101;20020130;1234567;JNB;;P;1;;;;
N;DXB;LN  276;A;0130;20020101;20020129;0200000;TIP;;P;1;;;;
N;DXB;EK  665;A;0140;20011028;20011028;0000007;ISB;;P;1;;;;
N;DXB;EK  665;A;0140;20020102;20020130;0030000;ISB;;P;1;;;;
N;DXB;EK  665;A;0140;20020105;20020127;0000067;ISB;;P;1;;;;
N;DXB;AZ  748;A;0145;20020101;20020129;0204007;MXP;;P;1;;;;
N;DXB;EK  675;A;0150;20020103;20020128;1004500;LHE;;P;1;;;;
N;DXB;SQ 7395;A;0155;20020107;20020128;1000000;LHR;;C;1;;;;
N;DXB;EK  501;A;0200;20020101;20020130;1234567;BOM;;P;1;;;;
N;DXB;IR  659;A;0200;20020107;20020128;1000000;THR;;P;1;;;;
N;DXB;IY  861;A;0200;20020103;20020124;0004000;KHI;;P;1;;;;
N;DXB;KL  427;A;0200;20011028;20011028;0000007;AMS;;P;1;;;;
N;DXB;KL  427;A;0200;20020101;20020130;1234567;AMS;;P;1;;;;
N;DXB;SE  606;A;0200;20020102;20020130;0030000;LGW;;C;1;;;;
N;DXB;AI  965;A;0210;20011028;20011028;0000007;COK;;P;1;;;;
N;DXB;AI  965;A;0210;20020102;20020130;0030000;COK;;P;1;;;;
N;DXB;BR  685;A;0215;20020101;20020129;0200007;TPE;;C;1;;;;
N;DXB;EK  703;A;0215;20020102;20020130;1034060;DEL;;P;1;;;;
N;DXB;EK  004;A;0225;20020101;20020130;1234567;LHR;;P;1;;;;
N;DXB;EK  067;A;0235;20020101;20020129;0204507;SIN;SYD;P;1;;;;
N;DXB;UL  507;A;0240;20020105;20020126;0000060;CMB;;P;1;;;;
N;DXB;EK  543;A;0245;20020102;20020130;0030007;MAA;;P;1;;;;
N;DXB;BG  015;A;0300;20020105;20020126;0000060;DAC;;P;1;;;;
N;DXB;BG  017;A;0300;20020107;20020128;1000000;DAC;;P;1;;;;
N;DXB;CV  790;A;0300;20020103;20020124;0004000;LUX;;C;1;;;;
N;DXB;RJ  191;A;0300;20020101;20020129;0200500;KHI;;P;1;;;;
N;DXB;AI  775;A;0310;20020105;20020126;0000060;BLR;BOM;P;1;;;;
N;DXB;BG  016;A;0310;20020106;20020127;0000007;LHR;;P;1;;;;
N;DXB;AF 6790;A;0315;20020104;20020125;0000500;CDG;;C;1;;;;
N;DXB;BA  109;A;0315;20020101;20020130;1234567;LHR;;P;1;;;;
N;DXB;BG  018;A;0320;20020101;20020129;0200000;LHR;;P;1;;;;
N;DXB;BR  671;A;0330;20020102;20020130;0030007;BOM;;C;1;;;;
N;DXB;BR  678;A;0330;20020103;20020124;0004000;LHR;;C;1;;;;
N;DXB;PK  788;A;0330;20020101;20020129;0200000;LHR;;P;1;;;;
N;DXB;IR  659;A;0340;20020101;20020130;0234560;THR;;P;1;;;;
N;DXB;RJ  603;A;0340;20020103;20020124;0004000;AUH;;P;1;;;;
N;DXB;UL  508;A;0340;20011028;20011028;0000007;LHR;;P;1;;;;
N;DXB;UL  508;A;0340;20020102;20020130;1030000;LHR;;P;1;;;;
N;DXB;UL  555;A;0340;20020103;20020127;0004007;CMB;;P;1;;;;
N;DXB;BR  678;A;0400;20020106;20020127;0000007;LHR;;C;1;;;;
N;DXB;RA  230;A;0400;20020101;20020129;0204000;FRA;LGW;P;1;;;;
N;DXB;RA  232;A;0400;20020106;20020127;0000007;FRA;ORY;P;1;;;;
N;DXB;WY  111;A;0400;20020101;20020130;1234567;MCT;;P;1;;;;
N;DXB;2Y 2605;A;0410;20020101;20020130;1230067;KIH;;P;1;;;;
N;DXB;GN  700;A;0410;20020105;20020126;0000060;LBV;;P;1;;;;
N;DXB;MH  091;A;0415;20020101;20020129;0204060;EWR;;P;1;;;;
N;DXB;FX 5042;A;0425;20020102;20020130;0030000;ADB;;C;1;;;;
N;DXB;EK  006;A;0430;20020101;20020130;1234567;LHR;;P;1;;;;
N;DXB;EP 6549;A;0430;20020106;20020127;0000007;LAR;;P;1;;;;
N;DXB;IR  611;A;0430;20020106;20020127;0000007;THR;;P;1;;;;
N;DXB;KM  834;A;0430;20020103;20020124;0004000;MLA;;P;1;;;;
N;DXB;SE  602;A;0430;20020105;20020126;0000060;LGW;;C;1;;;;
N;DXB;B9 9806;A;0450;20020101;20020129;0200500;MHD;;P;1;;;;
N;DXB;AI  767;A;0455;20020107;20020128;1000000;HYD;;P;1;;;;
N;DXB;PK  787;A;0500;20020102;20020130;1030060;KHI;;P;1;;;;
N;DXB;AI  711;A;0505;20020101;20020129;0200000;BOM;;P;1;;;;
N;DXB;EP 6743;A;0505;20020101;20020130;1234567;THR;;P;1;;;;
N;DXB;SQ 7379;A;0505;20020103;20020124;0004000;AMS;;C;1;;;;
N;DXB;BR  677;A;0515;20020105;20020126;0000060;TPE;;C;1;;;;
N;DXB;BR  677;A;0520;20020101;20020129;0200000;TPE;;C;1;;;;
N;DXB;BR  677;A;0525;20020102;20020130;0030000;TPE;;C;1;;;;
N;DXB;GF  500;A;0540;20020101;20020130;1234567;BAH;;P;1;;;;
N;DXB;MS  870;A;0545;20020103;20020128;1004000;CAI;;P;1;;;;
N;DXB;GF  501;A;0555;20020101;20020130;1234567;MCT;;P;1;;;;
N;DXB;EP 6747;A;0600;20020107;20020128;1000000;LAR;;P;1;;;;
N;DXB;FC  202;A;0600;20020101;20020129;0200007;KWI;;C;1;;;;
N;DXB;S7  865;A;0600;20020104;20020125;0000500;OVB;;P;1;;;;
N;DXB;SE  605;A;0600;20020107;20020128;1000000;BAH;LGW;C;1;;;;
N;DXB;GF  570;A;0615;20020101;20020130;1234567;DOH;;P;1;;;;
N;DXB;QR  104;A;0615;20020101;20020130;0234567;DOH;;P;1;;;;
N;DXB;QR  104;A;0615;20020107;20020128;1000000;DOH;;P;1;;;;
N;DXB;AI  929;A;0620;20020104;20020125;0000500;TRV;;P;1;;;;
N;DXB;AI  921;A;0630;20020101;20020129;0204060;CCJ;;P;1;;;;
N;DXB;EP 6549;A;0630;20020102;20020130;0030000;LAR;;P;1;;;;
N;DXB;EP 6717;A;0630;20020104;20020125;0000500;LAM;;P;1;;;;
N;DXB;EP 6747;A;0630;20020101;20020129;0200000;LAR;;P;1;EP 6736;1350;0;
N;DXB;EP 6747;A;0630;20020103;20020124;0004000;LAR;;P;1;EP 6814;1130;0;
N;DXB;EP 6747;A;0630;20020105;20020126;0000060;LAR;;P;1;EP 6956;1145;0;
N;DXB;ES 1023;A;0630;20020102;20020130;0030000;BAH;;C;1;;;;
N;DXB;IR  675;A;0640;20020106;20020127;0000007;AWZ;;P;1;;;;
N;DXB;RA  229;A;0640;20020102;20020130;1030000;KTM;;P;1;;;;
N;DXB;RA  231;A;0640;20020105;20020126;0000060;KTM;;P;1;;;;
N;DXB;AI  725;A;0650;20020102;20020130;0030000;DEL;;P;1;;;;
N;DXB;AHC 017;A;0700;20020103;20020128;1004060;BAK;;C;1;;;;
N;DXB;IRQ1102;A;0700;20020102;20020130;0030000;GSM;;P;1;;;;
N;DXB;KN 7144;A;0700;20020104;20020121;1000500;IFN;;P;1;;;;
N;DXB;W5 5034;A;0700;20020101;20020129;0200500;KER;;P;1;;;;
N;DXB;EK  665;A;0710;20020103;20020128;1004000;ISB;;P;1;;;;
N;DXB;EK  505;A;0715;20020101;20020130;0230507;BOM;;P;1;;;;
N;DXB;IY  802;A;0715;20020104;20020125;0000500;RIY;SAH;P;1;;;;
N;DXB;SQ 7396;A;0715;20020106;20020127;0000007;SIN;;C;1;;;;
N;DXB;EK  675;A;0720;20020101;20020129;0200000;LHE;;P;1;;;;
N;DXB;EK  242;A;0725;20020101;20020129;0200000;BAH;;P;1;;;;
N;DXB;EK  242;A;0725;20020102;20020130;1030000;BAH;;P;1;;;;
N;DXB;EK  242;A;0725;20020103;20020127;0004567;BAH;;P;1;;;;
N;DXB;FC  602;A;0725;20020102;20020130;0034067;JED;;C;1;;;;
N;DXB;GF  231;A;0730;20020104;20020125;0000500;MCT;;P;1;;;;
N;DXB;IRQ1102;A;0730;20020106;20020127;0000007;GSM;;P;1;IRQ1120;0900;0;
N;DXB;UL  507;A;0730;20020101;20020129;0200007;CMB;;P;1;;;;
N;DXB;FX 5034;A;0740;20020101;20020129;1200567;BOM;;C;1;;;;
N;DXB;EK  701;A;0745;20020101;20020129;0200507;DEL;;P;1;;;;
N;DXB;EK  203;A;0750;20020101;20020129;1204067;MCT;;P;1;;;;
N;DXB;EK  203;A;0750;20020102;20020130;0030500;MCT;;P;1;;;;
N;DXB;IR  677;A;0750;20020102;20020130;0030500;BND;;P;1;;;;
N;DXB;WY  413;A;0750;20020101;20020130;1234567;MCT;;P;1;;;;
N;DXB;EK  452;A;0800;20020101;20020129;0204060;SAH;;P;1;;;;
N;DXB;EK  655;A;0800;20020104;20020127;0000507;PEW;;P;1;;;;
N;DXB;IR  657;A;0800;20020101;20020129;0204060;SYZ;;P;1;;;;
N;DXB;IY  800;A;0800;20020101;20020129;0200000;GXF;SAH;P;1;;;;
N;DXB;LH  900;A;0800;20011211;20011214;0234500;FRA;;P;1;LH  901;0900;0;
N;DXB;MP  111;A;0800;20020209;20020209;0000060;ATH;;C;1;MP  222;1500;0;
N;DXB;PK  251;A;0800;20020101;20020129;0200000;LYP;MUX;P;1;;;;
N;DXB;EK  102;A;0805;20020103;20020128;1004060;KWI;;P;1;;;;
N;DXB;EP 6813;A;0820;20020106;20020127;0000007;BND;;P;1;;;;
N;DXB;EK  541;A;0825;20020107;20020128;1000000;MAA;;P;1;;;;
N;DXB;SQ 7377;A;0825;20020101;20020129;0200000;CDG;;C;1;;;;
N;DXB;SD 2234;A;0830;20020105;20020126;0000060;KRT;;P;1;;;;
N;DXB;EK  613;A;0835;20020106;20020128;1000007;DAC;;P;1;;;;
N;DXB;EK  801;A;0835;20020105;20020126;0000060;CMB;;P;1;;;;
N;DXB;PK  233;A;0840;20020107;20020128;1000000;ISB;;P;1;;;;
N;DXB;AI  727;A;0845;20020106;20020127;0000007;AUH;CCJ;P;1;;;;
N;DXB;PC 8807;A;0845;20020104;20020128;1000500;SVO;;P;1;;;;
N;DXB;B9 9807;A;0850;20020101;20020129;0200500;BAH;;P;1;;;;
N;DXB;CX  065;A;0900;20020101;20020130;0234000;HKG;;C;1;;;;
N;DXB;EK  541;A;0900;20020103;20020124;0004000;MAA;;P;1;;;;
N;DXB;EK  623;A;0900;20020101;20020129;0200000;THR;;P;1;;;;
N;DXB;EK  623;A;0900;20020103;20020106;0004067;THR;;P;1;;;;
N;DXB;EK  623;A;0900;20020107;20020113;1004007;THR;;P;1;;;;
N;DXB;EK  623;A;0900;20020114;20020128;1004067;THR;;P;1;;;;
N;DXB;IY  821;A;0900;20020107;20020128;1000000;SAH;;P;1;;;;
N;DXB;LH 1000;A;0900;20011211;20011214;0234500;FRA;;P;1;LH 1001;1000;0;
N;DXB;WY  417;A;0900;20020107;20020128;1000000;MCT;;P;1;;;;
N;DXB;CY  382;A;0905;20020106;20020127;0000007;BAH;LCA;P;1;;;;
N;DXB;AF 6755;A;0910;20020103;20020124;0004000;SIN;;C;1;;;;
N;DXB;GF  503;A;0910;20020101;20020130;1234567;MCT;;P;1;;;;
N;DXB;SU  521;A;0910;20020107;20020128;1000000;SVO;;P;1;;;;
N;DXB;EK  081;A;0915;20020101;20020129;0204060;HKG;;P;1;;;;
N;DXB;EK  601;A;0915;20020101;20020130;1234567;KHI;;P;1;;;;
N;DXB;OS 3332;A;0920;20020107;20020128;1000000;MLE;;P;1;;;;
N;DXB;PK  209;A;0920;20020102;20020130;0030507;LHE;;P;1;;;;
N;DXB;EP 6811;A;0930;20020102;20020130;0030507;SYZ;;P;1;;;;
N;DXB;FC  504;A;0930;20020101;20020130;0234567;SHJ;AKJ;C;1;;;;
N;DXB;SD  224;A;0930;20011028;20011028;0000007;KRT;;P;1;;;;
N;DXB;SD  224;A;0930;20020102;20020130;0030000;KRT;;P;1;;;;
N;DXB;FX 5042;A;0945;20020104;20020113;0000567;ADB;;C;1;;;;
N;DXB;FX 5042;A;0945;20020114;20020128;1000567;ADB;;C;1;;;;
N;DXB;FX 5042P;A;0945;20020107;20020107;1000000;ADB;;C;1;;;;
N;DXB;GF  502;A;0950;20020101;20020113;0230507;BAH;;P;1;;;;
N;DXB;GF  502;A;0950;20020103;20020112;0004060;BAH;;P;1;;;;
N;DXB;GF  502;A;0950;20020115;20020116;0230000;BAH;;P;1;;;;
N;DXB;GF  502;A;0950;20020117;20020129;0204567;BAH;;P;1;;;;
N;DXB;GF  502;A;0950;20020123;20020130;0030000;BAH;;P;1;;;;
N;DXB;AI  759;A;0955;20020102;20020130;0030000;MAA;;P;1;;;;
N;DXB;GF  502;A;0955;20020107;20020128;1000000;BAH;;P;1;;;;
N;DXB;KU  671;A;0955;20020105;20020105;0000060;KWI;;P;1;;;;
N;DXB;KU  671;A;0955;20020107;20020107;1000000;KWI;;P;1;;;;
N;DXB;KU  671;A;0955;20020114;20020128;1000060;KWI;;P;1;;;;
N;DXB;LH 4711A;A;0958;20020112;20020112;0000060;AMS;;P;1;;;;
N;DXB;EK  623;A;1000;20020112;20020112;0000060;THR;;P;1;;;;
N;DXB;EP 6717;A;1000;20020107;20020128;1000000;LAM;;P;1;;;;
N;DXB;EP 6819;A;1000;20020101;20020129;0204060;BUZ;;P;1;;;;
N;DXB;LH 1100;A;1000;20011211;20011214;0234500;FRA;;P;1;LH 1101;1100;0;
N;DXB;MS  912;A;1000;20020104;20020125;0000500;CAI;;P;1;;;;
N;DXB;MS  912;A;1000;20020105;20020126;0000060;CAI;;P;1;;;;
N;DXB;PK  211;A;1000;20020102;20020130;0034567;KHI;;P;1;;;;
N;DXB;RB  515;A;1000;20020106;20020127;0000007;DAM;ALP;P;1;;;;
N;DXB;AI  949;A;1020;20020107;20020128;1000000;TRV;;P;1;;;;
N;DXB;EK  613;A;1020;20020105;20020126;0000060;DAC;;P;1;;;;
N;DXB;LH 1111;A;1024;20020112;20020112;0000060;JED;;P;1;;;;
N;DXB;EP 6549;A;1030;20020104;20020125;0000500;LAR;;P;1;;;;
N;DXB;ES 1023;A;1030;20020103;20020128;1004567;BAH;;C;1;;;;
N;DXB;IR  610;A;1030;20020107;20020128;1000000;DAC;;P;1;;;;
N;DXB;KE  952;A;1030;20020104;20020128;1000500;CAI;;P;1;;;;
N;DXB;RB  515;A;1030;20020101;20020129;0200000;DAM;;P;1;;;;
N;DXB;U6 3737;A;1035;20020104;20020125;0000500;SVX;;P;1;;;;
N;DXB;W5 5041;A;1045;20020102;20020130;0030060;THR;;P;1;;;;
N;DXB;KU  671;A;1055;20020112;20020112;0000060;KWI;;P;1;;;;
N;DXB;EK  810;A;1100;20020101;20020129;0204000;MLE;CMB;P;1;;;;
N;DXB;EK  952;A;1100;20020102;20020130;1030000;BEY;;P;1;;;;
N;DXB;FR  232;A;1100;20011220;20011220;0004000;FRA;;P;1;FR  233;1200;0;
N;DXB;LH 1200;A;1100;20011211;20011213;0234000;FRA;;P;1;LH 1201;1200;0;
N;DXB;LH 1200;A;1100;20011214;20011214;0000500;FRA;;P;1;LH 1201;1200;0;
N;DXB;PK  211;A;1100;20020101;20020129;0200000;KHI;;P;1;;;;
N;DXB;PK  211;A;1100;20020107;20020128;1000000;KHI;;P;1;;;;
N;DXB;QR  110;A;1100;20020102;20020130;0030000;DOH;;P;1;;;;
N;DXB;QR  110;A;1100;20020104;20020125;0000500;DOH;;P;1;;;;
N;DXB;RB  515;A;1100;20020107;20020128;1000000;ALP;DAM;P;1;;;;
N;DXB;WY  113;A;1100;20020101;20020130;1234567;MCT;;P;1;;;;
N;DXB;EK  611;A;1115;20020101;20020129;0204000;KHI;DAC;P;1;;;;
N;DXB;MS  906;A;1115;20011028;20011028;0000007;CAI;;P;1;;;;
N;DXB;MS  906;A;1115;20020102;20020130;0030000;CAI;;P;1;;;;
N;DXB;2Y 2612;A;1130;20020101;20020130;1234567;KIH;;P;1;;;;
N;DXB;EK  904;A;1130;20020102;20020130;0030000;AUH;AMM;P;1;;;;
N;DXB;EK  904;A;1130;20020105;20020126;0000060;AUH;AMM;P;1;;;;
N;DXB;KN 7132;A;1130;20020106;20020127;0000007;KIH;;P;1;;;;
N;DXB;MS  912;A;1130;20020113;20020127;0000007;FJR;CAI;P;1;;;;
N;DXB;SD  234;A;1130;20011031;20011031;0030000;KRT;;P;1;;;;
N;DXB;W5 5036;A;1130;20020101;20020129;0200500;ZAH;;P;1;;;;
N;DXB;AI  933;A;1135;20020104;20020104;0000500;COK;;P;1;;;;
N;DXB;AI  933;A;1135;20020111;20020111;0000500;COK;;P;1;;;;
N;DXB;AI  933;A;1135;20020118;20020125;0000500;COK;;P;1;;;;
N;DXB;GF  504;A;1145;20020112;20020126;0000060;BAH;;P;1;;;;
N;DXB;LH  504;A;1145;20020105;20020105;0000060;BAH;;P;1;;;;
N;DXB;MS  871;A;1145;20020103;20020128;1004000;KHI;;P;1;;;;
N;DXB;EP 6789;A;1150;20020107;20020128;1000000;MHD;;P;1;;;;
N;DXB;SQ 7396;A;1155;20020102;20020130;0030000;SIN;;C;1;;;;
N;DXB;UL  227;A;1155;20020104;20020125;0000500;CMB;;P;1;;;;
N;DXB;ET 3612;A;1200;20020101;20020129;0200007;ADD;;C;1;;;;
N;DXB;IRQ1104;A;1200;20020101;20020129;0204000;GSM;;P;1;;;;
N;DXB;LH 1300;A;1200;20011211;20011213;0234000;FRA;;P;1;LH 1301;1300;0;
N;DXB;LH 1300;A;1200;20011214;20011214;0000500;FRA;;P;1;LH 1301;1300;0;
N;DXB;MS  918;A;1200;20020105;20020112;0000060;HBE;;P;1;;;;
N;DXB;MS  918;A;1200;20020119;20020126;0000060;HBE;;P;1;;;;
N;DXB;NL  087;A;1200;20020102;20020130;0030000;PEW;;P;1;;;;
N;DXB;AI  717;A;1205;20020103;20020126;0004060;BOM;;P;1;;;;
N;DXB;LH  227;A;1210;20020105;20020105;0000060;CMB;;P;1;;;;
N;DXB;SQ 7380;A;1210;20020102;20020130;0030000;SIN;;C;1;;;;
N;DXB;UL  227;A;1210;20020106;20020127;0000067;CMB;;P;1;;;;
N;DXB;MP  333;A;1220;20011204;20011204;0200000;ATH;;P;1;MP  444;1600;0;
N;DXB;IRQ1102;A;1230;20020104;20020128;1000500;GSM;;P;1;;;;
N;DXB;KN 7134;A;1230;20020101;20020121;1234560;KIH;;P;1;;;;
N;DXB;WY  418;A;1230;20020105;20020126;0000060;KWI;MCT;P;1;;;;
N;DXB;SQ 7395;A;1245;20020103;20020124;0004000;LHR;;C;1;;;;
N;DXB;EK  952;A;1250;20020104;20020125;0000500;AUH;BEY;P;1;;;;
N;DXB;E4  755;A;1300;20020102;20020130;0030000;KHI;;P;1;;;;
N;DXB;EK  224;A;1300;20020101;20020106;0204507;DOH;;P;1;;;;
N;DXB;EK  224;A;1300;20020102;20020109;0030000;DOH;;P;1;;;;
N;DXB;EK  224;A;1300;20020108;20020113;0204067;DOH;;P;1;;;;
N;DXB;EK  224;A;1300;20020111;20020111;0000500;DOH;;P;1;;;;
N;DXB;EK  224;A;1300;20020115;20020120;0204567;DOH;;P;1;;;;
N;DXB;EK  224;A;1300;20020116;20020116;0030000;DOH;;P;1;EK  602;1415;5;
N;DXB;EK  224;A;1300;20020122;20020123;0230000;DOH;;P;1;;;;
N;DXB;EK  224;A;1300;20020124;20020125;0004500;DOH;;P;1;EK  602;1415;0;
N;DXB;EK  224;A;1300;20020126;20020129;0200067;DOH;;P;1;;;;
N;DXB;EK  224;A;1300;20020130;20020130;0030000;DOH;;P;1;;;;
N;DXB;IRQ1158;A;1300;20020102;20020130;0030000;TBZ;;P;1;;;;
N;DXB;LH  110;A;1300;20020214;20020214;0004000;KHI;;P;1;;;;
N;DXB;LH  110;A;1300;20020215;20020215;0000500;KHI;;P;1;;;;
N;DXB;LH  110;A;1300;20020218;20020218;1000000;FRA;;P;1;;;;
N;DXB;LH  110;A;1300;20020219;20020222;0234500;FRA;;P;1;;;;
N;DXB;LH 1400;A;1300;20011211;20011213;0234000;FRA;;P;1;LH 1401;1400;0;
N;DXB;LH 1400;A;1300;20011214;20011214;0000500;FRA;;P;1;LH 1401;1400;0;
N;DXB;LH  224;A;1300;20020105;20020105;0000060;DOH;;P;1;;;;
N;DXB;QR  112;A;1300;20020101;20020129;1200000;DOH;;P;1;;;;
N;DXB;QR  112;A;1300;20020106;20020127;0000007;DOH;;P;1;;;;
N;DXB;GF  504;A;1310;20020102;20020130;0030000;BAH;;P;1;;;;
N;DXB;SU  521;A;1310;20020104;20020125;0000500;SVO;;P;1;;;;
N;DXB;DL  120;A;1315;20020102;20020105;0030060;CAI;JFK;P;1;;;;
N;DXB;DL  120;A;1315;20020107;20020112;1000060;CAI;JFK;P;1;;;;
N;DXB;DL  120;A;1315;20020109;20020109;0030000;CAI;JFK;P;1;;;;
N;DXB;DL  120;A;1315;20020114;20020130;1030060;CAI;JFK;P;1;;;;
N;DXB;IY  804;A;1315;20020105;20020126;0000060;ADE;SAH;P;1;;;;
N;DXB;EP 6813;A;1320;20020102;20020130;0030000;BND;;P;1;;;;
N;DXB;LD  004;A;1325;20020106;20020127;0000007;BRU;;C;1;;;;
N;DXB;MH  160;A;1325;20020102;20020130;0030007;KHI;KUL;P;1;;;;
N;DXB;AI  771;A;1330;20020101;20020129;0200000;MCT;BOM;P;1;;;;
N;DXB;CX  068;A;1330;20020102;20020130;1030067;FRA;;C;1;;;;
N;DXB;EP 6954;A;1330;20020106;20020127;0000007;BUZ;;P;1;;;;
N;DXB;ET  632;A;1330;20020105;20020126;0000060;ADD;;P;1;;;;
N;DXB;ET  652;A;1330;20020107;20020128;1000000;ADD;;P;1;;;;
N;DXB;CX  058;A;1335;20020103;20020124;0004000;CDG;;C;1;;;;
N;DXB;BI  107;A;1340;20020101;20020129;0200060;CCU;BWN;P;1;;;;
N;DXB;GF  231;A;1340;20020102;20020130;0030000;MCT;;P;1;;;;
N;DXB;GF  572;A;1340;20020101;20020130;1234567;DOH;;P;1;;;;
N;DXB;SV  554;A;1340;20020101;20020130;1234567;RUH;;P;1;;;;
N;DXB;AI  735;A;1345;20020102;20020130;0030000;HYD;;P;1;;;;
N;DXB;GF  507;A;1355;20020101;20020115;0200507;MCT;;P;1;;;;
N;DXB;GF  507;A;1355;20020103;20020112;1004060;MCT;;P;1;;;;
N;DXB;GF  507;A;1355;20020114;20020120;1004567;MCT;;P;1;;;;
N;DXB;GF  507;A;1355;20020121;20020129;1204567;MCT;;P;1;;;;
N;DXB;ET  622;A;1400;20020104;20020125;0000500;ADD;;P;1;;;;
N;DXB;ET  662;A;1400;20020101;20020129;0200000;ADD;;P;1;;;;
N;DXB;IRQ1102;A;1400;20020103;20020124;0004000;GSM;;P;1;;;;
N;DXB;IRQ1121;A;1400;20020106;20020127;0000007;KSH;;P;1;IRQ1122;1600;0;
N;DXB;J5 7007;A;1400;20020106;20020127;0000007;MGQ;;P;1;;;;
N;DXB;LH 1500;A;1400;20011211;20011214;0234500;FRA;;P;1;LH 1501;1500;0;
N;DXB;MP  111;A;1400;20011204;20011204;0200000;ATH;;P;1;;;;
N;DXB;NL  312;A;1400;20020107;20020128;1000000;AUH;PEW;P;1;;;;
N;DXB;CX  058;A;1405;20020106;20020127;0000007;CDG;;C;1;;;;
N;DXB;KN 7134;A;1410;20020106;20020127;0000007;KIH;;P;1;;;;
N;DXB;SQ 7378;A;1410;20020107;20020128;1000000;SIN;;C;1;;;;
N;DXB;SR  394;A;1410;20020102;20020130;0030507;ZRH;;P;1;;;;
N;DXB;CX  058;A;1415;20020101;20020129;0200000;CDG;;C;1;;;;
N;DXB;AI  709;A;1420;20020107;20020128;1000000;MAA;BOM;P;1;;;;
N;DXB;AI  941;A;1430;20011028;20011028;0000007;AUH;COK;P;1;;;;
N;DXB;AI  941;A;1430;20020102;20020130;0030000;AUH;COK;P;1;;;;
N;DXB;E4  766;A;1430;20020105;20020126;0000060;KHI;;P;1;;;;
N;DXB;EP 6813;A;1430;20020103;20020124;0004000;BND;;P;1;;;;
N;DXB;IRQ1106;A;1430;20020101;20020129;0204067;GSM;;P;1;;;;
N;DXB;QR  112;A;1430;20020105;20020126;0000060;DOH;;P;1;;;;
N;DXB;GF  232;A;1435;20020101;20020129;0200000;KWI;;P;1;;;;
N;DXB;AI  755;A;1440;20020105;20020126;0000060;MAA;BOM;P;1;;;;
N;DXB;SQ  403;A;1440;20020101;20020130;0230507;IST;;P;1;;;;
N;DXB;SQ  427;A;1440;20020103;20020128;1004060;CAI;;P;1;;;;
N;DXB;IR  659;A;1445;20020106;20020127;0000007;THR;;P;1;;;;
N;DXB;SQ 7375;A;1445;20020101;20020129;0200000;AMS;;C;1;;;;
N;DXB;E4  744;A;1450;20020104;20020125;0000500;KHI;;P;1;;;;
N;DXB;MH  031;A;1450;20020101;20020129;0200060;IST;;P;1;;;;
N;DXB;SQ 7378;A;1450;20020105;20020126;0000060;SIN;;C;1;;;;
N;DXB;AI  701;A;1500;20020103;20020124;0004000;COK;BOM;P;1;;;;
N;DXB;ET  612;A;1500;20020103;20020124;0004000;RUH;ADD;P;1;;;;
N;DXB;LH  110;A;1500;20020228;20020228;0004000;FRA;;P;1;;;;
N;DXB;LH 1600;A;1500;20011211;20011214;0234500;FRA;;P;1;LH 1601;1600;0;
N;DXB;LH  500;A;1500;20020327;20020327;0030000;FRA;;P;1;;;;
N;DXB;QR  112;A;1500;20020103;20020124;0004000;DOH;;P;1;;;;
N;DXB;WY  115;A;1500;20020101;20020130;1234567;MCT;;P;1;;;;
N;DXB;KU  673;A;1505;20020101;20020130;1230067;KWI;;P;1;;;;
N;DXB;KU  673;A;1505;20020103;20020104;0004500;KWI;;P;1;;;;
N;DXB;KU  673;A;1505;20020110;20020110;0004000;KWI;;P;1;;;;
N;DXB;KU  673;A;1505;20020111;20020111;0000500;KWI;;P;1;;;;
N;DXB;KU  673;A;1505;20020117;20020125;0004500;KWI;;P;1;;;;
N;DXB;E4  766;A;1510;20020106;20020127;0000007;KHI;;P;1;;;;
N;DXB;E4  786;A;1510;20020106;20020127;0000007;KHI;;P;1;;;;
N;DXB;EP 6955;A;1515;20020105;20020126;0000060;BAH;;P;1;;;;
N;DXB;SV  556;A;1515;20020101;20020130;1234567;DMM;;P;1;;;;
N;DXB;SV  550;A;1525;20020103;20020128;1004060;JED;;P;1;;;;
N;DXB;5S  102;A;1530;20020103;20020117;0004000;HGA;JIB;P;1;;;;
N;DXB;CV  796;A;1530;20020105;20020126;0000060;LUX;;C;1;;;;
N;DXB;D3  178A;A;1530;20020106;20020127;0000007;HGA;;P;1;;;;
N;DXB;D4  506;A;1530;20020106;20020127;0000007;RIY;HGA;P;1;;;;
N;DXB;EP 6811;A;1530;20020107;20020128;1000000;SYZ;;P;1;;;;
N;DXB;ET  672;A;1530;20020102;20020130;0030000;JED;ADD;P;1;;;;
N;DXB;AI  921;A;1545;20020106;20020127;0000007;CCJ;;P;1;;;;
N;DXB;CV  796;A;1545;20020107;20020128;1000000;LUX;;C;1;;;;
N;DXB;ET  642;A;1545;20020106;20020127;0000007;KRT;ADD;P;1;;;;
N;DXB;LD  004;A;1545;20020102;20020130;0030000;BRU;;C;1;;;;
N;DXB;FR  235;A;1550;20011220;20011220;0004000;FRA;;P;1;FR  236;1650;0;
N;DXB;CV  796;A;1600;20020101;20020129;0200000;DAM;LUX;C;1;;;;
N;DXB;E4  711;A;1600;20020107;20020128;1000000;KHI;;P;1;;;;
N;DXB;EK  008;A;1600;20020101;20020120;1234567;LGW;;P;1;;;;
N;DXB;EK  008;A;1600;20020121;20020130;1230567;LGW;;P;1;;;;
N;DXB;EK  008;A;1600;20020124;20020124;0004000;LGW;;P;1;;;;
N;DXB;ES 1025;A;1600;20020101;20020129;0200000;BAH;;C;1;;;;
N;DXB;K6 6611;A;1600;20011201;20011229;0000060;ALG;;P;1;;;;
N;DXB;K6 6611;A;1600;20020101;20020129;0200000;ALG;;P;1;;;;
N;DXB;KN 7136;A;1600;20020101;20020105;0234560;KIH;;P;1;;;;
N;DXB;KN 7136;A;1600;20020107;20020112;1204560;KIH;;P;1;;;;
N;DXB;KN 7136;A;1600;20020114;20020121;1234560;KIH;;P;1;;;;
N;DXB;LH  110;A;1600;20020204;20020208;1030500;FRA;;P;1;LH  111;1700;0;
N;DXB;LH  110;A;1600;20020205;20020205;0200000;FRA;;;1;LH  111;1700;0;
N;DXB;LH  110;A;1600;20020207;20020207;0004000;FRA;;P;1;LH  111;1700;0;
N;DXB;LH 1700;A;1600;20011211;20011214;0234500;FRA;;P;1;LH 1701;1700;0;
N;DXB;UL  532;A;1600;20011028;20011028;0000007;STO;;P;1;;;;
N;DXB;UL  532;A;1600;20020102;20020102;0030000;STO;;P;1;;;;
N;DXB;UL  532;A;1600;20020116;20020130;0030000;STO;;P;1;;;;
N;DXB;CX  731;A;1605;20020101;20020129;1204007;HKG;;P;1;;;;
N;DXB;KN 7136;A;1605;20020109;20020109;0030000;KIH;;P;1;;;;
N;DXB;EK  322;A;1610;20020103;20020126;0004060;DMM;;P;1;;;;
N;DXB;UL  532;A;1610;20020109;20020109;0030000;STO;;P;1;;;;
N;DXB;EK  224;A;1620;20020107;20020114;1000000;DOH;;P;1;;;;
N;DXB;EK  224;A;1620;20020121;20020121;1000000;DOH;;P;1;;;;
N;DXB;EK  224;A;1620;20020128;20020128;1000000;DOH;;P;1;;;;
N;DXB;EK  503;A;1630;20020101;20020130;1234567;BOM;;P;1;;;;
N;DXB;ES  024;A;1630;20020102;20020130;0030500;BAH;;C;1;;;;
N;DXB;ES  024;A;1630;20020103;20020127;0004067;BAH;;C;1;;;;
N;DXB;IRQ1108;A;1630;20020101;20020130;0234567;GSM;;P;1;;;;
N;DXB;EK  104;A;1635;20020101;20020129;1200060;KWI;;P;1;;;;
N;DXB;EK  104;A;1635;20020102;20020130;0034507;KWI;;P;1;;;;
N;DXB;EP 6753;A;1635;20020101;20020130;1234567;THR;;P;1;;;;
N;DXB;AI  705;A;1645;20020102;20020130;0030000;BOM;;P;1;;;;
N;DXB;AI  747;A;1645;20020106;20020127;0000007;AUH;BOM;P;1;;;;
N;DXB;AI  931;A;1645;20020101;20020129;0200000;COK;TRV;P;1;;;;
N;DXB;SR  396;A;1645;20020107;20020128;1000000;ZRH;;P;1;;;;
N;DXB;SR  398;A;1645;20020101;20020129;0204060;ZRH;;P;1;;;;
N;DXB;ME  428;A;1650;20020101;20020130;1234567;BEY;;P;1;;;;
N;DXB;R3  311;A;1655;20020107;20020128;1000000;EVN;;P;1;;;;
N;DXB;6U  233;A;1700;20020103;20020124;0004000;ODS;KBP;P;1;;;;
N;DXB;ET 3612;A;1700;20020103;20020124;0004000;ADD;;C;1;;;;
N;DXB;K6  611;A;1700;20020105;20020126;0000060;ALG;;P;1;;;;
N;DXB;LH 1800;A;1700;20011211;20011214;0234500;FRA;;P;1;LH 1801;1800;0;
N;DXB;LH  500;A;1700;20020314;20020314;0004000;FRA;;P;1;;;;
N;DXB;LH  500;A;1700;20020322;20020322;0000500;FRA;;P;1;;;;
N;DXB;T6  301;A;1700;20020107;20020128;1000000;ODS;KBP;P;1;;;;
N;DXB;R3  311;A;1705;20020104;20020125;0000500;EVN;;P;1;;;;
N;DXB;WY  411;A;1705;20020101;20020130;1234567;MCT;;P;1;;;;
N;DXB;KN 7136;A;1710;20020106;20020127;0000007;KIH;;P;1;;;;
N;DXB;EK  904;A;1715;20020101;20020125;1200500;AMM;;P;1;;;;
N;DXB;RJ  023;A;1715;20011031;20011031;0030000;CCU;;C;1;;;;
N;DXB;RJ  023;A;1715;20020106;20020127;0000007;CCU;;C;1;;;;
N;DXB;VN  532;A;1715;20020102;20020130;1030500;CDG;;P;1;;;;
N;DXB;VN  534;A;1715;20020101;20020129;0204060;CDG;;P;1;;;;
N;DXB;EK  904;A;1720;20020128;20020129;1200000;AMM;;P;1;;;;
N;DXB;E4  723;A;1725;20020103;20020124;0004000;KHI;;P;1;;;;
N;DXB;AH 4062;A;1730;20020106;20020127;0000007;ALG;;P;1;;;;
N;DXB;D3  188;A;1730;20020104;20020125;0000500;BBO;;P;1;;;;
N;DXB;D3  188;A;1730;20020106;20020127;0000007;JIB;ASM;P;1;;;;
N;DXB;EK  912;A;1730;20020101;20020129;0204567;DAM;;P;1;;;;
N;DXB;LH  632;A;1730;20020101;20020130;1234567;FRA;;P;1;;;;
N;DXB;UL  532;A;1730;20020107;20020128;1000000;STO;;P;1;;;;
N;DXB;E4  655;A;1735;20020103;20020124;0004000;PEW;;P;1;;;;
N;DXB;EK  904;A;1740;20020103;20020127;0004007;AMM;;P;1;;;;
N;DXB;TG  517;A;1740;20020101;20020129;0200507;BKK;;P;1;;;;
N;DXB;AI  723;A;1745;20020104;20020125;0000500;DEL;;P;1;;;;
N;DXB;GF  232;A;1745;20020104;20020125;0000500;KWI;;P;1;;;;
N;DXB;BG  010;A;1750;20020102;20020130;0030000;BRU;JFK;P;1;;;;
N;DXB;E4  411;A;1750;20020106;20020127;0000007;LHE;;P;1;;;;
N;DXB;E4  622;A;1750;20020107;20020128;1000000;PEW;;P;1;;;;
N;DXB;SQ 7375;A;1750;20020106;20020127;0000007;AMS;;C;1;;;;
N;DXB;CY  392;A;1755;20020102;20020130;0030000;LCA;;P;1;;;;
N;DXB;KL 9166;A;1755;20020102;20020130;1030060;PEN;SIN;C;1;;;;
N;DXB;BI  096;A;1800;20020106;20020127;0000007;LHR;;P;1;;;;
N;DXB;E4  511;A;1800;20020105;20020126;0000060;ISB;;P;1;;;;
N;DXB;EK  244;A;1800;20020101;20020129;0200507;BAH;;P;1;;;;
N;DXB;EK  244;A;1800;20020102;20020130;0030000;BAH;;P;1;;;;
N;DXB;EK  244;A;1800;20020103;20020128;1004060;BAH;;P;1;;;;
N;DXB;NL  065;A;1800;20020104;20020125;0000500;ISB;;P;1;;;;
N;DXB;NL  913;A;1800;20020104;20020125;0000500;KHI;;P;1;;;;
N;DXB;UL  228;A;1800;20020104;20020125;0000500;KWI;;P;1;;;;
N;DXB;CX  751;A;1805;20020101;20020130;0230067;BOM;HKG;P;1;;;;
N;DXB;GF  585;A;1805;20020102;20020130;0030000;FJR;;P;1;;;;
N;DXB;GF  506;A;1810;20020101;20020119;1234560;BAH;;P;1;;;;
N;DXB;GF  506;A;1810;20020106;20020120;0000007;BAH;;P;1;;;;
N;DXB;GF  506;A;1810;20020121;20020130;1234060;BAH;;P;1;;;;
N;DXB;GF  506;A;1810;20020125;20020127;0000507;BAH;;P;1;;;;
N;DXB;GF  601;A;1810;20020101;20020129;0200000;MCT;;P;1;;;;
N;DXB;GF  600;A;1815;20020107;20020128;1000000;AUH;;P;1;;;;
N;DXB;LD  002A;A;1815;20020102;20020130;0030007;MAN;;C;1;;;;
N;DXB;OK  400;A;1815;20020101;20020111;0204500;LCA;PRG;P;1;;;;
N;DXB;OK  400;A;1815;20020115;20020129;0204000;LCA;PRG;P;1;;;;
N;DXB;UL  228;A;1815;20020105;20020127;0000067;KWI;;P;1;;;;
N;DXB;AF  626;A;1820;20020101;20020130;1234567;CDG;;P;1;AF  627;2100;0;
N;DXB;AI  947;A;1820;20020106;20020127;0000007;TRV;;P;1;;;;
N;DXB;BA  107;A;1830;20020101;20020130;1234567;LHR;;P;1;BA  106;2110;0;
N;DXB;IY  860;A;1830;20020102;20020130;0030000;SAH;;P;1;;;;
N;DXB;SD  230;A;1830;20020107;20020128;1000000;KRT;;P;1;;;;
N;DXB;BG  029;A;1840;20020101;20020129;0200060;BOM;DAC;P;1;;;;
N;DXB;KL  421;A;1840;20020101;20020130;1234567;AMS;;P;1;;;;
N;DXB;UL  556;A;1840;20020103;20020127;0004007;SXF;;P;1;;;;
N;DXB;IC  951;A;1850;20020102;20020130;1034000;HYD;;P;1;;;;
N;DXB;CX  733;A;1855;20020102;20020130;0030560;BAH;HKG;P;1;;;;
N;DXB;NL  085;A;1900;20020106;20020127;0000007;PEW;;P;1;;;;
N;DXB;NL  102;A;1900;20020101;20020129;0200000;ISB;;P;1;;;;
N;DXB;AI  765;A;1905;20020105;20020126;0000060;DEL;BOM;P;1;;;;
N;DXB;QR  118;A;1905;20020101;20020130;1230000;DOH;;P;1;;;;
N;DXB;QR  118;A;1905;20020103;20020127;0004567;DOH;;P;1;;;;
N;DXB;EP 6955;A;1910;20020103;20020124;0004000;BAH;;P;1;;;;
N;DXB;EK  034;A;1915;20020101;20020130;1234567;ZRH;;P;1;;;;
N;DXB;EK 9990;A;1915;20020102;20020130;0030000;AMS;;C;1;;;;
N;DXB;EP 6789;A;1915;20020102;20020130;0030000;MHD;;P;1;;;;
N;DXB;MS  928;A;1915;20020107;20020128;1000000;CAI;;P;1;;;;
N;DXB;NL  075;A;1915;20020103;20020127;0004007;LHE;;P;1;;;;
N;DXB;E4  733;A;1920;20020106;20020127;0000007;AUH;KHI;P;1;;;;
N;DXB;GF  508;A;1920;20020101;20020130;1234567;BAH;;P;1;;;;
N;DXB;AI  963;A;1925;20020106;20020127;0000007;COK;BOM;P;1;;;;
N;DXB;E4  445;A;1925;20020103;20020124;0004000;MCT;LHE;P;1;;;;
N;DXB;EK  314;A;1925;20020103;20020128;1004060;RUH;;P;1;;;;
N;DXB;EK  028;A;1930;20020101;20020129;1204060;LCA;ATH;P;1;;;;
N;DXB;EK  603;A;1930;20020101;20020130;1234567;KHI;;P;1;;;;
N;DXB;J2  015;A;1930;20020101;20020129;0204007;BAK;;P;1;;;;
N;DXB;PK  213;A;1930;20020101;20020130;1234500;KHI;;P;1;;;;
N;DXB;PK  213;A;1930;20020106;20020127;0000007;KHI;;P;1;;;;
N;DXB;RJ  608;A;1930;20020101;20020129;0200000;AMM;;P;1;;;;
N;DXB;RJ  608;A;1930;20020104;20020127;0000567;AMM;;P;1;;;;
N;DXB;BI  034;A;1935;20020102;20020130;0030007;FRA;;P;1;;;;
N;DXB;EK  016;A;1935;20020101;20020130;1234567;FRA;;P;1;;;;
N;DXB;EK  022;A;1935;20020101;20020130;1234567;DUS;;P;1;;;;
N;DXB;BI  098;A;1940;20020101;20020130;0230060;LHR;;P;1;;;;
N;DXB;BI  118;A;1940;20020101;20020129;0200060;KWI;;P;1;;;;
N;DXB;EK  063;A;1940;20020102;20020130;0030567;DAC;KUL;P;1;;;;
N;DXB;EK  026;A;1945;20020101;20020130;1234567;MUC;;P;1;;;;
N;DXB;EK  625;A;1945;20020102;20020130;0030500;THR;;P;1;;;;
N;DXB;EK 9881;A;1945;20020103;20020124;0004000;CMB;HKG;C;1;;;;
N;DXB;EK  402;A;1950;20020101;20020130;1230560;CAI;;P;1;;;;
N;DXB;EK  402;A;1950;20020103;20020127;0004007;CAI;;P;1;;;;
N;DXB;AT  264;A;1955;20020101;20020111;0200500;CMN;;P;1;;;;
N;DXB;AT  264;A;1955;20020115;20020129;0200000;CMN;;P;1;;;;
N;DXB;E4  434;A;1955;20020104;20020125;0000500;AUH;LHE;P;1;;;;
N;DXB;E4  701;A;1955;20020101;20020129;0200000;MCT;KHI;P;1;;;;
N;DXB;EK  002;A;1955;20020101;20020130;1234567;LHR;;P;1;;;;
N;DXB;NL  903;A;1955;20020102;20020130;0030000;KHI;;P;1;;;;
N;DXB;BI  033;A;1959;20020101;20020129;0200060;BKK;BWN;P;1;;;;
N;DXB;EP 6737;A;1959;20020101;20020129;0200500;ABD;;P;1;;;;
N;DXB;PK  213;A;1959;20020105;20020126;0000060;KHI;;P;1;;;;
N;DXB;PK  223;A;1959;20020101;20020129;0200000;PEW;;P;1;;;;
N;DXB;PK  221;A;2001;20020102;20020130;0030000;PEW;;P;1;;;;
N;DXB;RJ  082;A;2001;20011030;20011030;0200000;AMM;;C;1;;;;
N;DXB;RJ  082;A;2001;20020104;20020125;0000500;AMM;;C;1;;;;
N;DXB;VN  533;A;2001;20020101;20020129;0204007;SGN;;P;1;;;;
N;DXB;VN  535;A;2001;20020102;20020130;1030500;HAN;;P;1;;;;
N;DXB;E4  523;A;2005;20020102;20020130;0030000;AUH;ISB;P;1;;;;
N;DXB;EK  040;A;2005;20020101;20020130;1234567;BHX;;P;1;;;;
N;DXB;GF  604;A;2005;20020103;20020124;0004000;AUH;;P;1;;;;
N;DXB;WY  119;A;2005;20020101;20020120;1234567;MCT;;P;1;;;;
N;DXB;WY  119;A;2005;20020121;20020130;1234560;MCT;;P;1;;;;
N;DXB;WY  119;A;2005;20020127;20020127;0000007;MCT;;P;1;WY  120;2210;0;
N;DXB;EK  036;A;2010;20020101;20020130;1234567;MAN;;P;1;;;;
N;DXB;EK 9883;A;2010;20020102;20020130;0030000;BKK;HKG;C;1;;;;
N;DXB;IY  820;A;2010;20020105;20020126;0000060;BAH;SAH;P;1;;;;
N;DXB;KM  832;A;2010;20020105;20020126;0000060;MLA;;P;1;;;;
N;DXB;AI  729;A;2015;20020103;20020124;0004000;BOM;;P;1;;;;
N;DXB;BG  058;A;2015;20020103;20020124;0004000;LHR;;P;1;;;;
N;DXB;BI  097;A;2015;20020101;20020129;1200060;BWN;;P;1;;;;
N;DXB;EK  302;A;2015;20020101;20020129;1204560;JED;;P;1;;;;
N;DXB;GF  574;A;2015;20020102;20020130;0034060;DOH;;P;1;;;;
N;DXB;EK 9881;A;2020;20020101;20020129;0200007;HKG;;C;1;;;;
N;DXB;EK  024;A;2025;20020102;20020130;1030060;CDG;;P;1;;;;
N;DXB;EK  422;A;2025;20020101;20020130;0230507;NBO;DAR;P;1;;;;
N;DXB;EK  424;A;2025;20020103;20020128;1004060;NBO;EBB;P;1;;;;
N;DXB;CX  057;A;2035;20020102;20020130;0030000;HKG;;C;1;;;;
N;DXB;EK  032;A;2035;20020103;20020128;1004067;IST;;P;1;;;;
N;DXB;Z6  201;A;2035;20020105;20020126;0000060;EVN;DNK;P;1;;;;
N;DXB;AI  757;A;2045;20020104;20020125;0000500;BOM;;P;1;;;;
N;DXB;CV  780;A;2045;20020104;20020125;0000500;DAM;LUX;C;1;;;;
N;DXB;CX  057;A;2045;20020107;20020128;1000000;BOM;HKG;C;1;;;;
N;DXB;EK  019;A;2045;20020101;20020129;0200567;MXP;FCO;P;1;;;;
N;DXB;EK  445;A;2045;20020102;20020130;0030507;MLA;TIP;P;1;;;;
N;DXB;EP 6955;A;2045;20020107;20020128;1000000;BAH;;P;1;;;;
N;DXB;KU  675;A;2045;20020101;20020130;1234567;KWI;;P;1;;;;
N;DXB;RJ  190;A;2045;20020103;20020128;1004000;AMM;;P;1;;;;
N;DXB;SR  399;A;2045;20020101;20020129;0204060;MCT;;P;1;;;;
N;DXB;GF  602;A;2050;20020101;20020130;0230560;AUH;;P;1;;;;
N;DXB;LD  002;A;2050;20020101;20020129;1204560;BRU;MAN;C;1;;;;
N;DXB;SR  395;A;2050;20020102;20020130;0030507;KHI;;P;1;;;;
N;DXB;LH  633;A;2055;20020101;20020130;1234567;AUH;;P;1;;;;
N;DXB;BG  009;A;2100;20020107;20020128;1000000;DAC;;P;1;;;;
N;DXB;CX  057;A;2100;20020105;20020126;0000060;HKG;;C;1;;;;
N;DXB;EK  954;A;2100;20020101;20020129;0204060;BEY;;P;1;;;;
N;DXB;EK  954;A;2100;20020106;20020127;0000007;BEY;;P;1;;;;
N;DXB;MS  912;A;2100;20020106;20020106;0000007;CAI;;P;1;;;;
N;DXB;PK  223;A;2100;20020103;20020128;1004007;PEW;;P;1;;;;
N;DXB;PK  253;A;2100;20020103;20020124;0004000;MUX;LYP;P;1;;;;
N;DXB;RB  525;A;2100;20020104;20020125;0000500;DAM;;P;1;;;;
N;DXB;TL  223;A;2100;20020104;20020125;0000500;BEY;;C;1;;;;
N;DXB;CX  067;A;2105;20020101;20020129;0200567;HKG;;C;1;;;;
N;DXB;EK  226;A;2105;20020101;20020130;0234067;DOH;;P;1;;;;
N;DXB;EK  226;A;2105;20020104;20020128;1000500;DOH;;P;1;;;;
N;DXB;HM  028;A;2110;20020104;20020125;0000500;SEZ;;P;1;;;;
N;DXB;KL 9165;A;2110;20020101;20020129;0200507;AMS;;C;1;;;;
N;DXB;LD  003;A;2110;20020105;20020126;0000060;HKG;;C;1;;;;
N;DXB;MH  090;A;2110;20020101;20020129;0204007;KUL;;P;1;;;;
N;DXB;BG  001;A;2115;20020103;20020124;0004000;DAC;;P;1;;;;
N;DXB;BG  047;A;2115;20020106;20020127;0000007;DAC;;P;1;;;;
N;DXB;BG  051;A;2115;20020107;20020128;1000000;DAC;;P;1;;;;
N;DXB;BR  686;A;2115;20020106;20020127;0000007;CDG;;C;1;;;;
N;DXB;LD  003;A;2115;20020101;20020129;0200000;HKG;;C;1;;;;
N;DXB;OA  345;A;2120;20020105;20020128;1000060;ATH;;P;1;;;;
N;DXB;SQ 7376;A;2120;20020107;20020128;1000000;SIN;;C;1;;;;
N;DXB;BR  686;A;2125;20020101;20020129;0200000;CDG;;C;1;;;;
N;DXB;EK  322;A;2125;20020107;20020128;1000000;DMM;;P;1;;;;
N;DXB;UL  508;A;2125;20020105;20020126;0000060;LHR;;P;1;;;;
N;DXB;AI  845;A;2130;20020107;20020128;1000000;BOM;;P;1;;;;
N;DXB;AZ  748;A;2130;20020101;20020129;0204000;MXP;;P;1;;;;
N;DXB;EK  018;A;2130;20020102;20020130;1034000;FCO;NCE;P;1;;;;
N;DXB;KQ  310;A;2130;20020101;20020130;1234567;NBO;;P;1;;;;
N;DXB;LN  272;A;2130;20020105;20020126;0000060;TIP;;P;1;;;;
N;DXB;RB 2923;A;2130;20020107;20020107;1000000;ALP;DAM;P;1;RB 2924;2230;0;
N;DXB;RJ  027;A;2145;20020101;20020129;0200000;BKK;;C;1;;;;
N;DXB;FC  506;A;2150;20020107;20020128;1000000;RUH;;C;1;;;;
N;DXB;RJ  602;A;2150;20020102;20020130;0030000;AMM;;P;1;;;;
N;DXB;EK 9992;A;2155;20020101;20020129;0200000;AMS;;C;1;;;;
N;DXB;PK  231;A;2155;20020104;20020126;0000560;PEW;ISB;P;1;;;;
N;DXB;ET  643;A;2200;20020105;20020126;0000060;KHI;;P;1;;;;
N;DXB;ET  663;A;2200;20020107;20020128;1000000;KHI;;P;1;;;;
N;DXB;GF  537;A;2200;20020101;20020129;1200007;MCT;;P;1;;;;
N;DXB;J5 7006;A;2200;20020105;20020126;0000060;SHJ;;P;1;;;;
N;DXB;OA  349;A;2200;20020101;20020129;0204007;AMM;ATH;P;1;;;;
N;DXB;RJ  084;A;2200;20011028;20011028;0000007;AMM;;C;1;;;;
N;DXB;RJ  084;A;2200;20020102;20020130;0030000;AMM;;C;1;;;;
N;DXB;SU  521;A;2200;20020105;20020126;0000060;SVO;;P;1;;;;
N;DXB;KA  501;A;2205;20020101;20020129;0234067;AMS;MAN;C;1;;;;
N;DXB;KA  501;A;2205;20020130;20020130;0030000;AMS;MAN;C;1;;;;
N;DXB;OS 3331;A;2210;20020106;20020127;0000007;VIE;;P;1;;;;
N;DXB;RO  065;A;2215;20020102;20020130;0030000;LCA;BUH;P;1;;;;
N;DXB;RO  065;A;2215;20020104;20020125;0000500;LCA;BUH;P;1;;;;
N;DXB;RO  065;A;2220;20020106;20020127;0000007;LCA;BUH;P;1;;;;
N;DXB;5S  101;A;2230;20020105;20020119;0000060;SHJ;;P;1;;;;
N;DXB;D4  505;A;2230;20020102;20020130;0030000;SHJ;;P;1;;;;
N;DXB;ES  021;A;2230;20020101;20020130;1234567;BAH;;C;1;;;;
N;DXB;LD  001;A;2230;20020101;20020130;1234567;HKG;;C;1;;;;
N;DXB;SQ  404;A;2230;20020101;20020129;1204060;SIN;;P;1;;;;
N;DXB;KE  951;A;2240;20020103;20020127;0004007;ICN;;P;1;;;;
N;DXB;MH  030;A;2240;20020104;20020128;1000500;KUL;;P;1;;;;
N;DXB;TK 1162;A;2240;20020102;20020130;1030507;IST;;P;1;;;;
N;DXB;SQ  428;A;2250;20020102;20020130;0030507;SIN;;P;1;;;;
N;DXB;OA  347;A;2255;20020102;20020130;0030500;KWI;ATH;P;1;;;;
N;DXB;LN  274;A;2300;20020102;20020130;0030000;BEN;;P;1;;;;
N;DXB;FC  102;A;2305;20020102;20020130;1030000;BAH;;C;1;;;;
N;DXB;BG  003;A;2315;20020107;20020128;1000000;DAC;;P;1;;;;
N;DXB;BG  007;A;2315;20020105;20020126;0000060;DAC;;P;1;;;;
N;DXB;EK 9990;A;2320;20020105;20020128;1000060;AMS;;C;1;;;;
N;DXB;BG  026;A;2330;20020103;20020124;0004000;DOH;;P;1;;;;
N;DXB;PK  788;A;2330;20020102;20020130;0030060;LHR;;P;1;;;;
N;DXB;ES  022;A;2345;20020101;20020130;1234567;BAH;;C;1;;;;
N;DXB;KA  500;A;2345;20020101;20020130;1230560;HKG;;C;1;;;;
N;DXB;FC  502;A;2355;20020101;20020130;0234567;RUH;;C;1;;;;
N;DXB;5S  101;D;0000;20020106;20020120;0000060;HGA;JIB;P;1;;;;
N;DXB;D3  189;D;0000;20020103;20020124;0030000;BBO;;P;1;;;;
N;DXB;D3  189;D;0000;20020106;20020127;0000060;JIB;ASM;P;1;;;;
N;DXB;EK  504;D;0000;20020102;20020127;1204060;BOM;;P;1;;;;
N;DXB;EK  504;D;0000;20020122;20020204;1234567;BOM;;P;1;;;;
N;DXB;EK  504;D;0000;20020129;20020205;1230000;BOM;;P;1;;;;
N;DXB;ET  653;D;0000;20020107;20020128;0000007;KRT;ADD;P;1;;;;
N;DXB;SQ  428;D;0000;20020103;20020128;0030507;CAI;;P;1;;;;
N;DXB;RJ  085;D;0001;20011029;20011029;0000007;AMM;;C;1;;;;
N;DXB;RJ  085;D;0001;20020103;20020124;0030000;AMM;;C;1;;;;
N;DXB;EK  700;D;0010;20020104;20020127;1004060;DEL;;P;1;;;;
N;DXB;EK  700;D;0010;20020122;20020129;1000000;DEL;;P;1;;;;
N;DXB;FC  701;D;0010;20020102;20020130;0234560;DOH;;C;1;;;;
N;DXB;LD  003;D;0015;20020102;20020130;0200000;BRU;;C;1;;;;
N;DXB;BG  007;D;0020;20020106;20020127;0000060;FCO;LHR;P;1;;;;
N;DXB;EK  654;D;0020;20020104;20020127;0004060;PEW;;P;1;;;;
N;DXB;ES  251;D;0030;20020102;20020128;1234567;DOH;;C;1;;;;
N;DXB;ES  251;D;0030;20020122;20020129;1200000;DOH;;C;1;;;;
N;DXB;LN  275;D;0030;20020103;20020124;0030000;BEN;;P;1;;;;
N;DXB;BG  003;D;0050;20020101;20020129;1000000;ORY;LHR;P;1;;;;
N;DXB;BG  026;D;0100;20020104;20020125;0000500;CGP;DAC;P;1;;;;
N;DXB;HM  027;D;0105;20020106;20020127;0000007;SEZ;;P;1;;;;
N;DXB;KE  951;D;0110;20020104;20020128;1000500;CAI;;P;1;;;;
N;DXB;KA  500;D;0115;20020101;20020130;0234067;MAN;;C;1;;;;
N;DXB;LZ  537;D;0115;20020106;20020127;0000007;KWI;SOF;P;1;;;;
N;DXB;LZ  540;D;0115;20011028;20011028;0000007;SOF;;P;1;;;;
N;DXB;LZ  540;D;0115;20020102;20020130;0030000;SOF;;P;1;;;;
N;DXB;SQ 7376;D;0115;20020106;20020127;0000007;AMS;;C;1;;;;
N;DXB;BG  046;D;0130;20020106;20020127;0000007;CGP;DAC;P;1;;;;
N;DXB;ET  613;D;0130;20020103;20020124;0004000;RUH;ADD;P;1;;;;
N;DXB;ET  623;D;0130;20020104;20020125;0000500;JED;ADD;P;1;;;;
N;DXB;LD  001;D;0130;20020101;20020130;1234567;MAN;;C;1;;;;
N;DXB;PK  788;D;0130;20020103;20020127;0004007;KHI;;P;1;;;;
N;DXB;UL  531;D;0135;20011028;20011028;0000007;STO;;P;1;;;;
N;DXB;UL  531;D;0135;20020102;20020130;0030000;STO;;P;1;;;;
N;DXB;BR  678;D;0155;20020102;20020130;0030000;TPE;;C;1;;;;
N;DXB;EK 9880;D;0200;20020101;20020129;0200007;HKG;;C;1;;;;
N;DXB;ET  633;D;0200;20020105;20020126;0000060;ADD;;P;1;;;;
N;DXB;ET  643;D;0200;20020106;20020127;0000007;ADD;;P;1;;;;
N;DXB;ET  663;D;0200;20020101;20020129;0200000;ADD;;P;1;;;;
N;DXB;ET  673;D;0200;20011028;20011028;0000007;ADD;;P;1;;;;
N;DXB;ET  673;D;0200;20020102;20020130;0030000;ADD;;P;1;;;;
N;DXB;RB  526;D;0200;20020105;20020126;0000060;DAM;;P;1;;;;
N;DXB;BG  005;D;0215;20020102;20020130;0030000;FCO;LHR;P;1;;;;
N;DXB;CX  066;D;0215;20020102;20020130;0030000;HKG;;C;1;;;;
N;DXB;BI  095;D;0235;20020107;20020128;1000000;LHR;;P;1;;;;
N;DXB;BG  057;D;0245;20020103;20020124;0004000;LHR;;P;1;;;;
N;DXB;UL  531;D;0250;20020107;20020128;1000000;STO;;P;1;;;;
N;DXB;SQ 7395;D;0255;20020107;20020128;1000000;SIN;;C;1;;;;
N;DXB;DL  121;D;0300;20020101;20020106;0204007;CAI;JFK;P;1;;;;
N;DXB;DL  121;D;0300;20020108;20020113;0200007;CAI;JFK;P;1;;;;
N;DXB;DL  121;D;0300;20020110;20020110;0004000;CAI;JFK;P;1;;;;
N;DXB;DL  121;D;0300;20020115;20020129;0204007;CAI;JFK;P;1;;;;
N;DXB;EK  903;D;0300;20020102;20020123;0030000;AMM;;P;1;;;;
N;DXB;EK  903;D;0300;20020105;20020126;0000060;AMM;;P;1;;;;
N;DXB;EK  903;D;0300;20020130;20020207;1234567;AMM;;P;1;;;;
N;DXB;EP 6748;D;0300;20020107;20020128;1000000;LAR;;P;1;;;;
N;DXB;EP 6953;D;0300;20020106;20020127;0000007;BUZ;;P;1;;;;
N;DXB;IR  658;D;0300;20020107;20020128;1000000;THR;;P;1;;;;
N;DXB;LN  277;D;0300;20020101;20020129;0200000;TIP;;P;1;;;;
N;DXB;EK  017;D;0305;20020102;20020130;1034000;FCO;NCE;P;1;;;;
N;DXB;AI  964;D;0310;20020102;20020130;0030000;COK;;P;1;;;;
N;DXB;AZ  749;D;0315;20020101;20020129;0204007;MXP;;P;1;;;;
N;DXB;EK  951;D;0320;20020102;20020130;1030000;BEY;;P;1;;;;
N;DXB;EK  951;D;0320;20020104;20020125;0000500;BEY;;P;1;;;;
N;DXB;KU  676;D;0325;20020101;20020130;1234567;KWI;;P;1;;;;
N;DXB;AI  964;D;0330;20011028;20011028;0000007;COK;;P;1;;;;
N;DXB;EP 6550;D;0330;20011028;20011028;0000007;LAR;;P;1;;;;
N;DXB;EP 6550;D;0330;20020102;20020130;0030000;LAR;;P;1;;;;
N;DXB;EP 6718;D;0330;20020104;20020125;0000500;LAM;;P;1;;;;
N;DXB;EP 6748;D;0330;20020101;20020129;0204060;LAR;;P;1;;;;
N;DXB;GF  521;D;0330;20011028;20011028;0000007;BAH;;P;1;;;;
N;DXB;GF  521;D;0330;20020101;20020130;1234567;BAH;;P;1;;;;
N;DXB;IY  861;D;0330;20020103;20020124;0004000;SAH;;P;1;;;;
N;DXB;EK  035;D;0335;20020101;20020130;1234567;MAN;;P;1;;;;
N;DXB;RJ  609;D;0340;20011028;20011028;0000007;AMM;;P;1;;;;
N;DXB;RJ  609;D;0340;20020102;20020130;0030000;AMM;;P;1;;;;
N;DXB;RJ  609;D;0340;20020105;20020127;0000067;AMM;;P;1;;;;
N;DXB;RJ  609;D;0340;20020107;20020128;1000000;AMM;;P;1;;;;
N;DXB;BR  685;D;0345;20020101;20020129;0200007;CDG;;C;1;;;;
N;DXB;EK  001;D;0345;20020101;20020130;1234567;LHR;;P;1;;;;
N;DXB;EK  101;D;0345;20020103;20020128;1004060;KWI;;P;1;;;;
N;DXB;EK  622;D;0345;20020101;20020129;0200000;THR;;P;1;;;;
N;DXB;EK  622;D;0345;20020103;20020128;1004067;THR;;P;1;;;;
N;DXB;EK  039;D;0350;20020101;20020130;1234567;BHX;;P;1;;;;
N;DXB;EK  019;D;0355;20020101;20020129;0200567;FCO;MXP;P;1;;;;
N;DXB;2Y 2611;D;0400;20020101;20020129;1204567;KIH;;P;1;;;;
N;DXB;EK  023;D;0400;20020102;20020130;1030060;CDG;;P;1;;;;
N;DXB;EK  202;D;0400;20020101;20020129;1204067;MCT;;P;1;;;;
N;DXB;EK  202;D;0400;20020102;20020130;0030500;MCT;;P;1;;;;
N;DXB;EK  241;D;0400;20020101;20020129;0200000;BAH;;P;1;;;;
N;DXB;EK  241;D;0400;20020102;20020123;1030000;BAH;;P;1;;;;
N;DXB;EK  241;D;0400;20020103;20020127;0004567;BAH;;P;1;;;;
N;DXB;EK  241;D;0400;20020128;20020203;1034567;BAH;;P;1;;;;
N;DXB;EK  241;D;0400;20020204;20020207;1234000;BAH;;P;1;;;;
N;DXB;EK  600;D;0400;20020101;20020130;1234567;KHI;;P;1;;;;
N;DXB;RJ  191;D;0400;20020101;20020129;0200500;AMM;;P;1;;;;
N;DXB;SE  608;D;0400;20020102;20020130;0030000;EBB;;C;1;;;;
N;DXB;EK  025;D;0405;20020101;20020130;1234567;MUC;;P;1;;;;
N;DXB;AI  774;D;0410;20020105;20020126;0000060;COK;BOM;P;1;;;;
N;DXB;EK  066;D;0410;20020101;20020130;0230507;SIN;SYD;P;1;;;;
N;DXB;EK  421;D;0410;20020101;20020130;0230507;NBO;DAR;P;1;;;;
N;DXB;EK  423;D;0410;20020103;20020128;1004060;NBO;EBB;P;1;;;;
N;DXB;UL  507;D;0410;20020105;20020126;0000060;LHR;;P;1;;;;
N;DXB;EK  084;D;0415;20020101;20020130;1230567;MNL;;P;1;;;;
N;DXB;EK  027;D;0420;20020101;20020129;1204060;LCA;ATH;P;1;;;;
N;DXB;EK  021;D;0425;20020101;20020130;1234567;DUS;;P;1;;;;
N;DXB;RJ  603;D;0425;20020103;20020124;0004000;AMM;;P;1;;;;
N;DXB;2Y 2606;D;0430;20020101;20020130;1230067;KIH;;P;1;;;;
N;DXB;BG  015;D;0430;20020105;20020126;0000060;LHR;;P;1;;;;
N;DXB;BG  017;D;0430;20020107;20020128;1000000;LHR;;P;1;;;;
N;DXB;BR  678;D;0430;20020103;20020124;0004000;TPE;;C;1;;;;
N;DXB;EK  033;D;0430;20020101;20020130;1234567;ZRH;;P;1;;;;
N;DXB;WY  112;D;0430;20020101;20020130;1234567;MCT;;P;1;;;;
N;DXB;EK  463;D;0440;20020105;20020126;0000060;JNB;;P;1;;;;
N;DXB;IR  656;D;0440;20020101;20020129;0204060;SYZ;;P;1;;;;
N;DXB;IR  676;D;0440;20020102;20020130;0030500;BND;;P;1;;;;
N;DXB;BA  108;D;0445;20020101;20020130;1234567;LHR;;P;1;;;;
N;DXB;BG  016;D;0445;20020106;20020127;0000007;ZYL;DAC;P;1;;;;
N;DXB;BG  018;D;0445;20020101;20020129;0200000;ZYL;DAC;P;1;;;;
N;DXB;CV  790;D;0445;20020103;20020124;0004000;TPE;;C;1;;;;
N;DXB;EK  015;D;0445;20020101;20020130;1234567;FRA;;P;1;;;;
N;DXB;UL  555;D;0450;20020103;20020127;0004007;SXF;;P;1;;;;
N;DXB;AF 6790;D;0500;20020104;20020125;0000500;HKG;;C;1;;;;
N;DXB;BR  678;D;0500;20020106;20020127;0000007;TPE;;C;1;;;;
N;DXB;EK  445;D;0500;20020102;20020130;0030507;MLA;TIP;P;1;;;;
N;DXB;RA  230;D;0500;20020101;20020129;0204000;KTM;;P;1;;;;
N;DXB;RA  232;D;0500;20020106;20020127;0000007;KTM;;P;1;;;;
N;DXB;UL  508;D;0510;20011028;20011028;0000007;CMB;;P;1;;;;
N;DXB;UL  508;D;0510;20020102;20020130;1030000;CMB;;P;1;;;;
N;DXB;BR  671;D;0515;20020102;20020130;0030007;BRU;;C;1;;;;
N;DXB;EP 6814;D;0530;20020106;20020127;0000007;BND;;P;1;;;;
N;DXB;GF  605;D;0530;20011028;20011028;0000007;AUH;;P;1;;;;
N;DXB;GF  605;D;0530;20020102;20020130;0030000;AUH;;P;1;;;;
N;DXB;KL  428;D;0530;20011028;20011028;0000007;AMS;;P;1;;;;
N;DXB;KL  428;D;0530;20020101;20020130;1234567;AMS;;P;1;;;;
N;DXB;KM  835;D;0530;20020103;20020124;0004000;KWI;MLA;P;1;;;;
N;DXB;MH  091;D;0530;20020101;20020129;0204060;KUL;;P;1;;;;
N;DXB;PK  788;D;0530;20020101;20020129;0200000;KHI;;P;1;;;;
N;DXB;FX 5042;D;0540;20020102;20020130;0030000;BOM;;C;1;;;;
N;DXB;B9 9806;D;0545;20020101;20020129;0200500;BAH;;P;1;;;;
N;DXB;EK  080;D;0545;20020102;20020130;1030500;HKG;;P;1;;;;
N;DXB;AI  962;D;0600;20020107;20020128;1000000;COK;;P;1;;;;
N;DXB;EP 6812;D;0600;20020102;20020130;0030507;SYZ;;P;1;;;;
N;DXB;EP 6820;D;0600;20020101;20020129;0204060;BUZ;;P;1;;;;
N;DXB;IR  611;D;0600;20020106;20020127;0000007;DAC;;P;1;;;;
N;DXB;AI  920;D;0605;20020101;20020129;0200000;TRV;COK;P;1;;;;
N;DXB;SQ 7379;D;0605;20020103;20020124;0004000;SIN;;C;1;;;;
N;DXB;EP 6790;D;0615;20020107;20020128;1000000;MHD;;P;1;;;;
N;DXB;GF  500;D;0620;20020101;20020130;1234567;MCT;;P;1;;;;
N;DXB;SE  612;D;0630;20020105;20020126;0000060;BOM;;C;1;;;;
N;DXB;GF  501;D;0635;20020101;20020130;1234567;BAH;;P;1;;;;
N;DXB;PK  787;D;0640;20020102;20020130;1030060;LHR;;P;1;;;;
N;DXB;MS  870;D;0645;20020103;20020128;1004000;KHI;;P;1;;;;
N;DXB;EP 6718;D;0700;20020107;20020128;1000000;LAM;;P;1;;;;
N;DXB;K6  612;D;0700;20020106;20020127;0000007;ALG;;P;1;;;;
N;DXB;K6 6612;D;0700;20011028;20011028;0000007;ALG;;P;1;;;;
N;DXB;K6 6612;D;0700;20011209;20011230;0000007;ALG;;P;1;;;;
N;DXB;K6 6612;D;0700;20020102;20020130;0030000;ALG;;P;1;;;;
N;DXB;GF  571;D;0710;20020101;20020130;1234567;DOH;;P;1;;;;
N;DXB;BR  677;D;0715;20020105;20020126;0000060;LHR;;C;1;;;;
N;DXB;QR  105;D;0715;20020101;20020130;0234567;DOH;;P;1;;;;
N;DXB;QR  105;D;0715;20020107;20020128;1000000;DOH;;P;1;;;;
N;DXB;AI  728;D;0720;20020104;20020125;0000500;DEL;BOM;P;1;;;;
N;DXB;AI  922;D;0725;20020101;20020129;0204060;CCJ;;P;1;;;;
N;DXB;BR  677;D;0725;20020101;20020129;0200000;LHR;;C;1;;;;
N;DXB;AH 4063;D;0730;20020107;20020128;1000000;BEY;ALG;P;1;;;;
N;DXB;EP 6550;D;0730;20020104;20020125;0000500;LAR;;P;1;;;;
N;DXB;EP 6814;D;0730;20020102;20020130;0030000;BND;;P;1;;;;
N;DXB;IR  674;D;0730;20020106;20020127;0000007;AWZ;;P;1;;;;
N;DXB;RA  229;D;0755;20020102;20020130;1030000;FRA;LGW;P;1;;;;
N;DXB;RA  231;D;0755;20020105;20020126;0000060;FRA;ORY;P;1;;;;
N;DXB;AI  955;D;0800;20020102;20020130;0030000;TRV;BOM;P;1;;;;
N;DXB;KN 7145;D;0800;20020104;20020121;1000500;IFN;;P;1;;;;
N;DXB;W5 5037;D;0800;20020101;20020129;0200500;ZAH;;P;1;;;;
N;DXB;BR  677;D;0805;20020102;20020130;0030000;LHR;;C;1;;;;
N;DXB;GF  231;D;0810;20020104;20020125;0000500;KWI;;P;1;;;;
N;DXB;SQ 7396;D;0815;20020106;20020127;0000007;LHR;;C;1;;;;
N;DXB;ES  605;D;0830;20020102;20020130;0030000;BRU;;C;1;;;;
N;DXB;IRQ1157;D;0830;20020102;20020130;0030000;TBZ;;P;1;;;;
N;DXB;S7  866;D;0830;20020104;20020125;0000500;OVB;;P;1;;;;
N;DXB;WY  414;D;0840;20020101;20020130;1234567;MCT;;P;1;;;;
N;DXB;IY  803;D;0845;20020104;20020125;0000500;RIY;SAH;P;1;;;;
N;DXB;FX 5034;D;0855;20020101;20020129;1200567;ADB;;C;1;;;;
N;DXB;EK  903;D;0900;20020103;20020127;0004007;AUH;AMM;P;1;;;;
N;DXB;IR  658;D;0900;20020101;20020129;0204060;THR;;P;1;;;;
N;DXB;IR  658;D;0900;20020102;20020130;0030500;THR;;P;1;;;;
N;DXB;IRQ1120;D;0900;20020106;20020127;0000007;KSH;;P;1;IRQ1102;0730;0;
N;DXB;IY  801;D;0900;20020101;20020129;0200000;GXF;SAH;P;1;;;;
N;DXB;LH  901;D;0900;20011211;20011214;0234500;FRA;;P;1;LH  900;0800;0;
N;DXB;PK  252;D;0900;20020101;20020129;0200000;LYP;MUX;P;1;;;;
N;DXB;SE  604;D;0900;20020107;20020128;1000000;EBB;;C;1;;;;
N;DXB;UL  507;D;0900;20020101;20020129;0200007;LHR;;P;1;;;;
N;DXB;EP 6550;D;0920;20020106;20020127;0000007;LAR;;P;1;;;;
N;DXB;SQ 7377;D;0925;20020101;20020129;0200000;SIN;;C;1;;;;
N;DXB;EK  502;D;0930;20020101;20020130;1234567;BOM;;P;1;;;;
N;DXB;SD 2235;D;0930;20020105;20020126;0000060;KRT;;P;1;;;;
N;DXB;AI  726;D;0945;20020106;20020113;0000007;DEL;AMD;P;1;;;;
N;DXB;AI  726;D;0945;20020120;20020120;0000007;BOM;;C;1;;;;
N;DXB;AI  726;D;0945;20020127;20020127;0000007;DEL;AMD;P;1;;;;
N;DXB;B9 9807;D;0945;20020101;20020129;0200500;MHD;;P;1;;;;
N;DXB;GF  503;D;0950;20020101;20020130;1234567;BAH;;P;1;;;;
N;DXB;CY  383;D;0955;20020106;20020127;0000007;LCA;;P;1;;;;
N;DXB;CX  065;D;1000;20020101;20020130;0234000;FRA;;C;1;;;;
N;DXB;IY  821;D;1000;20020107;20020128;1000000;BAH;SAH;P;1;;;;
N;DXB;LH 1001;D;1000;20011211;20011214;0234500;FRA;;P;1;LH 1000;0900;0;
N;DXB;LH  111;D;1000;20011030;20011030;0200000;FRA;;P;1;;;;
N;DXB;WY  417;D;1000;20020107;20020128;1000000;KWI;MCT;P;1;;;;
N;DXB;EK  911;D;1010;20020101;20020106;0204507;DAM;;P;1;;;;
N;DXB;EK  911;D;1010;20020108;20020129;0204567;DAM;;P;1;;;;
N;DXB;EK  003;D;1015;20020101;20020130;1234567;LHR;;P;1;;;;
N;DXB;EK  223;D;1015;20020101;20020129;0204567;DOH;;P;1;;;;
N;DXB;EK  223;D;1015;20020102;20020130;0030000;DOH;;P;1;;;;
N;DXB;EK  903;D;1015;20020101;20020125;1200500;AMM;;P;1;;;;
N;DXB;OS 3332;D;1020;20020107;20020128;1000000;VIE;;P;1;;;;
N;DXB;EK  903;D;1030;20020128;20020129;1200000;AMM;;P;1;;;;
N;DXB;EP 6744;D;1030;20020102;20020130;0030507;THR;;P;1;;;;
N;DXB;PK  234;D;1030;20020107;20020128;1000000;ISB;;P;1;;;;
N;DXB;SD  225;D;1030;20011028;20011028;0000007;AUH;KRT;P;1;;;;
N;DXB;SD  225;D;1030;20020102;20020130;0030000;KRT;;P;1;;;;
N;DXB;EK  031;D;1035;20020103;20020128;1004067;IST;;P;1;;;;
N;DXB;AF 6755;D;1040;20020103;20020124;0004000;CDG;;C;1;;;;
N;DXB;GF  502;D;1045;20020101;20020113;0230507;MCT;;P;1;;;;
N;DXB;GF  502;D;1045;20020103;20020112;1004060;MCT;;P;1;;;;
N;DXB;GF  502;D;1045;20020114;20020120;1004567;MCT;;P;1;;;;
N;DXB;GF  502;D;1045;20020115;20020116;0230000;MCT;;P;1;;;;
N;DXB;GF  502;D;1045;20020121;20020129;1204567;MCT;;P;1;;;;
N;DXB;GF  502;D;1045;20020123;20020130;0030000;MCT;;P;1;;;;
N;DXB;PK  210;D;1045;20020102;20020130;0030507;LHE;;P;1;;;;
N;DXB;KU  672;D;1055;20020105;20020128;1000060;KWI;;P;1;;;;
N;DXB;EP 6744;D;1100;20020101;20020129;0204060;THR;;P;1;;;;
N;DXB;FX 5042;D;1100;20020104;20020128;1000567;BOM;;C;1;;;;
N;DXB;LH 1101;D;1100;20011211;20011214;0234500;FRA;;P;1;LH 1100;1000;0;
N;DXB;MS  913;D;1100;20020104;20020125;0000500;CAI;;P;1;;;;
N;DXB;MS  913;D;1100;20020105;20020126;0000060;CAI;;P;1;;;;
N;DXB;PC 8808;D;1100;20020104;20020128;1000500;SVO;;P;1;;;;
N;DXB;PK  212;D;1100;20020102;20020130;0034567;KHI;;P;1;;;;
N;DXB;RB  516;D;1100;20020106;20020127;0000007;DAM;ALP;P;1;;;;
N;DXB;AI  758;D;1110;20020102;20020130;0030000;MAA;BOM;P;1;;;;
N;DXB;EK  401;D;1110;20020101;20020130;1230560;CAI;;P;1;;;;
N;DXB;EK  401;D;1110;20020103;20020127;0004007;CAI;;P;1;;;;
N;DXB;AI  748;D;1120;20020107;20020128;1000000;AUH;BOM;P;1;;;;
N;DXB;EP 6812;D;1130;20020107;20020128;1000000;SYZ;;P;1;;;;
N;DXB;EP 6814;D;1130;20020103;20020124;0004000;BND;;P;1;EP 6747;0630;0;
N;DXB;ES 1203;D;1130;20020103;20020127;0004567;BAH;;C;1;;;;
N;DXB;RB  516;D;1130;20020101;20020129;0200000;DAM;;P;1;;;;
N;DXB;EK  953;D;1135;20020106;20020127;0000007;AUH;BEY;P;1;;;;
N;DXB;EP 6956;D;1145;20020105;20020126;0000060;BAH;;P;1;EP 6747;0630;0;
N;DXB;WY  114;D;1145;20020101;20020130;1234567;MCT;;P;1;;;;
N;DXB;ES 1203;D;1150;20020107;20020128;1000000;BAH;;C;1;;;;
N;DXB;SU  522;D;1150;20020107;20020128;1000000;SVO;;P;1;;;;
N;DXB;2Y 2613;D;1200;20020101;20020129;0200000;KIH;;P;1;;;;
N;DXB;AHC 018;D;1200;20020103;20020128;1004060;BAK;;C;1;;;;
N;DXB;EK  005;D;1200;20020101;20020106;0234567;LHR;;P;1;;;;
N;DXB;EK  005;D;1200;20020107;20020112;1234560;LHR;;P;1;;;;
N;DXB;EK  005;D;1200;20020114;20020130;1234567;LHR;;P;1;;;;
N;DXB;FR  233;D;1200;20011220;20011220;0004000;FRA;;P;1;FR  232;1100;0;
N;DXB;IR  610;D;1200;20020107;20020128;1000000;THR;;P;1;;;;
N;DXB;KN 7133;D;1200;20020106;20020127;0000007;KIH;;P;1;;;;
N;DXB;LH 1201;D;1200;20011211;20011213;0234000;FRA;;P;1;LH 1200;1100;0;
N;DXB;LH 1201;D;1200;20011214;20011214;0000500;FRA;;P;1;LH 1200;1100;0;
N;DXB;PK  212;D;1200;20020101;20020129;0200000;KHI;;P;1;;;;
N;DXB;RB  516;D;1200;20020107;20020128;1000000;ALP;DAM;P;1;;;;
N;DXB;W5 5040;D;1200;20020102;20020130;0030060;THR;;P;1;;;;
N;DXB;EK  005;D;1205;20020113;20020113;0000007;LHR;;P;1;;;;
N;DXB;EK  103;D;1215;20020101;20020105;0200060;KWI;;P;1;;;;
N;DXB;EK  103;D;1215;20020102;20020130;0034507;KWI;;P;1;;;;
N;DXB;EK  103;D;1215;20020107;20020108;1200000;KWI;;P;1;;;;
N;DXB;EK  103;D;1215;20020114;20020129;1200060;KWI;;P;1;;;;
N;DXB;EK  321;D;1215;20020103;20020105;0004060;DMM;;P;1;;;;
N;DXB;EK  321;D;1215;20020110;20020110;0004000;DMM;;P;1;;;;
N;DXB;EK  321;D;1215;20020117;20020126;0004060;DMM;;P;1;;;;
N;DXB;LH  103;D;1215;20020112;20020112;0000060;KWI;;P;1;;;;
N;DXB;LH  321;D;1215;20020112;20020112;0000060;DMM;;P;1;;;;
N;DXB;MS  907;D;1215;20011028;20011028;0000007;AUH;CAI;P;1;;;;
N;DXB;MS  907;D;1215;20020102;20020130;0030000;AUH;CAI;P;1;;;;
N;DXB;PK  212;D;1215;20020107;20020128;1000000;KHI;;P;1;;;;
N;DXB;KE  952;D;1220;20020104;20020128;1000500;ICN;;P;1;;;;
N;DXB;MS  913;D;1230;20020113;20020127;0000007;CAI;;P;1;;;;
N;DXB;SD  235;D;1230;20011031;20011031;0030000;DOH;KRT;P;1;;;;
N;DXB;W5 5035;D;1230;20020101;20020129;0200500;KER;;P;1;;;;
N;DXB;AI  932;D;1235;20020104;20020125;0000500;BOM;;P;1;;;;
N;DXB;GF  605;D;1245;20020105;20020126;0000060;AUH;;P;1;;;;
N;DXB;MS  871;D;1245;20020103;20020128;1004000;CAI;;P;1;;;;
N;DXB;SQ 7396;D;1255;20020102;20020130;0030000;LHR;;C;1;;;;
N;DXB;EK  301;D;1300;20020101;20020129;1204560;JED;;P;1;;;;
N;DXB;EK  953;D;1300;20020101;20020129;0204060;BEY;;P;1;;;;
N;DXB;EP 6744;D;1300;20020107;20020128;1000000;THR;;P;1;;;;
N;DXB;ET 3613;D;1300;20020106;20020127;0000007;ADD;;C;1;;;;
N;DXB;IRQ1103;D;1300;20020101;20020129;0204000;GSM;;P;1;;;;
N;DXB;LH 1301;D;1300;20011211;20011213;0234000;FRA;;P;1;LH 1300;1200;0;
N;DXB;LH 1301;D;1300;20011214;20011214;0000500;FRA;;P;1;LH 1300;1200;0;
N;DXB;MS  919;D;1300;20020105;20020112;0000060;HBE;;P;1;;;;
N;DXB;MS  919;D;1300;20020119;20020126;0000060;HBE;;P;1;;;;
N;DXB;NL  087;D;1300;20020102;20020130;0030000;AUH;KHI;P;1;;;;
N;DXB;Z6  202;D;1300;20020106;20020127;0000007;EVN;DNK;P;1;;;;
N;DXB;AI  716;D;1305;20020103;20020126;0004060;BOM;;P;1;;;;
N;DXB;UL  227;D;1305;20020104;20020125;0000500;KWI;;P;1;;;;
N;DXB;SQ 7380;D;1310;20020102;20020130;0030000;AMS;;C;1;;;;
N;DXB;UL  227;D;1320;20020105;20020127;0000067;KWI;;P;1;;;;
N;DXB;WY  418;D;1320;20020105;20020126;0000060;MCT;;P;1;;;;
N;DXB;EK  223;D;1330;20020107;20020128;1000000;DOH;;P;1;;;;
N;DXB;ET 3613;D;1330;20020101;20020129;0200000;ADD;;C;1;;;;
N;DXB;KN 7135;D;1330;20020101;20020121;1234560;KIH;;P;1;;;;
N;DXB;SQ 7395;D;1345;20020103;20020124;0004000;SIN;;C;1;;;;
N;DXB;EP 6736;D;1350;20020101;20020129;0200000;ABD;;P;1;EP 6747;0630;0;
N;DXB;EP 6736;D;1350;20020104;20020125;0000500;ABD;;P;1;;;;
N;DXB;U6 3738;D;1350;20020104;20020125;0000500;SVX;;P;1;;;;
N;DXB;E4  756;D;1400;20020102;20020130;0030000;KHI;;P;1;;;;
N;DXB;IRQ1101;D;1400;20020102;20020130;1030500;GSM;;P;1;;;;
N;DXB;LH  111;D;1400;20020214;20020215;0004500;KHI;;P;1;;;;
N;DXB;LH  111;D;1400;20020218;20020222;1234500;FRA;;P;1;;;;
N;DXB;LH 1401;D;1400;20011211;20011213;0234000;FRA;;P;1;LH 1400;1300;0;
N;DXB;LH 1401;D;1400;20011214;20011214;0000500;FRA;;P;1;LH 1400;1300;0;
N;DXB;EK  911;D;1410;20020105;20020105;0000060;DAM;;P;1;;;;
N;DXB;EK  602;D;1415;20020101;20020113;1234567;KHI;;P;1;;;;
N;DXB;EK  602;D;1415;20020114;20020120;1204567;KHI;;P;1;;;;
N;DXB;EK  602;D;1415;20020116;20020116;0030000;KHI;;P;1;EK  224;1300;5;
N;DXB;EK  602;D;1415;20020116;20020123;0230000;KHI;;P;1;;;;
N;DXB;EK  602;D;1415;20020124;20020125;0004500;KHI;;P;1;EK  224;1300;0;
N;DXB;EK  602;D;1415;20020126;20020130;1230067;KHI;;P;1;;;;
N;DXB;EK  624;D;1415;20020102;20020130;0030500;THR;;P;1;;;;
N;DXB;GF  231;D;1420;20020102;20020130;0030000;KWI;;P;1;;;;
N;DXB;EK  313;D;1425;20020103;20020128;1004060;RUH;;P;1;;;;
N;DXB;CX  068;D;1430;20020102;20020130;1030007;HKG;;C;1;;;;
N;DXB;CX  068;D;1430;20020105;20020126;0000060;BOM;HKG;C;1;;;;
N;DXB;EK  243;D;1430;20020101;20020129;0200507;BAH;;P;1;;;;
N;DXB;EK  243;D;1430;20020102;20020130;0030000;BAH;;P;1;;;;
N;DXB;EK  243;D;1430;20020103;20020128;1004060;BAH;;P;1;;;;
N;DXB;ET  632;D;1430;20020105;20020126;0000060;KHI;;P;1;;;;
N;DXB;ET  652;D;1430;20020107;20020128;1000000;KHI;;P;1;;;;
N;DXB;CX  058;D;1435;20020103;20020124;0004000;HKG;;C;1;;;;
N;DXB;SU 1234;D;1440;20020124;20020124;0004000;SGN;SVO;P;1;;;;
N;DXB;SU  522;D;1440;20020104;20020125;0000500;SVO;;P;1;;;;
N;DXB;AI  770;D;1445;20020101;20020129;0200000;BLR;BOM;P;1;;;;
N;DXB;CV  796;D;1445;20020101;20020129;0200000;TPE;;C;1;;;;
N;DXB;IY  805;D;1445;20020105;20020126;0000060;ADE;SAH;P;1;;;;
N;DXB;LD  004;D;1445;20020106;20020127;0000007;HKG;;C;1;;;;
N;DXB;GF  507;D;1450;20020101;20020115;0200507;BAH;;P;1;;;;
N;DXB;GF  507;D;1450;20020102;20020112;1034060;BAH;;P;1;;;;
N;DXB;GF  507;D;1450;20020114;20020120;1034567;BAH;;P;1;;;;
N;DXB;GF  507;D;1450;20020121;20020130;1234567;BAH;;P;1;;;;
N;DXB;AI  734;D;1500;20020102;20020130;0030000;HYD;;P;1;;;;
N;DXB;FC  101;D;1500;20020101;20020129;1200067;SHJ;;C;1;;;;
N;DXB;IRQ1105;D;1500;20020101;20020129;0204067;GSM;;P;1;;;;
N;DXB;J5 7007;D;1500;20020106;20020127;0000007;SHJ;;P;1;;;;
N;DXB;KN 7135;D;1500;20020106;20020127;0000007;KIH;;P;1;;;;
N;DXB;LH 1501;D;1500;20011211;20011214;0234500;FRA;;P;1;LH 1500;1400;0;
N;DXB;LH  221;D;1500;20011030;20011030;0200000;FRA;;P;1;;;;
N;DXB;MH  161;D;1500;20020102;20020130;0030007;KHI;KUL;P;1;;;;
N;DXB;MP  222;D;1500;20020209;20020209;0000060;ATH;;C;1;MP  111;0800;0;
N;DXB;NL  312;D;1500;20020107;20020114;1000000;KHI;;P;1;;;;
N;DXB;NL  312;D;1500;20020128;20020128;1000000;KHI;;P;1;;;;
N;DXB;SV  555;D;1500;20020101;20020120;1234567;RUH;;P;1;;;;
N;DXB;SV  555;D;1500;20020122;20020130;1234567;RUH;;P;1;;;;
N;DXB;CX  058;D;1505;20020106;20020127;0000007;HKG;;C;1;;;;
N;DXB;SQ 7378;D;1510;20020107;20020128;1000000;CDG;;C;1;;;;
N;DXB;SR  394;D;1510;20020102;20020130;0030507;KHI;;P;1;;;;
N;DXB;CX  058;D;1515;20020101;20020129;0200000;HKG;;C;1;;;;
N;DXB;GF  232;D;1515;20020101;20020129;0200000;MCT;;P;1;;;;
N;DXB;BI  117;D;1525;20020101;20020129;0200060;KWI;;P;1;;;;
N;DXB;AI  740;D;1530;20011028;20011028;0000007;BOM;;P;1;;;;
N;DXB;AI  740;D;1530;20020102;20020130;0030000;BOM;;P;1;;;;
N;DXB;E4  767;D;1530;20020105;20020126;0000060;KHI;;P;1;;;;
N;DXB;FC  105;D;1530;20020107;20020128;1000000;SHJ;;C;1;;;;
N;DXB;QR  113;D;1530;20020105;20020126;0000060;DOH;;P;1;;;;
N;DXB;AI  708;D;1535;20020107;20020128;1000000;MAA;BOM;P;1;;;;
N;DXB;EP 6956;D;1545;20020103;20020124;0004000;BAH;;P;1;;;;
N;DXB;IR  658;D;1545;20020106;20020127;0000007;THR;;P;1;;;;
N;DXB;SQ 7375;D;1545;20020101;20020129;0200000;SIN;;C;1;;;;
N;DXB;WY  116;D;1545;20020101;20020130;1234567;MCT;;P;1;;;;
N;DXB;E4  744;D;1550;20020104;20020125;0000500;MCT;KHI;P;1;;;;
N;DXB;SQ 7378;D;1550;20020105;20020126;0000060;CDG;;C;1;;;;
N;DXB;AI  754;D;1555;20020105;20020126;0000060;DEL;BOM;P;1;;;;
N;DXB;QR  113;D;1555;20020101;20020129;1200500;DOH;;P;1;;;;
N;DXB;QR  113;D;1555;20020102;20020130;0034007;DOH;;P;1;;;;
N;DXB;IRQ1122;D;1600;20020103;20020124;0004000;THR;;P;1;;;;
N;DXB;IRQ1122;D;1600;20020106;20020127;0000007;THR;;P;1;IRQ1121;1400;0;
N;DXB;LH  111;D;1600;20020228;20020228;0004000;FRA;;P;1;;;;
N;DXB;LH 1601;D;1600;20011211;20011214;0234500;FRA;;P;1;LH 1600;1500;0;
N;DXB;LH  331;D;1600;20011030;20011030;0200000;FRA;;P;1;;;;
N;DXB;MP  222;D;1600;20011204;20011204;0200000;ATH;;P;1;;;;
N;DXB;MP  444;D;1600;20011204;20011204;0200000;ATH;;P;1;MP  333;1220;0;
N;DXB;SQ  403;D;1600;20020101;20020130;0230507;SIN;;P;1;;;;
N;DXB;SQ  427;D;1600;20020103;20020128;1004060;SIN;;P;1;;;;
N;DXB;MH  031;D;1605;20020101;20020129;0200060;KUL;;P;1;;;;
N;DXB;D4  506;D;1610;20020106;20020127;0000007;SHJ;;P;1;;;;
N;DXB;E4  767;D;1610;20020106;20020127;0000007;KHI;;P;1;;;;
N;DXB;E4  787;D;1610;20020106;20020127;0000007;KHI;;P;1;;;;
N;DXB;AI  700;D;1615;20020103;20020124;0004000;COK;BOM;P;1;;;;
N;DXB;SV  557;D;1615;20020101;20020130;1234567;DMM;;P;1;;;;
N;DXB;KU  674;D;1625;20020101;20020130;1230067;KWI;;P;1;;;;
N;DXB;KU  674;D;1625;20020103;20020125;0004500;KWI;;P;1;;;;
N;DXB;5S  102;D;1630;20020103;20020117;0004000;SHJ;;P;1;;;;
N;DXB;KN 7137;D;1630;20020101;20020121;1234560;KIH;;P;1;;;;
N;DXB;OV  123;D;1630;20020125;20020125;0000500;DHA;;0;1;;;;
N;DXB;LD  004;D;1645;20020102;20020130;0030000;HKG;;C;1;;;;
N;DXB;SV  551;D;1645;20020103;20020128;1004060;JED;;P;1;;;;
N;DXB;FR  236;D;1650;20011220;20011220;0004000;FRA;;P;1;FR  235;1550;0;
N;DXB;CV  796;D;1700;20020105;20020126;0000060;TPE;;C;1;;;;
N;DXB;E4  711;D;1700;20020107;20020128;1000000;AUH;KHI;P;1;;;;
N;DXB;GF  575;D;1700;20020101;20020130;1234567;DOH;;P;1;;;;
N;DXB;IRQ1107;D;1700;20020101;20020130;0234567;GSM;;P;1;;;;
N;DXB;LH  111;D;1700;20020204;20020208;1030500;FRA;;P;1;LH  110;1600;0;
N;DXB;LH  111;D;1700;20020205;20020205;0200000;FRA;;P;1;LH  110;1600;0;
N;DXB;LH  111;D;1700;20020207;20020207;0004000;FRA;;P;1;LH  110;1600;0;
N;DXB;LH 1701;D;1700;20011211;20011214;0234500;FRA;;P;1;LH 1700;1600;0;
N;DXB;LH  441;D;1700;20011030;20011030;0200000;FRA;;P;1;;;;
N;DXB;CV  796;D;1715;20020107;20020128;1000000;TPE;;C;1;;;;
N;DXB;CX  730;D;1715;20020101;20020129;1204007;BAH;HKG;P;1;;;;
N;DXB;EP 6956;D;1720;20020107;20020128;1000000;BAH;;P;1;;;;
N;DXB;EK  542;D;1730;20020101;20020129;0200060;MAA;;P;1;;;;
N;DXB;EP 6754;D;1730;20020101;20020130;1234567;THR;;P;1;;;;
N;DXB;SR  398;D;1735;20020101;20020129;0204060;MCT;;P;1;;;;
N;DXB;ME  429;D;1740;20020101;20020130;1234567;BEY;;P;1;;;;
N;DXB;UL  532;D;1745;20011028;20011028;0000007;CMB;;P;1;;;;
N;DXB;UL  532;D;1745;20020102;20020130;0030000;CMB;;P;1;;;;
N;DXB;AI  710;D;1800;20020101;20020129;0200000;BOM;;P;1;;;;
N;DXB;AI  746;D;1800;20020106;20020127;0000007;BOM;;P;1;;;;
N;DXB;EK  321;D;1800;20020107;20020128;1000000;DMM;;P;1;;;;
N;DXB;EK  664;D;1800;20020101;20020129;0200000;ISB;;P;1;;;;
N;DXB;EK  664;D;1800;20020104;20020126;0000560;ISB;;P;1;;;;
N;DXB;EK  674;D;1800;20020102;20020130;0034007;LHE;;P;1;;;;
N;DXB;KN 7137;D;1800;20020106;20020127;0000007;KIH;;P;1;;;;
N;DXB;LH 1801;D;1800;20011211;20011214;0234500;FRA;;P;1;LH 1800;1700;0;
N;DXB;AI  720;D;1805;20020102;20020130;0030000;DEL;BOM;P;1;;;;
N;DXB;LH  632;D;1805;20020101;20020130;1234567;AUH;;P;1;;;;
N;DXB;EK  225;D;1815;20020101;20020129;0200060;DOH;;P;1;;;;
N;DXB;EK  225;D;1815;20020102;20020130;1034507;DOH;;P;1;;;;
N;DXB;RJ  023;D;1815;20011031;20011031;0030000;AMM;;C;1;;;;
N;DXB;RJ  023;D;1815;20020106;20020127;0000007;AMM;;C;1;;;;
N;DXB;WY  412;D;1815;20020101;20020130;1234567;MCT;;P;1;;;;
N;DXB;E4  723;D;1825;20020103;20020124;0004000;AUH;KHI;P;1;;;;
N;DXB;GF  232;D;1825;20020104;20020125;0000500;MCT;;P;1;;;;
N;DXB;E4  655;D;1830;20020103;20020124;0004000;AUH;PEW;P;1;;;;
N;DXB;EK  500;D;1830;20020101;20020130;1234567;BOM;;P;1;;;;
N;DXB;ES  204;D;1830;20020102;20020130;0030500;BAH;;C;1;;;;
N;DXB;ES  204;D;1830;20020103;20020127;0004067;BAH;;C;1;;;;
N;DXB;ET 3613;D;1830;20020103;20020124;0004000;ADD;;C;1;;;;
N;DXB;VN  532;D;1830;20020102;20020130;1030500;SGN;;P;1;;;;
N;DXB;VN  534;D;1830;20020101;20020129;0204060;HAN;;P;1;;;;
N;DXB;EK  702;D;1840;20020101;20020130;0230507;DEL;;P;1;;;;
N;DXB;CY  393;D;1845;20020102;20020130;0030000;BAH;LCA;P;1;;;;
N;DXB;GF  585;D;1845;20020102;20020130;0030000;AUH;;P;1;;;;
N;DXB;GF  601;D;1845;20020101;20020129;0200000;AUH;;P;1;;;;
N;DXB;TG  518;D;1845;20020101;20020129;0200507;BKK;;P;1;;;;
N;DXB;E4  411;D;1850;20020106;20020127;0000007;AUH;LHE;P;1;;;;
N;DXB;E4  622;D;1850;20020107;20020128;1000000;AUH;PEW;P;1;;;;
N;DXB;SQ 7375;D;1850;20020106;20020127;0000007;SIN;;C;1;;;;
N;DXB;GF  601;D;1855;20020107;20020128;1000000;AUH;;P;1;;;;
N;DXB;6U  234;D;1900;20020103;20020124;0004000;ODS;KBP;P;1;;;;
N;DXB;AI  722;D;1900;20020104;20020125;0000500;BOM;;P;1;;;;
N;DXB;BI  096;D;1900;20020106;20020127;0000007;SIN;BWN;P;1;;;;
N;DXB;E4  511;D;1900;20020105;20020126;0000060;AUH;ISB;P;1;;;;
N;DXB;ES 1205;D;1900;20020101;20020129;0200000;BAH;;C;1;;;;
N;DXB;NL  065;D;1900;20020104;20020125;0000500;AUH;PEW;P;1;;;;
N;DXB;NL  913;D;1900;20020104;20020125;0000500;AUH;LHE;P;1;;;;
N;DXB;T6  302;D;1900;20020107;20020128;1000000;ODS;KBP;P;1;;;;
N;DXB;UL  532;D;1900;20020107;20020128;1000000;CMB;;P;1;;;;
N;DXB;GF  506;D;1905;20020101;20020119;1234560;MCT;;P;1;;;;
N;DXB;GF  506;D;1905;20020106;20020120;0000007;MCT;;P;1;;;;
N;DXB;GF  506;D;1905;20020121;20020130;1234060;MCT;;P;1;;;;
N;DXB;GF  506;D;1905;20020125;20020127;0000507;MCT;;P;1;;;;
N;DXB;UL  228;D;1910;20020104;20020125;0000500;CMB;;P;1;;;;
N;DXB;CX  750;D;1915;20020101;20020130;0230067;BOM;HKG;P;1;;;;
N;DXB;LD  002A;D;1915;20020102;20020130;0030007;HKG;;C;1;;;;
N;DXB;AI  948;D;1920;20020106;20020127;0000007;AUH;TRV;P;1;;;;
N;DXB;OK  401;D;1925;20020101;20020111;0204500;LCA;PRG;P;1;;;;
N;DXB;OK  401;D;1925;20020115;20020129;0204000;LCA;PRG;P;1;;;;
N;DXB;UL  228;D;1925;20020105;20020127;0000067;CMB;;P;1;;;;
N;DXB;BG  010;D;1930;20020102;20020130;0030000;DAC;;P;1;;;;
N;DXB;IY  860;D;1930;20020102;20020130;0030000;KHI;;P;1;;;;
N;DXB;SD  231;D;1930;20020107;20020128;1000000;KRT;;P;1;;;;
N;DXB;KL  421;D;1940;20020101;20020130;1234567;AUH;AMS;P;1;;;;
N;DXB;UL  556;D;1950;20020103;20020127;0004007;CMB;;P;1;;;;
N;DXB;KL 9166;D;1955;20020102;20020130;1030060;AMS;;C;1;;;;
N;DXB;NL  085;D;1955;20020106;20020127;0000007;AUH;PEW;P;1;;;;
N;DXB;BG  030;D;1959;20020101;20020129;0200060;BOM;DAC;P;1;;;;
N;DXB;QR  119;D;1959;20020101;20020130;1230000;DOH;;P;1;;;;
N;DXB;QR  119;D;1959;20020103;20020127;0004567;DOH;;P;1;;;;
N;DXB;AI  764;D;2005;20020105;20020126;0000060;AUH;CCJ;P;1;;;;
N;DXB;CX  732;D;2005;20020102;20020130;0030560;HKG;;P;1;;;;
N;DXB;R3  312;D;2005;20020104;20020125;0000500;EVN;;P;1;;;;
N;DXB;R3  312;D;2005;20020107;20020128;1000000;EVN;;P;1;;;;
N;DXB;GF  509;D;2010;20020101;20020130;1234567;BAH;;P;1;;;;
N;DXB;MS  929;D;2015;20020107;20020128;1000000;MCT;CAI;P;1;;;;
N;DXB;NL  075;D;2015;20020103;20020127;0004007;AUH;ISB;P;1;;;;
N;DXB;E4  733;D;2020;20020106;20020127;0000007;KHI;;P;1;;;;
N;DXB;E4  445;D;2025;20020103;20020124;0004000;LHE;;P;1;;;;
N;DXB;AI  766;D;2030;20020106;20020127;0000007;HYD;;P;1;;;;
N;DXB;EP 6790;D;2030;20020102;20020130;0030000;MHD;;P;1;;;;
N;DXB;NL  102;D;2030;20020101;20020129;0200000;AUH;PEW;P;1;;;;
N;DXB;BI  098;D;2040;20020101;20020130;0230060;BWN;;P;1;;;;
N;DXB;GF  605;D;2045;20020103;20020124;0004000;AUH;;P;1;;;;
N;DXB;E4  434;D;2050;20020104;20020125;0000500;LHE;;P;1;;;;
N;DXB;IC  952;D;2050;20020102;20020130;1034000;HYD;;P;1;;;;
N;DXB;E4  701;D;2055;20020101;20020129;0200000;KHI;;P;1;;;;
N;DXB;NL  903;D;2055;20020102;20020130;0030000;AUH;LHE;P;1;;;;
N;DXB;AF  627;D;2100;20020101;20020130;1234567;CDG;;P;1;AF  626;1820;0;
N;DXB;AT  265;D;2100;20020101;20020111;0200500;CMN;;P;1;;;;
N;DXB;AT  265;D;2100;20020115;20020129;0200000;CMN;;P;1;;;;
N;DXB;FC  507;D;2100;20020107;20020128;1000000;RUH;;C;1;;;;
N;DXB;J2  016;D;2100;20020101;20020129;0204007;BAK;;P;1;;;;
N;DXB;KM  833;D;2100;20020105;20020126;0000060;KWI;MLA;P;1;;;;
N;DXB;PK  214;D;2100;20020101;20020130;1234500;KHI;;P;1;;;;
N;DXB;PK  214;D;2100;20020106;20020127;0000007;KHI;;P;1;;;;
N;DXB;BI  034;D;2105;20020102;20020130;0030000;BKK;BWN;P;1;;;;
N;DXB;BI  034;D;2105;20020106;20020127;0000007;BKK;BWN;P;1;;;;
N;DXB;E4  523;D;2105;20020102;20020130;0030000;ISB;;P;1;;;;
N;DXB;BA  106;D;2110;20020101;20020130;1234567;LHR;;P;1;BA  107;1830;0;
N;DXB;EK 9880;D;2110;20020102;20020130;0030000;HKG;;C;1;;;;
N;DXB;IY  820;D;2110;20020105;20020126;0000060;SAH;;P;1;;;;
N;DXB;AI  928;D;2115;20020103;20020124;0004000;TRV;;P;1;;;;
N;DXB;BI  033;D;2115;20020101;20020129;0200060;FRA;;P;1;;;;
N;DXB;EK  610;D;2115;20020102;20020130;0030500;KHI;DAC;P;1;;;;
N;DXB;EK  612;D;2115;20020105;20020127;0000067;DAC;;P;1;;;;
N;DXB;VN  533;D;2115;20020101;20020129;0204007;CDG;;P;1;;;;
N;DXB;VN  535;D;2115;20020102;20020130;1030500;CDG;;P;1;;;;
N;DXB;FC  105;D;2130;20020101;20020129;1200060;SHJ;;C;1;;;;
N;DXB;FC  507;D;2130;20020101;20020129;1204500;RUH;;C;1;;;;
N;DXB;GF  603;D;2130;20020102;20020130;0030060;AUH;;P;1;;;;
N;DXB;GN  701;D;2130;20020105;20020126;0000060;LBV;;P;1;;;;
N;DXB;PK  214;D;2130;20020105;20020126;0000060;KHI;;P;1;;;;
N;DXB;PK  222;D;2130;20020102;20020130;0030000;LHE;PEW;P;1;;;;
N;DXB;PK  224;D;2130;20020101;20020129;0200000;PEW;;P;1;;;;
N;DXB;CX  057;D;2135;20020102;20020130;0030000;CDG;;C;1;;;;
N;DXB;BI  097;D;2140;20020101;20020129;1200060;LHR;;P;1;;;;
N;DXB;EK 9989;D;2140;20020103;20020124;0004000;AMS;;C;1;;;;
N;DXB;AI  756;D;2145;20020104;20020125;0000500;CCJ;BOM;P;1;;;;
N;DXB;CX  057;D;2145;20020107;20020128;1000000;CDG;;C;1;;;;
N;DXB;RJ  190;D;2145;20020103;20020128;1004000;KHI;;P;1;;;;
N;DXB;LH  633;D;2150;20020101;20020130;1234567;FRA;;P;1;;;;
N;DXB;SR  395;D;2150;20020102;20020130;0030507;ZRH;;P;1;;;;
N;DXB;SR  397;D;2150;20020107;20020128;1000000;ZRH;;P;1;;;;
N;DXB;SR  399;D;2150;20020101;20020129;0204060;ZRH;;P;1;;;;
N;DXB;LD  002;D;2155;20020101;20020129;1200500;HKG;;C;1;;;;
N;DXB;BG  058;D;2200;20020103;20020124;0004000;ZYL;DAC;P;1;;;;
N;DXB;CX  057;D;2200;20020105;20020126;0000060;CDG;;C;1;;;;
N;DXB;HM  028;D;2200;20020104;20020125;0000500;LGW;;P;1;;;;
N;DXB;MS  913;D;2200;20020106;20020106;0000007;CAI;;P;1;;;;
N;DXB;PK  254;D;2200;20020103;20020124;0004000;MUX;LYP;P;1;;;;
N;DXB;RB  525;D;2200;20020104;20020125;0000500;MCT;;P;1;;;;
N;DXB;RJ  083;D;2200;20011030;20011030;0200000;AMM;;C;1;;;;
N;DXB;RJ  083;D;2200;20020104;20020125;0000500;AMM;;C;1;;;;
N;DXB;CX  067;D;2205;20020101;20020129;0200567;FRA;;C;1;;;;
N;DXB;LD  002;D;2205;20020103;20020126;0004060;HKG;;C;1;;;;
N;DXB;LD  003;D;2210;20020105;20020126;0000060;BRU;;C;1;;;;
N;DXB;OA  346;D;2210;20020105;20020128;1000060;KWI;ATH;P;1;;;;
N;DXB;WY  120;D;2210;20020101;20020120;1234567;MCT;;P;1;;;;
N;DXB;WY  120;D;2210;20020121;20020130;1234560;MCT;;P;1;;;;
N;DXB;WY  120;D;2210;20020127;20020127;0000007;MCT;;P;1;WY  119;2005;0;
N;DXB;EK  007;D;2215;20020101;20020130;1234567;LGW;;P;1;;;;
N;DXB;EK 9991;D;2215;20020102;20020130;0030000;AMS;;C;1;;;;
N;DXB;EK 9989;D;2220;20020101;20020129;0200007;AMS;;C;1;;;;
N;DXB;SQ 7376;D;2220;20020107;20020128;1000000;AMS;;C;1;;;;
N;DXB;KQ  311;D;2225;20020101;20020130;1234567;NBO;;P;1;;;;
N;DXB;BG  001;D;2230;20020103;20020124;0004000;FRA;LHR;P;1;;;;
N;DXB;EK  451;D;2230;20020102;20020130;1030500;SAH;;P;1;;;;
N;DXB;EK  612;D;2230;20020107;20020128;1000000;DAC;;P;1;;;;
N;DXB;MH  090;D;2230;20020101;20020129;0204007;EWR;;P;1;;;;
N;DXB;PK  224;D;2230;20020103;20020128;1004007;PEW;;P;1;;;;
N;DXB;RB 2924;D;2230;20020107;20020107;1000000;DAM;;P;1;RB 2923;2130;0;
N;DXB;RJ  602;D;2235;20020102;20020130;0030000;AUH;;P;1;;;;
N;DXB;AI  844;D;2240;20020107;20020128;1000000;DEL;BOM;P;1;;;;
N;DXB;BG  009;D;2240;20020107;20020128;1000000;BRU;JFK;P;1;;;;
N;DXB;BI  108;D;2240;20020101;20020129;0200060;CCU;BWN;P;1;;;;
N;DXB;BG  048;D;2245;20020106;20020127;0000007;CGP;DAC;P;1;;;;
N;DXB;BG  052;D;2245;20020107;20020128;1000000;ZYL;DAC;P;1;;;;
N;DXB;BR  686;D;2245;20020106;20020127;0000007;TPE;;C;1;;;;
N;DXB;CV  781;D;2245;20020104;20020125;0000500;KHI;LUX;C;1;;;;
N;DXB;EK  068;D;2245;20020101;20020130;1234567;SIN;MEL;P;1;;;;
N;DXB;OA  350;D;2245;20020101;20020129;0204007;AMM;ATH;P;1;;;;
N;DXB;RJ  027;D;2245;20020101;20020129;0200000;AMM;;C;1;;;;
N;DXB;TL  224;D;2245;20020104;20020125;0000500;BEY;;C;1;;;;
N;DXB;EK  800;D;2250;20020104;20020125;0000500;CMB;;P;1;;;;
N;DXB;EK  810;D;2250;20020102;20020130;1030000;CMB;MLE;P;1;;;;
N;DXB;BR  686;D;2255;20020101;20020129;0200000;TPE;;C;1;;;;
N;DXB;EK  062;D;2255;20020101;20020129;0204560;DAC;KUL;P;1;;;;
N;DXB;EK  540;D;2255;20020106;20020127;0000007;MAA;;P;1;;;;
N;DXB;UL  508;D;2255;20020105;20020126;0000060;CMB;;P;1;;;;
N;DXB;AZ  749;D;2300;20020101;20020129;0204000;MXP;;P;1;;;;
N;DXB;D3  179A;D;2300;20020105;20020126;0000060;HGA;;P;1;;;;
N;DXB;J5 7006;D;2300;20020105;20020126;0000060;MGQ;;P;1;;;;
N;DXB;KL 9165;D;2300;20020101;20020129;0200507;SIN;;C;1;;;;
N;DXB;LN  273;D;2300;20020105;20020126;0000060;TIP;;P;1;;;;
N;DXB;RO  065;D;2305;20020102;20020130;0030000;LCA;BUH;P;1;;;;
N;DXB;RO  065;D;2305;20020104;20020125;0000500;LCA;BUH;P;1;;;;
N;DXB;RO  066;D;2305;20020106;20020127;0000007;LCA;BUH;P;1;;;;
N;DXB;OS 3331;D;2310;20020106;20020127;0000007;MLE;;P;1;;;;
N;DXB;EK  082;D;2315;20020101;20020129;1204060;BKK;HKG;P;1;;;;
N;DXB;EK  086;D;2315;20020102;20020130;0030507;BKK;HKG;P;1;;;;
N;DXB;PK  232;D;2315;20020104;20020126;0000560;ISB;PEW;P;1;;;;
N;DXB;AI  922;D;2320;20020106;20020127;0000007;CCJ;;P;1;;;;
N;DXB;EK  664;D;2320;20020102;20020130;0030007;ISB;;P;1;;;;
N;DXB;D4  505;D;2330;20020102;20020130;0030000;RIY;HGA;P;1;;;;
N;DXB;EK  076;D;2330;20020101;20020129;0204067;CMB;CGK;P;1;;;;
N;DXB;EK  540;D;2330;20020102;20020130;0030000;MAA;;P;1;;;;
N;DXB;EK  674;D;2330;20020107;20020128;1000000;LHE;;P;1;;;;
N;DXB;ES  201;D;2330;20020101;20020130;1234567;BAH;;C;1;;;;
N;DXB;FC  501;D;2330;20020101;20020130;1234507;RUH;;C;1;;;;
N;DXB;SQ  404;D;2330;20020101;20020129;1204060;IST;;P;1;;;;
N;DXB;SU  522;D;2330;20020105;20020126;0000060;SVO;;P;1;;;;
N;DXB;TK 1163;D;2330;20020102;20020130;1030507;IST;;P;1;;;;
N;DXB;EK  463;D;2340;20020101;20020130;1234067;JNB;;P;1;;;;
N;DXB;KA  501;D;2340;20020101;20020130;0234067;HKG;;C;1;;;;
N;DXB;EK  814;D;2345;20020101;20020129;1204060;MLE;CMB;P;1;;;;
N;DXB;OA  348;D;2345;20020102;20020130;0030500;ATH;;P;1;;;;
N;DXB;EK 9882;D;2355;20020101;20020129;0200000;HKG;;C;1;;;;
N;DXB;FC  201;D;2355;20020102;20020130;0034507;BAH;;C;1;;;;
N;DXB;MH  030;D;2355;20020104;20020128;1000500;IST;;P;1;;;;
E;001216

