09:CHECKIN09:test:172.17.9.245:true:true
09:CHECKIN09:test1:172.17.6.17:true:true
01:GATE01:test:172.17.9.245:true:true
140:CHECKIN140:test:172.19.6.229:false:true
02:CHECKIN02:test:172.20.101.101
03:CHECKIN03:test:57.236.17.36
036:CHECKIN036:test:
037:CHECKIN037:test:
063:CHECKIN063:test:
064:CHECKIN064:test:
091:CHECKIN091:test:
092:CHECKIN092:test:
160:CHECKIN160:test:172.20.4.137
201:CHECKIN201:test:172.20.101.100
B25:GateB25:test:172.19.6.229
02:Gate02:test:172.20.101.101
61:Gate61:test:57.236.17.9
A01:GateA01:test:172.19.6.229
212:CHECKIN212:test:172.20.101.101
B21:GATEB21:test:172.20.101.101
B07:GATEB07:test:172.19.6.229
