001:CHECKIN001:test:192.168.50.130:true:true
101:CHECKIN101:test:10.8.0.6:true:true
103:CHECKIN103:test:192.168.50.130:true:true
01:GATE01:test:10.8.0.6:true:true
32:GATEA32:test:192.168.50.130:true:true
02:CHECKIN02:test:172.20.101.101
03:CHECKIN03:test:57.236.17.36
036:CHECKIN036:test:
037:CHECKIN037:test:
063:CHECKIN063:test:
064:CHECKIN064:test:
091:CHECKIN091:test:
092:CHECKIN092:test:
160:CHECKIN160:test:172.20.4.137
201:CHECKIN201:test:172.20.101.100
B25:GateB25:test:172.19.6.229
02:Gate02:test:172.20.101.101
61:Gate61:test:57.236.17.9
A01:GateA01:test:172.19.6.229
212:CHECKIN212:test:172.20.101.101
B21:GATEB21:test:172.20.101.101
B07:GATEB07:test:172.19.6.229
115:CHECKIN115:test:172.17.9.187:true:true
115:CHECKIN115:test1:127.0.0.1:true:true
01:GATE01:test:192.168.50.131:true:true
01:GATE01:test1:127.0.0.1:true:true