SGS 1572864 512 2000 500
/* ###########################################################################
/* #
/* # sgs.tab
/* #
/* # CENTRAL CONFIGURATION - Main System Parameter Configuration file
/* #
/* #
/* # PROJECT:   SATS SINGAPORE
/* # LOCATION:  SIN
/* # SERVER:    CAPSXP29/CAPSXT37 (SIOCPROD)
/* #
/* # REMARKS:   -
/* #
/* # HISTORY
/* # 20011016   SHA     First Revision of configuration
/* # 20030311   SHA     Adaption to SIN Server
/* # 20030828   SHA     Removed unused processes
/* # 20030926   SHA     Added KRISCOM,TAAHDL,SAPHDL
/* # 20031110   SHA     Changed DEMHDL demhdlo.p.i
/* # 20031127   SHA     Changed KRISCOM load sharing
/* # 20040216   SHA     Added POLHDLR
/* # 20040219   SHA     Added STAHDL
/* # 20040219   SHA     Added BRS,COSYS
/* # 20040302   SHA     Added TRIG C3TAB
/* # 20040324   JFK     Added C3TAB GSI,506
/* # 20040331   SHA     Added LOADSHARING FOR RELHDL
/* # 20040406   SHA     Added LOADSHARING FOR FDIHDL
/* # 20040503   SHA     Added LOADSHARING FOR FLIGRO
/* # 20040526   SHA     Added COSWMQ2
/* # 20040708   JIM     removed ROTAB 3101,ROTAB 3102,ROTAB 3103,ROTAB 3104
/* # 20040708   JIM     removed PNTAB stxhdl,7900,0,0,0,0,0,0
/* # 20040708   JIM     removed PNTAB nflhdl,7950,0,0,0,0,0,0
/* #
/* ###########################################################################
/* # RIGHTS='(c) 2000,2001,2002,2003,2004 ABB Airport Technologies GmbH'
/* ###########################################################################


MTABNUM 40              /* MAX TABLE NO (CURRENT)
MTABNUM 76              /* MAX TABLE NO (ABSOLUTE)

SPTABNR   1             /* TABLE NO
SPTABSZ 992             /* TABLE SIZE

FSMEM 30,100,40,20000

PRTDEV /ceda/conf/ceda.log,/dev/null,0

/******************************************
/*  R O U T E  T A B L E
/******************************************

ROTABNR   5                     /* TABLE NO.
ROTABRSZ 32                     /* RECORD SIZE

ROTAB 506,7150,7160,7170,7180,0,0,0,0,0,0,0,0,0,0,0,0 /* sqlhdl1,2,3,4
ROTAB 509,7810,7820,7830,7840,0,0,0,0,0,0,0,0,0,0,0,0 /* fligro1,2,3,4
ROTAB 512,7250,7252,7254,7256,7258,0,0,0,0,0,0,0,0,0,0,0  /* kriscom
/* ROTAB 513,7270,7272,0,0,0,0,0,0,0,0,0,0,0,0,0,0  /* kriscom linked
ROTAB 515,5400,5402,5404,5406,0,0,0,0,0,0,0,0,0,0,0,0 /* relhdl
ROTAB 1101,1900,0,0,0,0,0,0,0,0,0,0,0,0,0,0,0  /* msghdl to bchdl
ROTAB 1801,1200,0,0,0,0,0,0,0,0,0,0,0,0,0,0,0  /* netin to router
ROTAB 1802,1900,0,0,0,0,0,0,0,0,0,0,0,0,0,0,0  /* netin to bchdl
ROTAB 7151,1900,7400,0,0,0,0,0,0,0,0,0,0,0,0,0,0 /* sqlhdl1 to bchdl,action
ROTAB 7161,1900,7400,0,0,0,0,0,0,0,0,0,0,0,0,0,0 /* sqlhdl1 to bchdl,action
ROTAB 7171,1900,7400,0,0,0,0,0,0,0,0,0,0,0,0,0,0 /* sqlhdl1 to bchdl,action
ROTAB 7181,1900,7400,0,0,0,0,0,0,0,0,0,0,0,0,0,0 /* sqlhdl1 to bchdl,action
ROTAB 7401,7550,7560,0,0,0,0,0,0,0,0,0,0,0,0,0,0 /* action to rulfndo and rulfndp
ROTAB 7801,1900,0,0,0,0,0,0,0,0,0,0,0,0,0,0,0 /* flight to bchdl
ROTAB 9001,1900,0,0,0,0,0,0,0,0,0,0,0,0,0,0,0 /* demhdl to bchdl
ROTAB 19001,1300,0,0,0,0,0,0,0,0,0,0,0,0,0,0,0 /* Timsch Interface to timsch
ROTAB 15432,6100,0,0,0,0,0,0,0,0,0,0,0,0,0,0,0 /* Hsb! DB_data to netif
ROTAB 16384,1100,0,0,0,0,0,0,0,0,0,0,0,0,0,0,0 /* Message Route to msghdl

/******************************************
/*      P R O C E S S  N A M E  T A B L E
/******************************************

PNTABNR  10                     /* TABLE NO.
PNTABRSZ 28                     /* RECORD SIZE

PNTAB sysqcp,1,0,0,0,0,0,0
PNTAB nmghdl,1100,0,0,0,0,0,0
PNTAB router,1200,0,0,0,0,0,0
PNTAB netin,1800,0,0,0,0,0,0
PNTAB bchdl,1900,0,0,0,0,0,0
PNTAB cdrhdl,1910,0,0,0,0,0,0
PNTAB bccom,1920,0,0,0,0,0,0
PNTAB authdl,2600,0,0,0,0,0,0
PNTAB discal,5250,0,0,0,0,0,0
PNTAB demcci,5270,0,0,0,0,0,0
PNTAB relhdl1,5400,0,0,0,0,0,0
PNTAB relhdl2,5402,0,0,0,0,0,0
PNTAB relhdl3,5404,0,0,0,0,0,0
PNTAB relhdl4,5406,0,0,0,0,0,0
PNTAB totams,6020,0,0,0,0,0,0
PNTAB sqlhdl1,7150,0,0,0,0,0,0
PNTAB sqlhdl2,7160,0,0,0,0,0,0
PNTAB sqlhdl3,7170,0,0,0,0,0,0
PNTAB sqlhdl4,7180,0,0,0,0,0,0
PNTAB csk,7280,0,0,0,0,0,0
PNTAB tams,7284,0,0,0,0,0,0
PNTAB tamsah,7286,0,0,0,0,0,0
PNTAB telex,7298,0,0,0,0,0,0
PNTAB fileif,7300,0,0,0,0,0,0
PNTAB action,7400,0,0,0,0,0,0
PNTAB flicol,7540,0,0,0,0,0,0
PNTAB rulfndo,7550,0,0,0,0,0,0
PNTAB rulfndp,7560,0,0,0,0,0,0
PNTAB loghdl,7700,0,0,0,0,0,0
PNTAB ssiuhd,7760,0,0,0,0,0,0
PNTAB ssiehd,7765,0,0,0,0,0,0
PNTAB flight,7800,0,0,0,0,0,0
PNTAB flisea,7805,0,0,0,0,0,0
PNTAB fligro1,7810,0,0,0,0,0,0
PNTAB fligro2,7820,0,0,0,0,0,0
PNTAB fligro3,7830,0,0,0,0,0,0
PNTAB fligro4,7840,0,0,0,0,0,0
PNTAB ntisch,7850,0,0,0,0,0,0
PNTAB fdihdl1,8450,0,0,0,0,0,0
PNTAB fdihdl2,8452,0,0,0,0,0,0
PNTAB ftphdl,8750,0,0,0,0,0,0
PNTAB profnd,8850,0,0,0,0,0,0
PNTAB stahdl,8950,0,0,0,0,0,0
PNTAB demhdlo,9000,0,0,0,0,0,0
PNTAB demhdlp,9002,0,0,0,0,0,0
PNTAB demhdli,9004,0,0,0,0,0,0
PNTAB polhdl,9050,0,0,0,0,0,0
PNTAB polhdlr,9052,0,0,0,0,0,0
PNTAB jobhdl,9100,0,0,0,0,0,0
PNTAB demfnd,9150,0,0,0,0,0,0
PNTAB tlxgen,9200,0,0,0,0,0,0
PNTAB rdphdl,9400,0,0,0,0,0,0
PNTAB impmgr,9550,0,0,0,0,0,0
PNTAB imphdl,9560,0,0,0,0,0,0
PNTAB coshdl,8240,0,0,0,0,0,0
PNTAB coswmq,8242,0,0,0,0,0,0
PNTAB coswmq2,8244,0,0,0,0,0,0
PNTAB saphdl,8810,0,0,0,0,0,0
PNTAB taa,7288,0,0,0,0,0,0
PNTAB taahdl,7246,0,0,0,0,0,0
PNTAB bridge01,7250,0,0,0,0,0,0
PNTAB bridge02,7252,0,0,0,0,0,0
PNTAB bridge03,7254,0,0,0,0,0,0
PNTAB bridge04,7256,0,0,0,0,0,0
PNTAB bridge05,7258,0,0,0,0,0,0
PNTAB bridge06,7260,0,0,0,0,0,0
PNTAB bridge07,7262,0,0,0,0,0,0
PNTAB bridge08,7264,0,0,0,0,0,0
PNTAB bridge09,7266,0,0,0,0,0,0
PNTAB bridge10,7268,0,0,0,0,0,0
PNTAB bridge11,7270,0,0,0,0,0,0
/* PNTAB bridge12,7272,0,0,0,0,0,0
PNTAB bridge13,7274,0,0,0,0,0,0
PNTAB hashdl,7240,0,0,0,0,0,0
PNTAB bsrhdl,7248,0,0,0,0,0,0
PNTAB rsrhdl,9450,0,0,0,0,0,0

/* *********************************************/
/* THE Name Server Table                       */
/* *********************************************/
NMTABNR 31
NMTABRSZ 16

NMTAB OWN_TYPE,Prod1
NMTAB XXX,0
NMTAB NOTE,0


/* **********************************************/
/* THE EXCO Generator Process config table Table (used on CEDA)        */
/* Process code (RSA, MVT), key, data                   */
/* **********************************************/
EXTABNR 33
EXTABRSZ 80

EXTAB SYS,HOMEAP,"SIN"

EXTAB ALL,TABTAB,"TABTAB"
EXTAB ALL,TABEND,"TAB"

EXTAB BC,PORT2,UFIS_BC2

EXTAB NET,HOST,siocprod
EXTAB NET,SECUR,N
EXTAB NET,MASK,ffffff00
EXTAB NET,BCADDR,0x0a500982

EXTAB MON,5MIN,0
EXTAB MON,10MIN,0
EXTAB MON,20MIN,0
EXTAB MSG,LANG,DE
EXTAB FLI,CCA,000000 /* CCAHDL Communication queue.
EXTAB DIF,DIF,000000 /* DIFHDL Communication queue.


HSTABNR 34
HSTABRSZ 1024
HSTAB _STATUS_,"STANDALONE"
HSTAB QUE_HOLD,"1100,6000"
HSTAB QUE_GOFI,"1100"
HSTAB QUE_GOLA,"6000"


C3TABNR 35
C3TABRSZ 17

C3TAB URT,506
C3TAB RT,506
C3TAB IRT,506
C3TAB RTA,506
C3TAB RTB,506
C3TAB URF,506
C3TAB DRT,506
C3TAB DRF,506
C3TAB UCD,506
C3TAB DCD,506
C3TAB SNU,506
C3TAB SYS,506
C3TAB SA32,506
C3TAB SA23,506
C3TAB S2O3,506
C3TAB SQL,506
C3TAB SBC,1900
C3TAB RBC,1900
C3TAB RBS,1900
C3TAB GPR,2600
C3TAB SEC,2600
C3TAB SSI,2600
C3TAB SMI,2600
C3TAB IBT,506
C3TAB GNU,506
C3TAB GMU,506
C3TAB GMN,506
C3TAB CPE,2600
C3TAB UBT,506
C3TAB DBT,506
C3TAB UDR,9000
C3TAB IDR,9000
C3TAB ISF,7800
C3TAB UFR,7800
C3TAB IFR,7805
C3TAB GFR,509
C3TAB GFRC,509
C3TAB GDF,7800
C3TAB CFL,7540
C3TAB FOGD,7770
C3TAB FOGS,7775
C3TAB SPR,7800
C3TAB DFR,7800
C3TAB CGM,7800
C3TAB DGM,7800
C3TAB JOF,7800
C3TAB 380,7800
C3TAB IDF,7800
C3TAB TSCH,7800
C3TAB VRM,1100
C3TAB CTX,3100
C3TAB CTC,3100
C3TAB SME,1100
C3TAB TST,7300
C3TAB DIFF,8000
/* C3TAB REL,5400
C3TAB REL,515
C3TAB NFP,1900
C3TAB IAQ,1900
C3TAB AAN,7400
C3TAB APB,7400
C3TAB ABE,7400
C3TAB AFR,7400
C3TAB ABR,7400
C3TAB GFL,7400
C3TAB ABW,7300
C3TAB LZD,7300
C3TAB KZD,7300
C3TAB SSIR,7765
C3TAB IMPM,9550
C3TAB SEAS,7805
C3TAB IDF,7800
C3TAB EXCO,7800
C3TAB ISF,7805
C3TAB SFL,7550
C3TAB FIR,7560
C3TAB TRIG,8240
C3TAB AFL,9100
C3TAB PROS,9300
C3TAB GBD,9310
C3TAB GBE,9310
C3TAB MKB,9310
C3TAB OJC,9310
C3TAB PROX,9310
C3TAB XBS,9310
C3TAB RDN,9400
C3TAB RDL,9400
C3TAB RDS,9400
C3TAB RDT,9400
C3TAB UDR,9000
C3TAB CCD,5270
C3TAB CDF,5270
C3TAB FDI,8450
C3TAB FTX,8450
C3TAB FDIU,8450
C3TAB FDIT,8450
C3TAB TLX,9200
C3TAB SAP,8810
C3TAB EXRQ,7240
C3TAB SCC,8950
C3TAB CFS,8950
C3TAB GSI,506

!EOF
f
