Datum: 13.06.2001
=================
Datum: 13.06.2001
=================
Datum: 13.06.2001
=================
Datum: 13.06.2001
=================
Datum: 13.06.2001
=================
Datum: 18.06.2001
=================
Datum: 18.06.2001
=================
Datum: 18.06.2001
=================
Datum: 18.06.2001
=================
Datum: 18.06.2001
=================
Datum: 18.06.2001
=================
Datum: 19.06.2001
=================
Datum: 19.06.2001
=================
Datum: 19.06.2001
=================
Datum: 19.06.2001
=================
Datum: 20.06.2001
=================
Datum: 20.06.2001
=================
Datum: 20.06.2001
=================
Datum: 20.06.2001
=================
Datum: 20.06.2001
=================
Datum: 20.06.2001
=================
Datum: 20.06.2001
=================
Datum: 20.06.2001
=================
Datum: 20.06.2001
=================
Datum: 20.06.2001
=================
Datum: 21.06.2001
=================
Datum: 21.06.2001
=================
Datum: 21.06.2001
=================
Datum: 21.06.2001
=================
Datum: 21.06.2001
=================
Datum: 21.06.2001
=================
Datum: 21.06.2001
=================
Datum: 21.06.2001
=================
Datum: 21.06.2001
=================
Datum: 21.06.2001
=================
Datum: 21.06.2001
=================
Datum: 25.06.2001
=================
Datum: 25.06.2001
=================
Datum: 25.06.2001
=================
Datum: 25.06.2001
=================
Datum: 25.06.2001
=================
Datum: 26.06.2001
=================
Datum: 26.06.2001
=================
Datum: 26.06.2001
=================
Datum: 26.06.2001
=================
Datum: 26.06.2001
=================
Datum: 26.06.2001
=================
Datum: 26.06.2001
=================
Datum: 26.06.2001
=================
Datum: 26.06.2001
=================
Datum: 26.06.2001
=================
Datum: 26.06.2001
=================
Datum: 27.06.2001
=================
Datum: 27.06.2001
=================
Datum: 27.06.2001
=================
Datum: 27.06.2001
=================
Datum: 27.06.2001
=================
Datum: 27.06.2001
=================
Datum: 27.06.2001
=================
Datum: 27.06.2001
=================
Datum: 28.06.2001
=================
Datum: 28.06.2001
=================
Datum: 28.06.2001
=================
Datum: 28.06.2001
=================
Datum: 28.06.2001
=================
Datum: 28.06.2001
=================
Datum: 28.06.2001
=================
Datum: 28.06.2001
=================
Datum: 28.06.2001
=================
Datum: 28.06.2001
=================
Datum: 29.06.2001
=================
Datum: 29.06.2001
=================
Datum: 29.06.2001
=================
Datum: 29.06.2001
=================
Datum: 02.07.2001
=================
Datum: 02.07.2001
=================
Datum: 02.07.2001
=================
Datum: 02.07.2001
=================
Datum: 02.07.2001
=================
Datum: 02.07.2001
=================
Datum: 02.07.2001
=================
Datum: 02.07.2001
=================
Datum: 02.07.2001
=================
Datum: 03.07.2001
=================
Datum: 03.07.2001
=================
Datum: 03.07.2001
=================
Datum: 03.07.2001
=================
Datum: 03.07.2001
=================
Datum: 03.07.2001
=================
Datum: 03.07.2001
=================
Datum: 04.07.2001
=================
Datum: 04.07.2001
=================
Datum: 04.07.2001
=================
Datum: 04.07.2001
=================
Datum: 04.07.2001
=================
Datum: 05.07.2001
=================
Datum: 05.07.2001
=================
Datum: 06.07.2001
=================
Datum: 06.07.2001
=================
Datum: 06.07.2001
=================
Datum: 06.07.2001
=================
Datum: 06.07.2001
=================
Datum: 06.07.2001
=================
Datum: 09.07.2001
=================
Datum: 09.07.2001
=================
Datum: 09.07.2001
=================
Datum: 09.07.2001
=================
Datum: 09.07.2001
=================
Datum: 09.07.2001
=================
Datum: 09.07.2001
=================
Datum: 09.07.2001
=================
Datum: 10.07.2001
=================
Datum: 10.07.2001
=================
Datum: 10.07.2001
=================
Datum: 10.07.2001
=================
Datum: 10.07.2001
=================
Datum: 10.07.2001
=================
Datum: 10.07.2001
=================
Datum: 11.07.2001
=================
File: Q:\Ufis\Client\Rms\Opsscm\SeasonDlg.cpp  ==> Source-Line: 659
Datum: 11.07.2001
=================
Datum: 11.07.2001
=================
Datum: 11.07.2001
=================
Datum: 11.07.2001
=================
Datum: 11.07.2001
=================
Datum: 11.07.2001
=================
Datum: 11.07.2001
=================
Datum: 11.07.2001
=================
Datum: 11.07.2001
=================
Datum: 11.07.2001
=================
Datum: 11.07.2001
=================
Datum: 11.07.2001
=================
Datum: 11.07.2001
=================
Datum: 11.07.2001
=================
Datum: 11.07.2001
=================
Datum: 11.07.2001
=================
Datum: 11.07.2001
=================
Datum: 11.07.2001
=================
Datum: 12.07.2001
=================
Datum: 12.07.2001
=================
Datum: 12.07.2001
=================
Datum: 12.07.2001
=================
Datum: 12.07.2001
=================
Datum: 12.07.2001
=================
Datum: 12.07.2001
=================
Datum: 12.07.2001
=================
Datum: 12.07.2001
=================
Datum: 12.07.2001
=================
Datum: 12.07.2001
=================
Datum: 12.07.2001
=================
Datum: 12.07.2001
=================
Datum: 12.07.2001
=================
Datum: 13.07.2001
=================
Datum: 13.07.2001
=================
Datum: 13.07.2001
=================
Datum: 13.07.2001
=================
Datum: 16.07.2001
=================
Datum: 16.07.2001
=================
Datum: 16.07.2001
=================
Datum: 16.07.2001
=================
Datum: 16.07.2001
=================
Datum: 16.07.2001
=================
Datum: 16.07.2001
=================
Datum: 16.07.2001
=================
Datum: 16.07.2001
=================
File: Q:\Ufis\Client\Rms\Opsscm\CciDemandDetailDlg.cpp  ==> Source-Line: 283
Datum: 16.07.2001
=================
File: Q:\Ufis\Client\Rms\Opsscm\CciDemandDetailDlg.cpp  ==> Source-Line: 283
Datum: 16.07.2001
=================
File: Q:\Ufis\Client\Rms\Opsscm\CciDemandDetailDlg.cpp  ==> Source-Line: 283
Datum: 16.07.2001
=================
Datum: 16.07.2001
=================
Datum: 16.07.2001
=================
Datum: 16.07.2001
=================
Datum: 16.07.2001
=================
Datum: 17.07.2001
=================
Datum: 17.07.2001
=================
Datum: 17.07.2001
=================
Datum: 17.07.2001
=================
Datum: 17.07.2001
=================
Datum: 17.07.2001
=================
Datum: 17.07.2001
=================
Datum: 17.07.2001
=================
Datum: 17.07.2001
=================
Datum: 17.07.2001
=================
Datum: 17.07.2001
=================
Datum: 17.07.2001
=================
Datum: 17.07.2001
=================
Datum: 17.07.2001
=================
Datum: 17.07.2001
=================
Datum: 17.07.2001
=================
Datum: 17.07.2001
=================
Datum: 17.07.2001
=================
Datum: 18.07.2001
=================
Datum: 18.07.2001
=================
Datum: 18.07.2001
=================
Datum: 19.07.2001
=================
Datum: 19.07.2001
=================
Datum: 19.07.2001
=================
Datum: 19.07.2001
=================
Datum: 19.07.2001
=================
Datum: 19.07.2001
=================
Datum: 19.07.2001
=================
Datum: 19.07.2001
=================
Datum: 19.07.2001
=================
Datum: 19.07.2001
=================
Datum: 19.07.2001
=================
Datum: 19.07.2001
=================
Datum: 20.07.2001
=================
Datum: 20.07.2001
=================
Datum: 20.07.2001
=================
Datum: 20.07.2001
=================
Datum: 20.07.2001
=================
Datum: 20.07.2001
=================
Datum: 20.07.2001
=================
Datum: 20.07.2001
=================
Datum: 23.07.2001
=================
Datum: 23.07.2001
=================
Datum: 24.07.2001
=================
Datum: 24.07.2001
=================
Datum: 24.07.2001
=================
Datum: 24.07.2001
=================
Datum: 24.07.2001
=================
Datum: 24.07.2001
=================
Datum: 25.07.2001
=================
Datum: 26.07.2001
=================
Datum: 26.07.2001
=================
Datum: 26.07.2001
=================
Datum: 26.07.2001
=================
Datum: 27.07.2001
=================
Datum: 27.07.2001
=================
Datum: 27.07.2001
=================
Datum: 27.07.2001
=================
Datum: 27.07.2001
=================
Datum: 27.07.2001
=================
Datum: 27.07.2001
=================
Datum: 27.07.2001
=================
Datum: 27.07.2001
=================
Datum: 27.07.2001
=================
Datum: 27.07.2001
=================
Datum: 27.07.2001
=================
Datum: 27.07.2001
=================
Datum: 27.07.2001
=================
Datum: 27.07.2001
=================
Datum: 27.07.2001
=================
Datum: 30.07.2001
=================
Datum: 30.07.2001
=================
Datum: 30.07.2001
=================
Datum: 30.07.2001
=================
Datum: 30.07.2001
=================
Datum: 30.07.2001
=================
Datum: 30.07.2001
=================
Datum: 30.07.2001
=================
Datum: 30.07.2001
=================
Datum: 31.07.2001
=================
Datum: 31.07.2001
=================
Datum: 31.07.2001
=================
Datum: 31.07.2001
=================
Datum: 31.07.2001
=================
Datum: 31.07.2001
=================
Datum: 31.07.2001
=================
Datum: 31.07.2001
=================
Datum: 31.07.2001
=================
Datum: 31.07.2001
=================
Datum: 31.07.2001
=================
Datum: 31.07.2001
=================
Datum: 31.07.2001
=================
Datum: 31.07.2001
=================
Datum: 31.07.2001
=================
Datum: 01.08.2001
=================
Datum: 01.08.2001
=================
Datum: 01.08.2001
=================
Datum: 01.08.2001
=================
Datum: 01.08.2001
=================
Datum: 01.08.2001
=================
Datum: 01.08.2001
=================
Datum: 01.08.2001
=================
Datum: 01.08.2001
=================
Datum: 01.08.2001
=================
Datum: 01.08.2001
=================
Datum: 01.08.2001
=================
Datum: 01.08.2001
=================
Datum: 01.08.2001
=================
Datum: 01.08.2001
=================
Datum: 01.08.2001
=================
Datum: 01.08.2001
=================
Datum: 01.08.2001
=================
Datum: 01.08.2001
=================
Datum: 01.08.2001
=================
Datum: 01.08.2001
=================
Datum: 01.08.2001
=================
Datum: 01.08.2001
=================
Datum: 01.08.2001
=================
Datum: 01.08.2001
=================
Datum: 01.08.2001
=================
Datum: 01.08.2001
=================
Datum: 01.08.2001
=================
Datum: 01.08.2001
=================
Datum: 01.08.2001
=================
Datum: 01.08.2001
=================
Datum: 01.08.2001
=================
Datum: 01.08.2001
=================
Datum: 01.08.2001
=================
Datum: 01.08.2001
=================
Datum: 02.08.2001
=================
Datum: 02.08.2001
=================
Datum: 02.08.2001
=================
Datum: 02.08.2001
=================
Datum: 02.08.2001
=================
Datum: 02.08.2001
=================
Datum: 02.08.2001
=================
Datum: 02.08.2001
=================
Datum: 02.08.2001
=================
Datum: 02.08.2001
=================
