BR0226 03JUN	ACCEPTED DEADLOAD EX SIN
LRN DST  LC	NET   TARE GROSS  ULD CODE	PSN CK HC PCS
 40 TPE  C	  0     82   380  DPE20147BR	31R
    TPE  O	298	                             Y
 26 TPE  C	797    133   930  DQF80568BR	24
 25 TPE  C	611    133   744  DQF80503BR	14
 24 TPE  C 1905    133  2038  DQF80490BR	33
 23 TPE  C	755    133   888  DQF80319BR	21
 22 TPE  C 1707    133  1840  DQF80295BR	32
 21 TPE  C	319    133   452  DQF80247BR	11
 20 TPE  C 1317    133  1450  DQF80235BR	22
 19 TPE  C 1455    133  1588  DQF80191BR	23
 18 TPE  C	728     96   824  AKE33097BR	13
)
@D
 19 TPE  C 1455	 133  1588  DQF80191BR  23
 18 TPE  C	728	  96   824  AKE33097BR  13
 17 TPE  C	716	  96   812  AKE30362BR  12
 37 TPE  BC	139*R	  82   221* DPE         42L
 35 TPE  BY	891*R	 132  1023* DQF         43
 34 TPE  BY	400*	  96   496* AKE         41
 33 TPE  BY	400*	  96   496* AKE         34
 38 TPE  N		     NOFIT  DPE         42R
 16 TPE  E		  82   400  DPE20242BR  31L
    TPE  O	318						Y
LRN DST  LC	NET	VOL CK PCS     POSITIONS
 39 TPE  C	145	  9            5
 41 TPE  M	  0	  0            5
