<=SOURCE=>KRISCOM<=/SOURCE=>
<=COMMAND=>@P/IN/SUM<=/COMMAND=>
<=URNO=>43415422<=/URNO=>
<=SCREENCONTENT=>
SQ0062   13DEC SIN INBOUND PAXS        6P  11J 113Y
SQ0451        0P   0J  11Y TOTAL    11
SQ0218        0P   5J   1Y TOTAL    6
SQ0445        0P   5J  33Y TOTAL    33
<=/SCREENCONTENT=>

