<=SOURCE=>KRISCOM<=/SOURCE=>
<=COMMAND=>@I<=/COMMAND=>
<=URNO=>43415422<=/URNO=>
<=SCREENCONTENT=>
SQ0408   13AUG SIN        L O A D  I N F O                    FO
TYPE B7A/777-212    REGN           CONFIG  0A    12P   42J  234Y
SEATING OPTION  S S S              CRW  2/14
STA  STD    STN   BOOKED      ACCEPTED   ON SBY     AVAILABLE EX
2140        FRA   0/  9/134   0/  0/ 24  0/  0/  0
2140        HAM   1/ 19/34    0/  3/ 12  0/  0/  0
     1845   DXB                                     12/  33/ 100
2140        DEL   0/  9/134   0/  0/ 24  0/  0/  0
2140        BOM   1/ 19/34    0/  3/ 12  0/  0/  0

FRA   C    100  M    10   B    3/   50/   0   O   0     T      0
HAM   C    200  M    20   B    3/   80/   0   O   0     T      0
DEL   C    100  M    10   B    3/   50/   0   O   0     T      0
BOM   C    200  M    20   B    3/   80/   0   O   0     T      0
ACT ZFW INCL JOI PAD  144506      STANDBY PAX/BAG WT           0
ACT ZFW EXCL JOI PAD  144506      TO COME PAX/BAG WT       10852
ACT UNDERLOAD          NO FP      PROVISIONAL CGO/MAIL       385
<=/SCREENCONTENT=>

