LH /744  GT/....  POS/.... BT2329 SD2359 ED2359 SA0605+1 FT1306       
RX/ 
A/F12C86M145           BD/F1C1M2               MI/F3C12M87 
                       ETXBD/F0C0M0            ETXMI/F0C0M0 
MISSING-/NOT AUTHORIZED  BOARDING NUMBERS  ( BOARDED = ^BN.. ) 
** LOCAL SIN      ** 
  1.  1ALVESMARTI+AA3   BN77    SN46H   M FRA   BAGT4  PTY12 I 
 I/SQ228/10JAN          BN....          M MEL 
  2.  1ALVESMARTI+AA3   BN78    SN46J   M FRA          PTY12 I 
 I/SQ228/10JAN          BN....          M MEL 
  3.  1BACHMANN/A+      BN96    SN50C   B FRA   BAGT2  I O FTL 
 I/SQ228/10JAN          BN....          V MEL 
  4.  1BENNETT/MI+      BN82    SN48K   H FRA   BAGT2  I O 
 I/SQ228/10JAN          BN....          H MEL 
  5.  1BERSZINN/R+CA4   BN53    SN47D   M FRA   BAGT5  PTY8 I 
 I/NZ023/10JAN          BN....          Y AKL 
  6.  1BITUL/SEBL+      BN61    SN51A   H FRA   BAGT1  I O 
 I/NZ023/10JAN          BN....          H AKL 
  7.  1CHEN/FOOI +UA12  BN28    SN50A   Q FRA          O MSG 
  8.  1CHING/SEK +UA12  BN36    SN50B   Q FRA          PTY5 O [21] MSG 
  9.  1CHONG/KIM +VA10  BN20    SN53A   Q FRA          PTY4 MSG 
 10.  1CHONG/NGAK+DA12  BN4     SN46A   M FRA          PTY2 O
