.SINKLXH 100800 

LX0183   04JUN SIN          L O A D  I N F O           FO 
TYPE M11/MD11     REGN HBIWE   CONFIG  0G  11F  49C 180Y 
SEATING OPTION  S S S 
STA  STD  STN    BOOKD       ACCTD       SBYS         CAPAV 
     2120 SIN                                         9/ 45/156 
2240 2340 BKK    3/  6/  9   2/  5/  7   0/  0/  0    8/ 37/143 
0615      ZRH    7/ 12/ 95   7/ 12/ 47   0/  0/  0 
          ------------------------------------------ 
          JOI   10/ 18/104   9/ 17/ 54   0/  0/  0 
  
BKK C     0  M    0   B  12/  262/   0  O   0   T      0 
ZRH C     0  M    0   B  38/  637/   0  O  45   T      0 
  
ACT ZFW INCL JOI PAD 140510  STANDBY PAX/BAG WT        0 
ACT ZFW EXCL JOI PAD 140510  TO COME PAX/BAG WT     4778 
ACT UNDERLOAD         NO FP  PROVISIONAL CGO/MAIL      0 
*A/C OPERATOR* LX-SWISS 
 



