NZ0024  17MAR SIN INBOUND PASSENGERS		0  F 8  C 91 Y
  1*ABDULHUS|H AKL Y   CB4  001   SQ0001	SFO Y OK 0000
  2*ABDULMUH|Z AKL Y   CB4  002   SQ0001   SFO Y OK 0000
  3*ABDULMUH|A AKL Y   CB4  003   SQ0001	SFO Y OK 0000
  4*ABERNETH|D AKL C        04B   LH0778	FRA D OK 1650    OAR
  5*ADDISON SH AKL Y   CC2  005   LH0778	FRA H OK 1650    O
  6*ANINCHAI W AKL Y   CE6  008   SQ0001	HKG Y OK 0000
  7*APIRAT   N AKL Y        21A   TG0409	BKK Q OK 1835      R
  8*APPLEBEE S AKL Y        010   LH0778	FRA H OK 1650 M
  9.ARASH MONI AKL Y   CF3  011   EK0404	DXB L OK 1350
 10*ASHRAFAL|M AKL Y        012   AI6467	COK L OK 0605
 11*BARKHO ISH AKL Y        013   EK0404	DXB K OK 1350
