SQ0408   13AUG SIN PAX WITH INFANTS       0P   0J   3Y
  1.GUPTA    A DEL Y *       025   HK BSCT              -   A I
  2.INDIRESA|R DEL Y X  J2   049   HK BSCT/TCP-2-INDI|  -   A I
  3.MANN     A DEL Y $       069                            A I
END NAMES
