SQ0408 13AUG SIN 1845 C2  GATE BOARDING LIST
     PAX CHECKED-IN     24  I 0   LOCAL   24 TCI   0
     PAX BOARDED         3  I 0            3       0
     PAX YET TO BOARD   21  I 0           21       0
   1.AGGARWAL R DEL Y *       41A M 0/0 TCP-2-AGGARWAL|ZZ
   2.ALI      J DEL Y *       33B M 1/30               ZZ
