Datum: 10.01.2001
=================
Datum: 10.01.2001
=================
Datum: 10.01.2001
=================
Datum: 10.01.2001
=================
Datum: 10.01.2001
=================
Datum: 10.01.2001
=================
Datum: 10.01.2001
=================
Datum: 10.01.2001
=================
Datum: 10.01.2001
=================
Datum: 10.01.2001
=================
Datum: 10.01.2001
=================
Datum: 10.01.2001
=================
Datum: 10.01.2001
=================
Datum: 10.01.2001
=================
Datum: 10.01.2001
=================
Datum: 11.01.2001
=================
Datum: 11.01.2001
=================
Datum: 11.01.2001
=================
Datum: 11.01.2001
=================
Datum: 11.01.2001
=================
Datum: 11.01.2001
=================
Datum: 15.01.2001
=================
Datum: 15.01.2001
=================
Datum: 15.01.2001
=================
Datum: 16.01.2001
=================
Datum: 16.01.2001
=================
Datum: 18.01.2001
=================
Datum: 18.01.2001
=================
Datum: 18.01.2001
=================
Datum: 19.01.2001
=================
Datum: 19.01.2001
=================
Datum: 19.01.2001
=================
Datum: 19.01.2001
=================
Datum: 25.01.2001
=================
Datum: 25.01.2001
=================
Datum: 25.01.2001
=================
Datum: 25.01.2001
=================
Datum: 25.01.2001
=================
Datum: 25.01.2001
=================
Datum: 25.01.2001
=================
Datum: 25.01.2001
=================
Datum: 25.01.2001
=================
Datum: 26.01.2001
=================
Datum: 26.01.2001
=================
Datum: 26.01.2001
=================
Datum: 26.01.2001
=================
Datum: 01.02.2001
=================
Datum: 01.02.2001
=================
Datum: 02.02.2001
=================
Datum: 02.02.2001
=================
Datum: 02.02.2001
=================
Datum: 05.02.2001
=================
Datum: 06.02.2001
=================
Datum: 06.02.2001
=================
Datum: 06.02.2001
=================
Datum: 06.02.2001
=================
Datum: 06.02.2001
=================
Datum: 06.02.2001
=================
Datum: 06.02.2001
=================
Datum: 06.02.2001
=================
Datum: 06.02.2001
=================
Datum: 06.02.2001
=================
Datum: 08.02.2001
=================
Datum: 08.02.2001
=================
Datum: 08.02.2001
=================
Datum: 08.02.2001
=================
Datum: 08.02.2001
=================
Datum: 08.02.2001
=================
Datum: 08.02.2001
=================
Datum: 08.02.2001
=================
Datum: 08.02.2001
=================
Datum: 08.02.2001
=================
Datum: 08.02.2001
=================
Datum: 08.02.2001
=================
Datum: 08.02.2001
=================
Datum: 08.02.2001
=================
Datum: 09.02.2001
=================
Datum: 09.02.2001
=================
Datum: 09.02.2001
=================
Datum: 09.02.2001
=================
Datum: 09.02.2001
=================
Datum: 12.02.2001
=================
Datum: 12.02.2001
=================
Datum: 12.02.2001
=================
Datum: 12.02.2001
=================
Datum: 12.02.2001
=================
Datum: 13.02.2001
=================
Datum: 13.02.2001
=================
Datum: 13.02.2001
=================
