OAL|OA 702|RHO||20040514090000|20040514140000|082  086|DEP|B03
OAL|OA 754|SMI||20040514121000|20040514133000|082  084|DEP|A01
OAL|OA 534|CHQ||20040514122500|20040514131500|081  084|DEP|A08
OAL|OA 411|JFK||20040514123000|20040514142000|072  075|DEP|B07
EZY|EZY5086|LGW||20040514124500||024  026|DEP|B02
OAL|OA 506|HER||20040514125000||082  084|CNL|B06
OAL|OA 117|TIA||20040514130000|20040514143000|098  100|DEP|A03
VIK|VIK5150|Nantes| Strasbourg|20040514130000||057  059|DEP|C01
OAL|OA 018|JTY||20040514130000||082  086|DEP|B01
OAL|OA 908|SKG||20040514130000||082  084|DEP|B02
AZA|AZ 723|FCO||20040514131500||137  138|DEP|A04
DLH|LH 3391|MUC||20040514132500|20040514135500|145  152|EUI|A09
OAL|OA 269|LHR||20040514133000||098  099|DEP|A10
DAN|DM 142|CPH||20040514133500||060  062|DEP|B11
AFL|SU 296|SVO||20040514134000|20040514140500|009  011|DEP|C02
AEE|A3 530|Frankfurt|Thessaloniki|20040514134000||118  132|DEP|A03
SYR|RB 431|ARN||20040514134500||043  044|DEP|B06
AEE|A3 254|MJT||20040514134500||118  132|DEP|C02
SIA|SQ 347|SIN||20040514140000||030  035|DEP|A04
BAW|BA 641|LHR||20040514140500||045  049|DEP|B03
OAL|OA 782|JSI||20040514141000|20040514144000|083  086|DEP|A05
SWR|LX 1831|ZRH||20040514141500||038  041|DEP|A02
DLH|LH 3381|FRA||20040514141500||145  152|DEP|C03
AEE|A3 340|CHQ||20040514142000|20040514151000|119  132|DEP|B10
OAL|OA 654|JMK||20040514142500|20040514144500|083  086|DEP|A08
AEE|A3 800|MUC||20040514142500||118  132|DEP|B05
SAS|SK 778|CPH||20040514143500||145  152|DEP|C03
OAL|OA 048|MLO||20040514143500||082  086|DEP|B01
GMI|ST 6533|MUC||20040514143500||012  013|DEP|A12
DLH|LH 3411|DUS||20040514145000|20040514151500|145  152|DEP|B06
AEE|A3 651|RHO||20040514145000||119  132|DEP|A06
AFR|AF 1533|CDG||20040514150000||020  024|DEP|A07
GFA|GF 042|BAH||20040514150000||068  071|DEP|B09
AUA|OS 802|VIE||20040514150500||153  155|DEP|B02
ELY|LY 542|TLV||20040514151000||001  003|DEP|C01
CYP|CY 305|LCA||20040514151500||050  054|DEP|A01
KLM|KL 1576|AMS||20040514152500||139  142|DEP|B11
OAL|OA 734|KGS||20040514152500||083  086|DEP|
AEE|A3 118|SKG||20040514152500||118  132|DEP|
AEE|A3 316|HER||20040514153000||118  132|DEP|
OAL|OA 556|JTR||20040514153500|20040514160000|083  086|DEP|
OAL|OA 766|JKH||20040514154500||082  086|DEP|
OAL|OA 147|BRU||20040514155000|20040514161000|098  101|DEP|
LGL|LG 8810|LUX| BGY|20040514155000||156  157|DEP|
AEE|A3 146|AXD||20040514155000||118  132|DEP|
OAL|OA 169|FRA| SKG|20040514160000|20040514165500|098  101|DEP|
IRA|IR 750|THR||20040514160000||026  027|DEP|
UAE|EK 106|DXB| LCA|20040514160500||055  059|DEP|
OAL|OA 205|CDG||20040514160500||098  101|DEP|
SWR|LX 1823|GVA||20040514161000||038  040|DEP|
AEE|A3 120|SKG||20040514161000||118  132|DEP|
OAL|OA 832|KSO| KZI|20040514161000||082  086|DEP|
OAL|OA 006|JNX||20040514161000||082  086|DEP|
DLH|LH 3393|MUC||20040514162500||145  150|DEP|
OAL|OA 510|HER||20040514163000|20040514190000|104  105|DLY|
ELG|E8 551|VCE||20040514163000||034  035|DEP|
MAH|MA 233|BUD||20040514163000||015  017|DEP|
AEE|A3 406|CFU||20040514163500||118  132|DEP|
OAL|OA 245|MXP||20040514164000||098  101|GCL|
AEE|A3 256|MJT||20040514164500||118  132|DEP|
HEJ|T4 504|CDG||20040514164500||041  044|DEP|
OAL|OA 644|ZTH||20040514170000|20040514173000|082  086|GTP|
OAL|OA 942|AXD||20040514170500|20040514175000|082  086|DLY|
OAL|OA 574|MJT||20040514170500||082  086|BRG|
OAL|OA 239|FCO||20040514170500||098  101|FNL|
AEE|A3 124|SKG||20040514173000||118  132|GTP|
HEJ|T4 204|BRU||20040514174500||041  044||
IBE|IB 3967|MAD| BCN|20040514180000||152  155|GTP|
DLH|LH 3383|FRA||20040514180000||145  150|GTP|
OAL|OA 914|SKG||20040514180000||082  086||
AEE|A3 4900|NCL| MAN|20040514180000||128  130||
GMI|ST 4137|THF||20040514180000||012  013|GTP|
AZA|AZ 731|MXP||20040514180000||133  138|GTP|
OAL|OA 074|PAS||20040514180500||082  086||
OAL|OA 758|SMI||20040514180500||082  086||
OAL|OA 714|RHO||20040514180500||082  086|GTP|
OAL|OA 536|CHQ||20040514180500||082  086||
AEE|A3 216|RHO||20040514181000||118  132||
AEE|A3 652|FCO||20040514181500||118  132||
AEE|A3 358|JTR||20040514182500||118  132||
OAL|OA 309|SOF||20040514183000||098  101||
AEE|A3 322|HER||20040514183000||118  132||
OAL|OA 383|OTP||20040514183500||098  101||
OAL|OA 558|JTR||20040514184000||082  086||
OAL|OA 768|JKH||20040514184000||082  086||
AEE|A3 226|KGS||20040514184000||118  132||
CYP|CY 337|LCA||20040514184500||050  054||
OAL|OA 319|IST||20040514184500||098  101||
BAW|BA 633|LHR||20040514190000||045  049||
HMS|DU 808|SOF||20040514190000||038  039||
OAL|OA 806|IOA||20040514190500||082  086||
AFR|AF 1833|CDG||20040514191000||020  024||
OAL|OA 331|LCA||20040514191000||098  101||
AZA|AZ 721|FCO||20040514191000||133  138||
AEE|A3 126|SKG||20040514191500||118  132||
OAL|OA 265|LHR||20040514191500||098  101||
AEE|A3 378|JMK||20040514192000||118  132||
HEJ|T4 304|LHR||20040514193000||041  044||
OAL|OA 514|HER||20040514193500||082  086||
OAL|OA 606|CFU||20040514194500|20040514211500|082  086|DLY|
OAL|OA 345|KWI| DXB|20040514195000||098  101||
AEE|A3 276|JKH||20040514195000||118  132||
LBC|LV 311|TIA||20040514200000||031  032||
EZY|EZY2002|LTN||20040514200000||027  029||
OAL|OA 916|SKG||20040514200000||082  086||
AEE|A3 324|HER||20040514200000||118  132||
MLD|9U 870|KIV||20040514200000||025  026||
AEE|A3 344|CHQ||20040514200500||118  132||
CYP|CY 355|LCA| MJT|20040514201000||050  054||
OAL|OA 576|MJT||20040514201000||082  086||
OAL|OA 954|KVA||20040514201500||082  086||
OAL|OA 622|PVK||20040514203000||082  086||
OAL|OA 634|EFL||20040514203000||082  086||
OAL|OA 736|KGS||20040514203000||082  086||
VEX|TV 407|BRU||20040514203000||033  035||
OAL|OA 944|AXD||20040514204000||082  086||
THY|TK 1850|IST||20040514204500||009  011||
AEE|A3 218|RHO||20040514210000||118  132||
OAL|OA 718|RHO||20040514211500||082  086||
AEE|A3 128|SKG||20040514211500||118  132||
OAL|OA 538|CHQ||20040514212000||082  086||
HCY|ZU 511|LCA||20040514213000||115  117||
OAL|OA 662|JMK||20040514213500||082  086||
AEE|A3 326|HER||20040514213500||118  132||
OAL|OA 778|LXS||20040514214000||082  086||
JAT|JU 439|BEG||20040514215000||055  057||
OAL|OA 518|HER||20040514221000||082  086||
BER|AB 3989|NUE||20040514224500||018  020||
AEE|A3 136|SKG||20040514225000||118  132||
SYR|RB 432|DAM| ALP|20040514225500||046  047||
OAL|OA 918|SKG||20040514231000||082  086||
CYP|CY 349|LCA||20040514231500||050  054||
OAL|OA 313|BEY||20040515004000||098  101||
OAL|OA 325|CAI||20040515005000||098  101||
AEU|AEU854|LGW| HER|20040515011000||041  043||
AYD|HG 5179|VIE||20040515014000||065  067||
VLE|VA 8026|VCE||20040515015000||033  035||
OAL|OA 301|TLV||20040515022000||055  056||
KLM|KL 1570|AMS||20040515034000||139  142||
LOT|LO 602|WAW||20040515042000||026  028||
MAH|MA 231|BUD||20040515052000||029  031||
KLM|KL 1572|AMS||20040515054500||139  142||
CSA|OK 421|PRG||20040515055000||108  110||
VIK|VIK5162|MRS| CDG|20040515060000||112  114||
DLH|LH 3385|FRA||20040515060500||145  149||
AZA|AZ 717|FCO||20040515061500||133  138||
EZY|EZY2004|LTN||20040515064000||033  035||
AZA|AZ 727|MXP||20040515064500||133  138||
AFR|AF 2333|CDG||20040515065000||020  024||
SWR|LX 1843|ZRH||20040515070000||038  041||
ROT|RO 274|OTP||20040515071000||026  028||
BAW|BA 631|LHR||20040515080000||045  049||
DLH|LH 3395|MUC||20040515082000||145  149||
IBE|IB 3883|MAD||20040515083000||153  155||
CYP|CY 323|LCA||20040515094500||050  054||
HCY|ZU 501|LCA||20040515103500||115  117||
THY|TK 1846|IST||20040515105000||010  012||
BIE|BIE862  A|CDG||20040515110000||001  003||
CRL|CRL931|ORY||20040515110500||060  062||
SEU|SEU631|CDG||20040515111000||065  067||
BLE|BLE532|CDG||20040515112000||111  113||
AXY|AXY866|CDG||20040515113500||038  040||
VEX|TV 403|BRU||20040515113500||033  035||
AZA|AZ 733|MXP||20040515113500||133  138||
EZY|EZY4522|SXF||20040515114000||020  022||
BIE|BIE664  A|NTE||20040515115000||004  006||
TVS|QS 710|LIS||20040515115000||107  109||
DAL|DL 133|JFK||20040515121000||016  020||
CYP|CY 313|LCA||20040515121500||050  054||
AAF|ZI 524|CDG||20040515122500||057  059||
BIE|BIE067  R|TLS||20040515123000||001  003||
OAL|OA 423|YYZ| YUL|20040515123000||079  105||
AFR|AF 1233|CDG||20040515123500||021  025||
EZY|EZY5086|LGW||20040515124500||030  032||
AXY|AXY8359|CDG||20040515124500||040  042||
MSR|MS 748|CAI||20040515131000||070  072||
AZA|AZ 723|FCO||20040515131500||133  138||
DLH|LH 3391|MUC||20040515132500||146  152||
DAN|DM 142|CPH||20040515133500||060  062||
AFL|SU 296|SVO||20040515134000||013  015||
SAS|SK 778|CPH||20040515134500||145  152||
DLH|LH 3381|FRA||20040515140000||145  152||
BAW|BA 641|LHR||20040515140500||045  049||
SWR|LX 1831|ZRH||20040515141500||038  041||
ICB|HH 4451|CDG||20040515143000||001  003||
DLH|LH 3411|DUS||20040515145000||145  152||
AFR|AF 1533|CDG||20040515150000||021  025||
GFA|GF 042|BAH||20040515150000||||
AUA|OS 802|VIE||20040515150500||153  155||
CYP|CY 305|LCA||20040515151500||050  054||
KLM|KL 1576|AMS||20040515152500||139  142||
MAH|MA 233|BUD||20040515154000||017  019||
LGL|LG 8810|LUX| BGY|20040515155000||156  157||
UAE|EK 106|DXB| LCA|20040515160500||031  035||
SWR|LX 1823|GVA||20040515161000||038  041||
THA|TG 947|BKK||20040515161500||055  059||
DLH|LH 3393|MUC||20040515162500||145  152||
ELG|E8 551|VCE||20040515163000||028  030||
{!EOD!}
