CMDS_BGN;BASAP;
;VALID;YES
PROC_BGN;PROC-01;
;DEF-FILE;xxx
STEP_BGN;STEP-01;
;TIMEOUT;5
TASK_BGN;TASK-01;
;TYPE;QUE
;WAIT-ACK;YES
;DEST;7300
;CMD;BSDAP
;TAB;xxx
;SEL;xxx
;FLD;xxx
;DAT;
TASK_END;TASK-01;
STEP_END;STEP-01
STEP_BGN;STEP-02;
;TIMEOUT;5
TASK_BGN;TASK-01;
;TYPE;QUE
;WAIT-ACK;NO
;DEST;4712
;CMD;TEST
;TAB;PARAM1
;SEL;*DEF-FILE*
;FLD;Param3
;DAT;Param4
TASK_END;TASK-01;
STEP_END;STEP-02
PROC_END;PROC-01
CMDS_END;
