Timetable booklet /Departure/ (W2001: 28.10.2001 - 30.03.2002)
--------------------------------------------------------------------
ABD,Abadan                          ,.,+0400
--------------------------------------------------------------------
20020101,20020129,weekly,.2..5..,DXB,1750,    ,ABD,IRC,6736 , ,AT7,0
--------------------------------------------------------------------
ADB,Izmir                           ,.,+0200
--------------------------------------------------------------------
20020101,20020129,weekly,12..567,DXB,1255,    ,ADB,FDX,5034 , ,313,0
--------------------------------------------------------------------
ADD,Addis Ababa                     ,I,+0300
--------------------------------------------------------------------
20020107,20020128,weekly,......7,DXB,0400,    ,ADD,ETH,653  , ,752,1
20020103,20020124,weekly,...4...,DXB,0530,    ,ADD,ETH,613  , ,752,1
20020104,20020125,weekly,....5..,DXB,0530,    ,ADD,ETH,623  , ,763,1
20020105,20020126,weekly,.....6.,DXB,0600,    ,ADD,ETH,633  , ,752,0
20020106,20020127,weekly,......7,DXB,0600,    ,ADD,ETH,643  , ,763,0
20020101,20020129,weekly,.2.....,DXB,0600,    ,ADD,ETH,663  , ,763,0
20011028,20011028,weekly,......7,DXB,0600,    ,ADD,ETH,673  , ,752,0
20020102,20020130,weekly,..3....,DXB,0600,    ,ADD,ETH,673  , ,752,0
20020106,20020127,weekly,......7,DXB,1700,1500,ADD,ETH,3613 , ,70F,0
20020101,20020129,weekly,.2.....,DXB,1730,    ,ADD,ETH,3613 , ,70F,0
20020103,20020124,weekly,...4...,DXB,2230,    ,ADD,ETH,3613 , ,70F,0
--------------------------------------------------------------------
ADE,Aden                            ,I,+0400
--------------------------------------------------------------------
20020105,20020126,weekly,.....6.,DXB,    ,    ,ADE,IYE,805  , ,313,0
--------------------------------------------------------------------
ALG,Algier                          ,I,+0100
--------------------------------------------------------------------
20020106,20020127,weekly,......7,DXB,1100,    ,ALG,KZW,612  , ,313,0
20011028,20011028,weekly,......7,DXB,1100,    ,ALG,KZW,6612 , ,313,0
20011209,20011230,weekly,......7,DXB,1100,    ,ALG,KZW,6612 , ,313,0
20020102,20020130,weekly,..3....,DXB,1100,    ,ALG,KZW,6612 , ,313,0
20020107,20020128,weekly,1......,DXB,1130,    ,ALG,DAH,4063 , ,738,1
--------------------------------------------------------------------
ALP,Aleppo                          ,I,+????
--------------------------------------------------------------------
20020107,20020128,weekly,1......,DXB,    ,    ,ALP,SYR,516  , ,72S,0
20020106,20020127,weekly,......7,DXB,1500,    ,ALP,SYR,516  , ,72S,1
--------------------------------------------------------------------
AMD,Ahmedabad                       ,.,+0500
--------------------------------------------------------------------
20020106,20020113,weekly,......7,DXB,1345,    ,AMD,AIC,726  , ,312,1
20020127,20020127,weekly,......7,DXB,1345,    ,AMD,AIC,726  , ,312,1
--------------------------------------------------------------------
AMM,Amman                           ,I,+0200
--------------------------------------------------------------------
20020101,20020129,weekly,.2.4..7,DXB,    ,    ,AMM,OAL,350  , ,734,0
20011031,20011031,weekly,..3....,DXB,0200,    ,AMM,RJA,083  , ,70F,0
20020105,20020126,weekly,.....6.,DXB,0200,    ,AMM,RJA,083  , ,70F,0
20020102,20020130,weekly,..3....,DXB,0245,    ,AMM,RJA,027  , ,70F,0
20011029,20011029,weekly,......7,DXB,0401,    ,AMM,RJA,085  , ,70F,0
20020103,20020124,weekly,..3....,DXB,0401,    ,AMM,RJA,085  , ,70F,0
20020102,20020123,weekly,..3....,DXB,0700,    ,AMM,UAE,903  , ,332,0
20020105,20020126,weekly,.....6.,DXB,0700,    ,AMM,UAE,903  , ,772,0
20020130,20020207,weekly,1234567,DXB,0700,    ,AMM,UAE,903  , ,332,0
20011028,20011028,weekly,......7,DXB,0740,    ,AMM,RJA,609  , ,320,0
20020102,20020130,weekly,..3....,DXB,0740,    ,AMM,RJA,609  , ,320,0
20020105,20020127,weekly,.....67,DXB,0740,    ,AMM,RJA,609  , ,312,0
20020107,20020128,weekly,1......,DXB,0740,    ,AMM,RJA,609  , ,313,0
20020101,20020129,weekly,.2..5..,DXB,0800,    ,AMM,RJA,191  , ,313,0
20020103,20020124,weekly,...4...,DXB,0825,    ,AMM,RJA,603  , ,320,0
20020103,20020127,weekly,...4..7,DXB,1300,    ,AMM,UAE,903  , ,332,1
20020101,20020125,weekly,12..5..,DXB,1415,    ,AMM,UAE,903  , ,332,0
20020128,20020129,weekly,12.....,DXB,1430,    ,AMM,UAE,903  , ,332,0
20011031,20011031,weekly,..3....,DXB,2215,    ,AMM,RJA,023  , ,70F,0
20020106,20020127,weekly,......7,DXB,2215,    ,AMM,RJA,023  , ,70F,0
--------------------------------------------------------------------
AMS,Amsterdam                       ,I,+0100
--------------------------------------------------------------------
20020104,20020125,weekly,....5..,DXB,0140,    ,AMS,UAE,9989 , ,74F,0
20020103,20020131,weekly,...4...,DXB,0215,    ,AMS,UAE,9991 , ,742,0
20020108,20020129,weekly,.2.....,DXB,0220,    ,AMS,SIA,7376 , ,74F,0
20020102,20020130,weekly,1.3....,DXB,0220,    ,AMS,UAE,9989 , ,74F,0
20020106,20020127,weekly,......7,DXB,0515,    ,AMS,SIA,7376 , ,74F,0
20011028,20011028,weekly,......7,DXB,0930,    ,AMS,KLM,428  , ,763,0
20020101,20020130,weekly,1234567,DXB,0930,    ,AMS,KLM,428  , ,763,0
20020102,20020130,weekly,..3....,DXB,1710,    ,AMS,SIA,7380 , ,74F,0
20020101,20020130,weekly,1234567,DXB,2340,    ,AMS,KLM,421  , ,763,1
20020102,20020130,weekly,1.3..6.,DXB,2355,    ,AMS,KLM,9166 , ,742,0
--------------------------------------------------------------------
ASM,Asmara                          ,I,+????
--------------------------------------------------------------------
20020106,20020127,weekly,.....6.,DXB,0400,0400,ASM,DAO,189  , ,TU5,1
--------------------------------------------------------------------
ATH,Athen                           ,I,+0200
--------------------------------------------------------------------
20020106,20020129,weekly,.2....7,DXB,0210,    ,ATH,OAL,346  , ,734,1
20020102,20020130,weekly,1.3.5..,DXB,0245,    ,ATH,OAL,350  , ,734,1
20020103,20020131,weekly,...4.6.,DXB,0345,    ,ATH,OAL,348  , ,734,0
20020101,20020129,weekly,12.4.6.,DXB,0820,    ,ATH,UAE,027  , ,AB6,1
20020209,20020209,weekly,.....6.,DXB,1900,    ,ATH,MPH,222  , ,744,0
20011204,20011204,weekly,.2.....,DXB,2000,    ,ATH,MPH,222  , ,744,0
20011204,20011204,weekly,.2.....,DXB,2000,    ,ATH,MPH,444  , ,744,0
--------------------------------------------------------------------
AUH,Abu Dhabi                       ,I,+0400
--------------------------------------------------------------------
20020107,20020128,weekly,1......,DXB,    ,    ,AUH,AIC,748  , ,AB4,0
20020105,20020126,weekly,.....6.,DXB,    ,    ,AUH,AIC,764  , ,312,0
20020106,20020127,weekly,......7,DXB,    ,    ,AUH,AIC,948  , ,312,0
20020101,20020130,weekly,1234567,DXB,    ,    ,AUH,KLM,421  , ,763,0
20011028,20011028,weekly,......7,DXB,    ,    ,AUH,MSR,907  , ,320,0
20020102,20020130,weekly,..3....,DXB,    ,    ,AUH,MSR,907  , ,AB6,0
20020106,20020127,weekly,......7,DXB,    ,    ,AUH,RSO,411  , ,YK2,0
20020105,20020126,weekly,.....6.,DXB,    ,    ,AUH,RSO,511  , ,YK2,0
20020107,20020128,weekly,1......,DXB,    ,    ,AUH,RSO,622  , ,YK2,0
20020103,20020124,weekly,...4...,DXB,    ,    ,AUH,RSO,655  , ,YK2,0
20020107,20020128,weekly,1......,DXB,    ,    ,AUH,RSO,711  , ,YK2,0
20020103,20020124,weekly,...4...,DXB,    ,    ,AUH,RSO,723  , ,YK2,0
20020104,20020125,weekly,....5..,DXB,    ,    ,AUH,SAI,065  , ,TU5,0
20020103,20020127,weekly,...4..7,DXB,    ,    ,AUH,SAI,075  , ,TU5,0
20020106,20020127,weekly,......7,DXB,    ,    ,AUH,SAI,085  , ,TU5,0
20020102,20020130,weekly,..3....,DXB,    ,    ,AUH,SAI,087  , ,TU5,0
20020101,20020129,weekly,.2.....,DXB,    ,    ,AUH,SAI,102  , ,TU5,0
20020102,20020130,weekly,..3....,DXB,    ,    ,AUH,SAI,903  , ,TU5,0
20020104,20020125,weekly,....5..,DXB,    ,    ,AUH,SAI,913  , ,TU5,0
20011028,20011028,weekly,......7,DXB,    ,    ,AUH,SUD,225  , ,AB6,0
20020103,20020127,weekly,...4..7,DXB,    ,    ,AUH,UAE,903  , ,332,0
20020106,20020127,weekly,......7,DXB,    ,    ,AUH,UAE,953  , ,772,0
20020104,20020125,weekly,....5..,DXB,0045,    ,AUH,GFA,605  , ,320,0
20020103,20020131,weekly,...4..7,DXB,0130,    ,AUH,GFA,603  , ,320,0
20020103,20020131,weekly,...4...,DXB,0235,    ,AUH,RJA,602  , ,320,0
20011028,20011028,weekly,......7,DXB,0930,    ,AUH,GFA,605  , ,320,0
20020102,20020130,weekly,..3....,DXB,0930,    ,AUH,GFA,605  , ,320,0
20020105,20020126,weekly,.....6.,DXB,1645,    ,AUH,GFA,605  , ,320,0
20020101,20020130,weekly,1234567,DXB,2205,    ,AUH,DLH,632  , ,343,0
20020102,20020130,weekly,..3....,DXB,2245,    ,AUH,GFA,585  , ,320,0
20020101,20020129,weekly,.2.....,DXB,2245,    ,AUH,GFA,601  , ,320,0
20020107,20020128,weekly,1......,DXB,2255,    ,AUH,GFA,601  , ,320,0
--------------------------------------------------------------------
AWZ,Ahwaz                           ,I,+0400
--------------------------------------------------------------------
20020106,20020127,weekly,......7,DXB,1130,    ,AWZ,IRA,674  , ,72S,0
--------------------------------------------------------------------
BAH,Bahrain                         ,I,+0300
--------------------------------------------------------------------
20020101,20020129,weekly,12.4..7,DXB,    ,    ,BAH,CPA,730  , ,772,0
20020102,20020130,weekly,..3....,DXB,    ,    ,BAH,CYP,393  , ,320,0
20020107,20020128,weekly,1......,DXB,    ,    ,BAH,IYE,821  , ,72S,0
20020102,20020131,weekly,1234567,DXB,0010,    ,BAH,GFA,509  , ,320,0
20020102,20020131,weekly,1234567,DXB,0330,    ,BAH,DHX,201  , ,SWM,0
20020103,20020131,weekly,1..456.,DXB,0355,    ,BAH,FEC,201  , ,BES,0
20011028,20011028,weekly,......7,DXB,0730,    ,BAH,GFA,521  , ,320,0
20020101,20020130,weekly,1234567,DXB,0730,    ,BAH,GFA,521  , ,320,0
20020101,20020129,weekly,.2.....,DXB,0800,    ,BAH,UAE,241  , ,772,0
20020102,20020123,weekly,1.3....,DXB,0800,    ,BAH,UAE,241  , ,312,0
20020103,20020127,weekly,...4567,DXB,0800,    ,BAH,UAE,241  , ,332,0
20020128,20020203,weekly,1.34567,DXB,0800,    ,BAH,UAE,241  , ,312,0
20020204,20020207,weekly,1234...,DXB,0800,    ,BAH,UAE,241  , ,312,0
20020101,20020129,weekly,.2..5..,DXB,0945,    ,BAH,IRB,9806 , ,TU5,0
20020101,20020130,weekly,1234567,DXB,1035,    ,BAH,GFA,501  , ,320,0
20020101,20020130,weekly,1234567,DXB,1350,    ,BAH,GFA,503  , ,320,0
20020103,20020127,weekly,...4567,DXB,1530,    ,BAH,DHX,1203 , ,752,0
20020105,20020126,weekly,.....6.,DXB,1545,    ,BAH,IRC,6956 , ,AT7,0
20020107,20020128,weekly,1......,DXB,1550,    ,BAH,DHX,1203 , ,752,0
20020101,20020129,weekly,.2..5.7,DXB,1830,    ,BAH,UAE,243  , ,772,0
20020102,20020130,weekly,..3....,DXB,1830,    ,BAH,UAE,243  , ,312,0
20020103,20020128,weekly,1..4.6.,DXB,1830,    ,BAH,UAE,243  , ,332,0
20020101,20020115,weekly,.2..5.7,DXB,1850,    ,BAH,GFA,507  , ,320,0
20020102,20020112,weekly,1.34.6.,DXB,1850,    ,BAH,GFA,507  , ,763,0
20020114,20020120,weekly,1.34567,DXB,1850,    ,BAH,GFA,507  , ,763,0
20020121,20020130,weekly,1234567,DXB,1850,    ,BAH,GFA,507  , ,763,0
20020103,20020124,weekly,...4...,DXB,1945,    ,BAH,IRC,6956 , ,AT7,0
20020107,20020128,weekly,1......,DXB,2120,    ,BAH,IRC,6956 , ,AT7,0
20020102,20020130,weekly,..3.5..,DXB,2230,    ,BAH,DHX,204  , ,CVR,0
20020103,20020127,weekly,...4.67,DXB,2230,    ,BAH,DHX,204  , ,SWM,0
20020101,20020129,weekly,.2.....,DXB,2300,    ,BAH,DHX,1205 , ,752,0
--------------------------------------------------------------------
BAK,Baku                            ,I,+????
--------------------------------------------------------------------
20020102,20020130,weekly,1.3.5..,DXB,0100,    ,BAK,AHY,016  , ,752,0
20020103,20020128,weekly,1..4.6.,DXB,1600,    ,BAK,AHC,018  , ,IL7,0
--------------------------------------------------------------------
BBO,Berbera                         ,I,+????
--------------------------------------------------------------------
20020103,20020124,weekly,..3....,DXB,0400,    ,BBO,DAO,189  , ,TU5,0
--------------------------------------------------------------------
BEN,Benghazi                        ,.,+????
--------------------------------------------------------------------
20020103,20020124,weekly,..3....,DXB,0430,    ,BEN,LAA,275  , ,313,0
--------------------------------------------------------------------
BEY,Beirut                          ,I,+0200
--------------------------------------------------------------------
20020107,20020128,weekly,1......,DXB,    ,    ,BEY,DAH,4063 , ,738,0
20020105,20020126,weekly,.....6.,DXB,0245,    ,BEY,TMA,224  , ,70F,0
20020102,20020130,weekly,1.3....,DXB,0720,    ,BEY,UAE,951  , ,332,0
20020104,20020125,weekly,....5..,DXB,0720,    ,BEY,UAE,951  , ,772,0
20020106,20020127,weekly,......7,DXB,1535,    ,BEY,UAE,953  , ,772,1
20020101,20020129,weekly,.2.4.6.,DXB,1700,    ,BEY,UAE,953  , ,332,0
20020101,20020130,weekly,1234567,DXB,2140,    ,BEY,MEA,429  , ,321,0
--------------------------------------------------------------------
BHX,Birmingham                      ,.,+0000
--------------------------------------------------------------------
20020101,20020130,weekly,1234567,DXB,0750,    ,BHX,UAE,039  , ,332,0
--------------------------------------------------------------------
BKK,Bangkok                         ,I,+0700
--------------------------------------------------------------------
20020101,20020130,weekly,.23..67,DXB,    ,    ,BKK,CPA,750  , ,773,0
20020102,20020130,weekly,..3....,DXB,    ,    ,BKK,RBA,034  , ,763,0
20020106,20020127,weekly,......7,DXB,    ,    ,BKK,RBA,034  , ,763,0
20020101,20020129,weekly,12.4.6.,DXB,    ,    ,BKK,UAE,082  , ,772,0
20020102,20020130,weekly,..3.5.7,DXB,    ,    ,BKK,UAE,086  , ,772,0
20020101,20020129,weekly,.2..5.7,DXB,2245,    ,BKK,THA,518  , ,333,0
--------------------------------------------------------------------
BLR,Bangalore                       ,I,+0500
--------------------------------------------------------------------
20020101,20020129,weekly,.2.....,DXB,    ,    ,BLR,AIC,770  , ,312,0
--------------------------------------------------------------------
BND,Bandar Abbas                    ,I,+????
--------------------------------------------------------------------
20020102,20020130,weekly,..3.5..,DXB,0840,    ,BND,IRA,676  , ,AB3,0
20020106,20020127,weekly,......7,DXB,0930,    ,BND,IRC,6814 , ,AT7,0
20020102,20020130,weekly,..3....,DXB,1130,    ,BND,IRC,6814 , ,AT7,0
20020103,20020124,weekly,...4...,DXB,1530,    ,BND,IRC,6814 , ,AT7,0
--------------------------------------------------------------------
BOM,Mumbai (Bombay)                 ,I,+0530
--------------------------------------------------------------------
20020101,20020129,weekly,.2...6.,DXB,    ,    ,BOM,BBC,030  , ,D10,0
20020105,20020126,weekly,.....6.,DXB,    ,    ,BOM,CPA,068  , ,742,0
20020101,20020130,weekly,.23..67,DXB,    ,    ,BOM,CPA,750  , ,773,1
20020105,20020126,weekly,.....6.,DXB,0145,    ,BOM,AIC,756  , ,312,1
20020108,20020129,weekly,.2.....,DXB,0240,    ,BOM,AIC,844  , ,312,1
20020102,20020127,weekly,12.4.6.,DXB,0400,    ,BOM,UAE,504  , ,332,0
20020122,20020204,weekly,1234567,DXB,0400,    ,BOM,UAE,504  , ,332,0
20020129,20020205,weekly,123....,DXB,0400,    ,BOM,UAE,504  , ,332,0
20020105,20020126,weekly,.....6.,DXB,0810,    ,BOM,AIC,774  , ,312,1
20020102,20020130,weekly,..3....,DXB,0940,    ,BOM,FDX,5042 , ,313,0
20020105,20020126,weekly,.....6.,DXB,1030,    ,BOM,DSR,612  , ,D1F,0
20020104,20020125,weekly,....5..,DXB,1120,    ,BOM,AIC,728  , ,312,1
20020102,20020130,weekly,..3....,DXB,1200,    ,BOM,AIC,955  , ,313,1
20020101,20020130,weekly,1234567,DXB,1330,    ,BOM,UAE,502  , ,332,0
20020120,20020120,weekly,......7,DXB,1345,    ,BOM,AIC,726  , ,312,0
20020104,20020128,weekly,1...567,DXB,1500,    ,BOM,FDX,5042 , ,313,0
20020102,20020130,weekly,..3....,DXB,1510,    ,BOM,AIC,758  , ,312,1
20020107,20020128,weekly,1......,DXB,1520,    ,BOM,AIC,748  , ,AB4,1
20020104,20020125,weekly,....5..,DXB,1635,1805,BOM,AIC,932  , ,AB3,0
20020103,20020126,weekly,...4.6.,DXB,1705,    ,BOM,AIC,716  , ,313,0
20020101,20020129,weekly,.2.....,DXB,1845,    ,BOM,AIC,770  , ,312,1
20011028,20011028,weekly,......7,DXB,1930,    ,BOM,AIC,740  , ,AB4,0
20020102,20020130,weekly,..3....,DXB,1930,    ,BOM,AIC,740  , ,AB3,0
20020107,20020128,weekly,1......,DXB,1935,    ,BOM,AIC,708  , ,742,1
20020105,20020126,weekly,.....6.,DXB,1955,    ,BOM,AIC,754  , ,742,1
20020103,20020124,weekly,...4...,DXB,2015,    ,BOM,AIC,700  , ,742,1
20020101,20020129,weekly,.2.....,DXB,2200,    ,BOM,AIC,710  , ,AB4,0
20020106,20020127,weekly,......7,DXB,2200,    ,BOM,AIC,746  , ,742,0
20020102,20020130,weekly,..3....,DXB,2205,    ,BOM,AIC,720  , ,742,1
20020101,20020130,weekly,1234567,DXB,2230,    ,BOM,UAE,500  , ,332,0
20020104,20020125,weekly,....5..,DXB,2300,    ,BOM,AIC,722  , ,744,0
--------------------------------------------------------------------
BRU,Bruessels                       ,I,+0100
--------------------------------------------------------------------
20020107,20020128,weekly,1......,DXB,    ,    ,BRU,BBC,009  , ,D10,0
20020106,20020127,weekly,......7,DXB,0210,    ,BRU,AHK,003  , ,742,0
20020102,20020130,weekly,.2.....,DXB,0415,    ,BRU,AHK,003  , ,742,0
20020102,20020130,weekly,..3...7,DXB,0915,    ,BRU,EVA,671  , ,M11,0
20020102,20020130,weekly,..3....,DXB,1230,    ,BRU,DHX,605  , ,AB3,0
--------------------------------------------------------------------
BUH,Bukarest-Otopeni                ,I,+0100
--------------------------------------------------------------------
20020103,20020131,weekly,...4...,DXB,0305,    ,BUH,ROT,065  , ,733,1
20020105,20020126,weekly,.....6.,DXB,0305,    ,BUH,ROT,065  , ,313,1
20020107,20020128,weekly,1......,DXB,0305,    ,BUH,ROT,066  , ,733,1
--------------------------------------------------------------------
BUZ,Bushehr                         ,I,+????
--------------------------------------------------------------------
20020106,20020127,weekly,......7,DXB,0700,    ,BUZ,IRC,6953 , ,AT7,0
20020101,20020129,weekly,.2.4.6.,DXB,1000,    ,BUZ,IRC,6820 , ,72S,0
--------------------------------------------------------------------
BWN,Brunei                          ,I,+0800
--------------------------------------------------------------------
20020102,20020131,weekly,..34..7,DXB,0040,    ,BWN,RBA,098  , ,762,0
20020103,20020131,weekly,...4...,DXB,0105,    ,BWN,RBA,034  , ,763,1
20020107,20020128,weekly,1......,DXB,0105,0505,BWN,RBA,034  , ,763,1
20020102,20020130,weekly,..3...7,DXB,0240,    ,BWN,RBA,108  , ,763,2
20020106,20020127,weekly,......7,DXB,2300,    ,BWN,RBA,096  , ,763,1
--------------------------------------------------------------------
CAI,Cairo                           ,I,+0200
--------------------------------------------------------------------
20020101,20020106,weekly,.2.4..7,DXB,    ,    ,CAI,DAL,121  , ,M11,0
20020108,20020113,weekly,.2....7,DXB,    ,    ,CAI,DAL,121  , ,M11,0
20020110,20020110,weekly,...4...,DXB,    ,    ,CAI,DAL,121  , ,M11,0
20020115,20020129,weekly,.2.4..7,DXB,    ,    ,CAI,DAL,121  , ,M11,0
20020108,20020129,weekly,.2.....,DXB,0015,    ,CAI,MSR,929  , ,AB6,1
20020107,20020107,weekly,1......,DXB,0200,    ,CAI,MSR,913  , ,AB6,0
20020103,20020128,weekly,..3.5.7,DXB,0400,    ,CAI,SIA,428  , ,773,0
20020101,20020101,weekly,1......,DXB,0415,    ,CAI,MSR,4593 , ,735,0
20020104,20020128,weekly,1...5..,DXB,0510,    ,CAI,KAL,951  , ,332,0
20020104,20020125,weekly,....5..,DXB,1500,    ,CAI,MSR,913  , ,AB6,0
20020105,20020126,weekly,.....6.,DXB,1500,    ,CAI,MSR,913  , ,342,0
20020101,20020130,weekly,123.56.,DXB,1510,    ,CAI,UAE,401  , ,772,0
20020103,20020127,weekly,...4..7,DXB,1510,    ,CAI,UAE,401  , ,332,0
20011028,20011028,weekly,......7,DXB,1615,    ,CAI,MSR,907  , ,320,1
20020102,20020130,weekly,..3....,DXB,1615,    ,CAI,MSR,907  , ,AB6,1
20020113,20020127,weekly,......7,DXB,1630,    ,CAI,MSR,913  , ,AB6,0
20020103,20020128,weekly,1..4...,DXB,1645,    ,CAI,MSR,871  , ,AB6,0
--------------------------------------------------------------------
CCJ,Calicut                         ,I,+????
--------------------------------------------------------------------
20020104,20020125,weekly,....5..,DXB,    ,    ,CCJ,AIC,756  , ,312,0
20020106,20020127,weekly,......7,DXB,0005,    ,CCJ,AIC,764  , ,312,1
20020107,20020128,weekly,1......,DXB,0320,    ,CCJ,AIC,922  , ,320,0
20020101,20020129,weekly,.2.4.6.,DXB,1125,    ,CCJ,AIC,922  , ,320,0
--------------------------------------------------------------------
CCU,Kolkata                         ,I,+????
--------------------------------------------------------------------
20020101,20020129,weekly,.2...6.,DXB,    ,    ,CCU,RBA,108  , ,763,1
--------------------------------------------------------------------
CDG,Paris Charles de Gaulle         ,I,+0100
--------------------------------------------------------------------
20020102,20020131,weekly,1234567,DXB,0100,    ,CDG,AFR,627  , ,313,0
20020102,20020130,weekly,1.3.5..,DXB,0115,    ,CDG,HVN,533  , ,763,0
20020103,20020131,weekly,.2.4.6.,DXB,0115,    ,CDG,HVN,535  , ,763,0
20020103,20020131,weekly,...4...,DXB,0135,    ,CDG,CPA,057  , ,742,0
20020108,20020129,weekly,.2.....,DXB,0145,    ,CDG,CPA,057  , ,742,0
20020106,20020127,weekly,......7,DXB,0200,    ,CDG,CPA,057  , ,742,0
20020101,20020129,weekly,.2....7,DXB,0745,    ,CDG,EVA,685  , ,M11,0
20020102,20020130,weekly,1.3..6.,DXB,0800,    ,CDG,UAE,023  , ,332,0
20020103,20020124,weekly,...4...,DXB,1440,    ,CDG,AFR,6755 , ,742,0
20020107,20020128,weekly,1......,DXB,1910,    ,CDG,SIA,7378 , ,74F,0
20020105,20020126,weekly,.....6.,DXB,1950,    ,CDG,SIA,7378 , ,74F,0
--------------------------------------------------------------------
CGK,Jakarta-Cengekareng             ,I,+0700
--------------------------------------------------------------------
20020102,20020130,weekly,1.3.5.7,DXB,0330,    ,CGK,UAE,076  , ,772,2
--------------------------------------------------------------------
CGP,Chittagong                      ,I,+0700
--------------------------------------------------------------------
20020104,20020125,weekly,....5..,DXB,    ,    ,CGP,BBC,026  , ,D10,0
20020106,20020127,weekly,......7,DXB,    ,    ,CGP,BBC,046  , ,D10,0
20020106,20020127,weekly,......7,DXB,    ,    ,CGP,BBC,048  , ,D10,0
--------------------------------------------------------------------
CMB,Colombo                         ,I,+0530
--------------------------------------------------------------------
20020101,20020129,weekly,.2.4.67,DXB,    ,    ,CMB,UAE,076  , ,772,1
20020102,20020130,weekly,1.3....,DXB,    ,    ,CMB,UAE,810  , ,332,0
20020105,20020126,weekly,.....6.,DXB,0250,    ,CMB,UAE,800  , ,332,0
20020106,20020127,weekly,......7,DXB,0255,    ,CMB,ALK,508  , ,332,0
20020102,20020130,weekly,.23.5.7,DXB,0345,    ,CMB,UAE,814  , ,332,1
20011028,20011028,weekly,......7,DXB,0910,    ,CMB,ALK,508  , ,332,0
20020102,20020130,weekly,1.3....,DXB,0910,    ,CMB,ALK,508  , ,332,0
20011028,20011028,weekly,......7,DXB,2145,    ,CMB,ALK,532  , ,332,0
20020102,20020130,weekly,..3....,DXB,2145,    ,CMB,ALK,532  , ,332,0
20020107,20020128,weekly,1......,DXB,2300,    ,CMB,ALK,532  , ,332,0
20020104,20020125,weekly,....5..,DXB,2310,    ,CMB,ALK,228  , ,332,0
20020105,20020127,weekly,.....67,DXB,2325,    ,CMB,ALK,228  , ,332,0
20020103,20020127,weekly,...4..7,DXB,2350,    ,CMB,ALK,556  , ,332,0
--------------------------------------------------------------------
CMN,Casablanca Mohamed              ,I,+0000
--------------------------------------------------------------------
20020102,20020112,weekly,..3..6.,DXB,0100,    ,CMN,RAM,265  , ,752,0
20020116,20020130,weekly,..3....,DXB,0100,    ,CMN,RAM,265  , ,752,0
--------------------------------------------------------------------
COK,Cochin                          ,I,+????
--------------------------------------------------------------------
20020103,20020124,weekly,...4...,DXB,    ,    ,COK,AIC,700  , ,742,0
20020105,20020126,weekly,.....6.,DXB,    ,    ,COK,AIC,774  , ,312,0
20020102,20020130,weekly,..3....,DXB,0710,    ,COK,AIC,964  , ,312,0
20011028,20011028,weekly,......7,DXB,0730,    ,COK,AIC,964  , ,312,0
20020107,20020128,weekly,1......,DXB,1000,    ,COK,AIC,962  , ,313,0
20020101,20020129,weekly,.2.....,DXB,1005,    ,COK,AIC,920  , ,AB4,1
--------------------------------------------------------------------
DAC,Dhaka                           ,I,+0200
--------------------------------------------------------------------
20020101,20020129,weekly,.2.456.,DXB,    ,    ,DAC,UAE,062  , ,772,0
20020103,20020131,weekly,...4.6.,DXB,0115,    ,DAC,UAE,610  , ,772,1
20020106,20020128,weekly,1.....7,DXB,0115,    ,DAC,UAE,612  , ,772,0
20020104,20020125,weekly,....5..,DXB,0200,    ,DAC,BBC,058  , ,313,1
20020108,20020129,weekly,.2.....,DXB,0230,    ,DAC,UAE,612  , ,772,0
20020107,20020128,weekly,1......,DXB,0245,    ,DAC,BBC,048  , ,D10,1
20020108,20020129,weekly,.2.....,DXB,0245,    ,DAC,BBC,052  , ,313,1
20020104,20020125,weekly,....5..,DXB,0500,    ,DAC,BBC,026  , ,D10,1
20020106,20020127,weekly,......7,DXB,0530,    ,DAC,BBC,046  , ,D10,1
20020106,20020127,weekly,......7,DXB,0845,    ,DAC,BBC,016  , ,313,1
20020101,20020129,weekly,.2.....,DXB,0845,    ,DAC,BBC,018  , ,313,1
20020106,20020127,weekly,......7,DXB,1000,    ,DAC,IRA,611  , ,74L,0
20020102,20020130,weekly,..3....,DXB,2330,    ,DAC,BBC,010  , ,D10,0
20020101,20020129,weekly,.2...6.,DXB,2359,    ,DAC,BBC,030  , ,D10,1
--------------------------------------------------------------------
DAM,Damaskus                        ,I,+0200
--------------------------------------------------------------------
20020106,20020127,weekly,......7,DXB,    ,    ,DAM,SYR,516  , ,72S,0
20020108,20020108,weekly,.2.....,DXB,0230,    ,DAM,SYR,2924 , ,320,0
20020105,20020126,weekly,.....6.,DXB,0600,0400,DAM,SYR,526  , ,72S,0
20020101,20020106,weekly,.2.45.7,DXB,1410,    ,DAM,UAE,911  , ,313,0
20020108,20020129,weekly,.2.4567,DXB,1410,    ,DAM,UAE,911  , ,313,0
20020101,20020129,weekly,.2.....,DXB,1530,    ,DAM,SYR,516  , ,72S,0
20020107,20020128,weekly,1......,DXB,1600,    ,DAM,SYR,516  , ,72S,1
20020105,20020105,weekly,.....6.,DXB,1810,    ,DAM,UAE,911  , ,313,0
--------------------------------------------------------------------
DAR,Dar es Salaam                   ,I,+0300
--------------------------------------------------------------------
20020101,20020130,weekly,.23.5.7,DXB,0810,    ,DAR,UAE,421  , ,772,1
--------------------------------------------------------------------
DEL,New Delhi                       ,I,+0530
--------------------------------------------------------------------
20020102,20020130,weekly,..3....,DXB,    ,    ,DEL,AIC,720  , ,742,0
20020106,20020113,weekly,......7,DXB,    ,    ,DEL,AIC,726  , ,312,0
20020127,20020127,weekly,......7,DXB,    ,    ,DEL,AIC,726  , ,312,0
20020104,20020125,weekly,....5..,DXB,    ,    ,DEL,AIC,728  , ,312,0
20020105,20020126,weekly,.....6.,DXB,    ,    ,DEL,AIC,754  , ,742,0
20020107,20020128,weekly,1......,DXB,    ,    ,DEL,AIC,844  , ,312,0
20020104,20020127,weekly,1..4.6.,DXB,0410,    ,DEL,UAE,700  , ,332,0
20020122,20020129,weekly,1......,DXB,0410,    ,DEL,UAE,700  , ,332,0
20020101,20020130,weekly,.23.5.7,DXB,2240,    ,DEL,UAE,702  , ,332,0
--------------------------------------------------------------------
DHA,Dhahran                         ,I,+0300
--------------------------------------------------------------------
20020125,20020125,weekly,....5..,DXB,2030,    ,DHA,ELL,123  , ,   ,0
--------------------------------------------------------------------
DMM,Dammam                          ,I,+0300
--------------------------------------------------------------------
20020112,20020112,weekly,.....6.,DXB,1615,    ,DMM,DLH,321  , ,333,0
20020103,20020105,weekly,...4.6.,DXB,1615,    ,DMM,UAE,321  , ,333,0
20020110,20020110,weekly,...4...,DXB,1615,    ,DMM,UAE,321  , ,333,0
20020117,20020126,weekly,...4.6.,DXB,1615,    ,DMM,UAE,321  , ,333,0
20020101,20020130,weekly,1234567,DXB,2015,    ,DMM,SVA,557  , ,M90,0
20020107,20020128,weekly,1......,DXB,2200,    ,DMM,UAE,321  , ,772,0
--------------------------------------------------------------------
DNK,Dnepropetrovsk                  ,I,+0200
--------------------------------------------------------------------
20020106,20020127,weekly,......7,DXB,1700,    ,DNK,UDN,202  , ,YK2,1
--------------------------------------------------------------------
DOH,Doha                            ,I,+0400
--------------------------------------------------------------------
20011031,20011031,weekly,..3....,DXB,    ,    ,DOH,SUD,235  , ,AB6,0
20020102,20020130,weekly,.23456.,DXB,0410,    ,DOH,FEC,701  , ,BES,0
20020102,20020128,weekly,1234567,DXB,0430,    ,DOH,DHX,251  , ,SWM,0
20020122,20020129,weekly,12.....,DXB,0430,    ,DOH,DHX,251  , ,SWM,0
20020101,20020130,weekly,1234567,DXB,1110,    ,DOH,GFA,571  , ,320,0
20020101,20020130,weekly,.234567,DXB,1115,    ,DOH,QTR,105  , ,AB6,0
20020107,20020128,weekly,1......,DXB,1115,    ,DOH,QTR,105  , ,320,0
20020101,20020129,weekly,.2.4567,DXB,1415,    ,DOH,UAE,223  , ,772,0
20020102,20020130,weekly,..3....,DXB,1415,    ,DOH,UAE,223  , ,312,0
20020107,20020128,weekly,1......,DXB,1730,    ,DOH,UAE,223  , ,313,0
20020105,20020126,weekly,.....6.,DXB,1930,    ,DOH,QTR,113  , ,AB6,0
20020101,20020129,weekly,12..5..,DXB,1955,    ,DOH,QTR,113  , ,320,0
20020102,20020130,weekly,..34..7,DXB,1955,    ,DOH,QTR,113  , ,AB6,0
20020101,20020130,weekly,1234567,DXB,2100,    ,DOH,GFA,575  , ,320,0
20020101,20020129,weekly,.2...6.,DXB,2215,    ,DOH,UAE,225  , ,772,0
20020102,20020130,weekly,1.345.7,DXB,2215,    ,DOH,UAE,225  , ,332,0
20020101,20020130,weekly,123....,DXB,2359,    ,DOH,QTR,119  , ,AB6,0
20020103,20020127,weekly,...4567,DXB,2359,    ,DOH,QTR,119  , ,320,0
--------------------------------------------------------------------
DUS,Duesseldorf                     ,I,+0100
--------------------------------------------------------------------
20020101,20020130,weekly,1234567,DXB,0825,    ,DUS,UAE,021  , ,313,0
--------------------------------------------------------------------
EBB,Entebbe                         ,I,+0300
--------------------------------------------------------------------
20020102,20020130,weekly,..3....,DXB,0800,    ,EBB,DSR,608  , ,D1F,0
20020103,20020128,weekly,1..4.6.,DXB,0810,    ,EBB,UAE,423  , ,772,1
20020107,20020128,weekly,1......,DXB,1300,    ,EBB,DSR,604  , ,D1F,0
--------------------------------------------------------------------
EVN,Eriwan                          ,I,+0400
--------------------------------------------------------------------
20020106,20020127,weekly,......7,DXB,    ,    ,EVN,UDN,202  , ,YK2,0
20020105,20020126,weekly,.....6.,DXB,0005,    ,EVN,RME,312  , ,TU3,0
20020108,20020129,weekly,.2.....,DXB,0005,    ,EVN,RME,312  , ,TU5,0
--------------------------------------------------------------------
EWR,Newark                          ,I,-0500
--------------------------------------------------------------------
20020102,20020130,weekly,1.3.5..,DXB,0230,    ,EWR,MAS,090  , ,772,0
--------------------------------------------------------------------
FCO,Rome (Fiumicino IntI.)          ,I,+0100
--------------------------------------------------------------------
20020102,20020130,weekly,..3....,DXB,    ,    ,FCO,BBC,005  , ,D10,0
20020106,20020127,weekly,.....6.,DXB,    ,    ,FCO,BBC,007  , ,D10,0
20020102,20020130,weekly,1.34...,DXB,    ,    ,FCO,UAE,017  , ,332,0
20020101,20020129,weekly,.2..567,DXB,    ,    ,FCO,UAE,019  , ,332,0
--------------------------------------------------------------------
FRA,Frankfurt Rhein/Main Airport    ,I,+0100
--------------------------------------------------------------------
20020103,20020124,weekly,...4...,DXB,    ,    ,FRA,BBC,001  , ,D10,0
20020102,20020130,weekly,1.3....,DXB,    ,    ,FRA,RNA,229  , ,752,0
20020105,20020126,weekly,.....6.,DXB,    ,    ,FRA,RNA,231  , ,752,0
20020102,20020130,weekly,..3...7,DXB,0115,    ,FRA,RBA,033  , ,763,0
20020102,20020131,weekly,1234567,DXB,0150,    ,FRA,DLH,633  , ,343,0
20020102,20020130,weekly,1.3..67,DXB,0205,    ,FRA,CPA,067  , ,742,0
20020101,20020130,weekly,1234567,DXB,0845,    ,FRA,UAE,015  , ,332,0
20011211,20011214,weekly,.2345..,DXB,1300,1200,FRA,DLH,901  , ,737,0
20020101,20020130,weekly,.234...,DXB,1400,    ,FRA,CPA,065  , ,742,0
20011211,20011214,weekly,.2345..,DXB,1400,1300,FRA,DLH,1001 , ,737,0
20011030,20011030,weekly,.2.....,DXB,1400,1300,FRA,DLH,111  , ,737,0
20011211,20011214,weekly,.2345..,DXB,1500,1400,FRA,DLH,1101 , ,737,0
20011211,20011213,weekly,.234...,DXB,1600,1500,FRA,DLH,1201 , ,343,0
20011214,20011214,weekly,....5..,DXB,1600,1500,FRA,DLH,1201 , ,737,0
20011220,20011220,weekly,...4...,DXB,1600,    ,FRA,RYR,233  , ,343,0
20011211,20011213,weekly,.234...,DXB,1700,1600,FRA,DLH,1301 , ,343,0
20011214,20011214,weekly,....5..,DXB,1700,1600,FRA,DLH,1301 , ,737,0
20020218,20020222,weekly,12345..,DXB,1800,1700,FRA,DLH,111  , ,737,0
20011211,20011213,weekly,.234...,DXB,1800,1700,FRA,DLH,1401 , ,343,0
20011214,20011214,weekly,....5..,DXB,1800,1700,FRA,DLH,1401 , ,737,0
20011211,20011214,weekly,.2345..,DXB,1900,1800,FRA,DLH,1501 , ,737,0
20011030,20011030,weekly,.2.....,DXB,1900,1800,FRA,DLH,221  , ,737,0
20020228,20020228,weekly,...4...,DXB,2000,1900,FRA,DLH,111  , ,737,0
20011211,20011214,weekly,.2345..,DXB,2000,1900,FRA,DLH,1601 , ,737,0
20011030,20011030,weekly,.2.....,DXB,2000,1900,FRA,DLH,331  , ,737,0
20011220,20011220,weekly,...4...,DXB,2050,    ,FRA,RYR,236  , ,737,0
20020204,20020208,weekly,1.3.5..,DXB,2100,2000,FRA,DLH,111  , ,737,0
20020205,20020207,weekly,.2.4...,DXB,2100,2000,FRA,DLH,111  , ,343,0
20011211,20011214,weekly,.2345..,DXB,2100,2000,FRA,DLH,1701 , ,737,0
20011030,20011030,weekly,.2.....,DXB,2100,2000,FRA,DLH,441  , ,737,0
20011211,20011214,weekly,.2345..,DXB,2200,2100,FRA,DLH,1801 , ,737,0
--------------------------------------------------------------------
GSM,Gheshm                          ,I,+????
--------------------------------------------------------------------
20020101,20020129,weekly,.2.4...,DXB,1700,    ,GSM,IRQ,1103 , ,YK4,0
20020102,20020130,weekly,1.3.5..,DXB,1800,    ,GSM,IRQ,1101 , ,TU5,0
20020101,20020129,weekly,.2.4.67,DXB,1900,    ,GSM,IRQ,1105 , ,YK4,0
20020101,20020130,weekly,.234567,DXB,2100,    ,GSM,IRQ,1107 , ,YK4,0
--------------------------------------------------------------------
GXF,Seiyun                          ,.,+????
--------------------------------------------------------------------
20020101,20020129,weekly,.2.....,DXB,    ,    ,GXF,IYE,801  , ,72S,0
--------------------------------------------------------------------
HAN,Hanoi                           ,I,+0800
--------------------------------------------------------------------
20020101,20020129,weekly,.2.4.6.,DXB,2230,    ,HAN,HVN,534  , ,763,0
--------------------------------------------------------------------
HBE,Borg El Arab                    ,.,+????
--------------------------------------------------------------------
20020105,20020112,weekly,.....6.,DXB,1700,    ,HBE,MSR,919  , ,AB6,0
20020119,20020126,weekly,.....6.,DXB,1700,    ,HBE,MSR,919  , ,320,0
--------------------------------------------------------------------
HGA,Hargeisa                        ,.,+????
--------------------------------------------------------------------
20020106,20020120,weekly,.....6.,DXB,    ,    ,HGA,STA,101  , ,IL8,0
20020106,20020127,weekly,......7,DXB,0300,    ,HGA,DAO,179  ,A,IL8,0
20020103,20020131,weekly,...4...,DXB,0330,    ,HGA,DML,505  , ,IL8,1
--------------------------------------------------------------------
HKG,Hongkong                        ,I,+0800
--------------------------------------------------------------------
20020103,20020131,weekly,...4.67,DXB,0005,    ,HKG,CPA,732  , ,772,0
20020103,20020131,weekly,...4...,DXB,0110,    ,HKG,UAE,9880 , ,74F,0
20020102,20020130,weekly,.23..6.,DXB,0155,    ,HKG,AHK,002  , ,742,0
20020104,20020127,weekly,....5.7,DXB,0205,    ,HKG,AHK,002  , ,742,0
20020102,20020130,weekly,.23.5.7,DXB,0315,    ,HKG,UAE,082  , ,772,1
20020103,20020131,weekly,1..4.6.,DXB,0315,    ,HKG,UAE,086  , ,772,1
20020102,20020131,weekly,1.345.7,DXB,0340,    ,HKG,HDA,501  , ,742,0
20020102,20020130,weekly,..3....,DXB,0355,    ,HKG,UAE,9882 , ,742,0
20020101,20020129,weekly,.2....7,DXB,0600,    ,HKG,UAE,9880 , ,74F,0
20020102,20020130,weekly,..3....,DXB,0615,    ,HKG,CPA,066  , ,742,0
20020104,20020125,weekly,....5..,DXB,0900,    ,HKG,AFR,6790 , ,742,0
20020102,20020130,weekly,1.3.5..,DXB,0945,    ,HKG,UAE,080  , ,332,0
20020102,20020130,weekly,1.3...7,DXB,1830,    ,HKG,CPA,068  , ,742,0
20020105,20020126,weekly,.....6.,DXB,1830,    ,HKG,CPA,068  , ,742,1
20020103,20020124,weekly,...4...,DXB,1835,    ,HKG,CPA,058  , ,742,0
20020106,20020127,weekly,......7,DXB,1845,    ,HKG,AHK,004  , ,742,0
20020106,20020127,weekly,......7,DXB,1905,    ,HKG,CPA,058  , ,742,0
20020101,20020129,weekly,.2.....,DXB,1915,    ,HKG,CPA,058  , ,742,0
20020102,20020130,weekly,..3....,DXB,2045,    ,HKG,AHK,004  , ,742,0
20020101,20020129,weekly,12.4..7,DXB,2115,    ,HKG,CPA,730  , ,772,1
20020102,20020130,weekly,..3...7,DXB,2315,    ,HKG,AHK,002  ,A,742,0
20020101,20020130,weekly,.23..67,DXB,2315,    ,HKG,CPA,750  , ,773,2
--------------------------------------------------------------------
HYD,Hyderabad                       ,I,+0530
--------------------------------------------------------------------
20020107,20020128,weekly,1......,DXB,0030,    ,HYD,AIC,766  , ,313,0
20020103,20020131,weekly,.2.45..,DXB,0050,    ,HYD,IAC,952  , ,AB3,0
20020102,20020130,weekly,..3....,DXB,1900,    ,HYD,AIC,734  , ,313,0
--------------------------------------------------------------------
ICN,Incheon                         ,I,+????
--------------------------------------------------------------------
20020104,20020128,weekly,1...5..,DXB,1620,    ,ICN,KAL,952  , ,332,0
--------------------------------------------------------------------
IFN,Isfahan                         ,I,+0330
--------------------------------------------------------------------
20020104,20020121,weekly,1...5..,DXB,1200,    ,IFN,IRK,7145 , ,TU5,0
--------------------------------------------------------------------
ISB,Islamabad                       ,I,+0500
--------------------------------------------------------------------
20020104,20020126,weekly,....56.,DXB,    ,    ,ISB,PIA,232  , ,AB3,0
20020104,20020128,weekly,1...5..,DXB,0015,    ,ISB,SAI,075  , ,TU5,1
20020103,20020131,weekly,...4...,DXB,0105,    ,ISB,RSO,523  , ,YK2,0
20020103,20020131,weekly,1..4...,DXB,0320,    ,ISB,UAE,664  , ,772,0
20020107,20020128,weekly,1......,DXB,1430,    ,ISB,PIA,234  , ,AB3,0
20020101,20020129,weekly,.2.....,DXB,2200,    ,ISB,UAE,664  , ,313,0
20020104,20020126,weekly,....56.,DXB,2200,    ,ISB,UAE,664  , ,332,0
20020105,20020126,weekly,.....6.,DXB,2300,    ,ISB,RSO,511  , ,YK2,1
--------------------------------------------------------------------
IST,Istanbul                        ,I,+0200
--------------------------------------------------------------------
20020102,20020130,weekly,.23.5.7,DXB,0330,    ,IST,SIA,404  , ,772,0
20020103,20020131,weekly,12.4.6.,DXB,0330,    ,IST,THY,1163 , ,738,0
20020105,20020129,weekly,.2...6.,DXB,0355,    ,IST,MAS,030  , ,333,0
20020103,20020128,weekly,1..4.67,DXB,1435,    ,IST,UAE,031  , ,313,0
--------------------------------------------------------------------
JED,Jeddah                          ,I,+0300
--------------------------------------------------------------------
20020104,20020125,weekly,....5..,DXB,    ,    ,JED,ETH,623  , ,763,0
20020101,20020129,weekly,12.456.,DXB,1700,    ,JED,UAE,301  , ,772,0
20020103,20020128,weekly,1..4.6.,DXB,2045,    ,JED,SVA,551  , ,772,0
--------------------------------------------------------------------
JFK,J.F.Kennedy                     ,I,-0500
--------------------------------------------------------------------
20020108,20020129,weekly,.2.....,DXB,0240,    ,JFK,BBC,009  , ,D10,1
20020101,20020106,weekly,.2.4..7,DXB,0700,    ,JFK,DAL,121  , ,M11,1
20020108,20020113,weekly,.2....7,DXB,0700,    ,JFK,DAL,121  , ,M11,1
20020110,20020110,weekly,...4...,DXB,0700,0000,JFK,DAL,121  , ,M11,1
20020115,20020129,weekly,.2.4..7,DXB,0700,    ,JFK,DAL,121  , ,M11,1
--------------------------------------------------------------------
JIB,Djibouti                        ,I,+????
--------------------------------------------------------------------
20020106,20020127,weekly,.....6.,DXB,    ,    ,JIB,DAO,189  , ,TU5,0
20020106,20020120,weekly,.....6.,DXB,0400,    ,JIB,STA,101  , ,IL8,1
--------------------------------------------------------------------
JNB,Johannesburg                    ,I,+0200
--------------------------------------------------------------------
20020102,20020131,weekly,12345.7,DXB,0340,    ,JNB,UAE,463  , ,332,0
20020105,20020126,weekly,.....6.,DXB,0840,    ,JNB,UAE,463  , ,332,0
--------------------------------------------------------------------
KBP,Kiev/Borispol                   ,.,+0300
--------------------------------------------------------------------
20020107,20020128,weekly,1......,DXB,2300,    ,KBP,TVR,302  , ,YK2,1
20020103,20020124,weekly,...4...,DXB,2300,    ,KBP,UKR,234  , ,TU5,1
--------------------------------------------------------------------
KER,Karman                          ,I,+????
--------------------------------------------------------------------
20020101,20020129,weekly,.2..5..,DXB,1630,    ,KER,IRM,5035 , ,TU5,0
--------------------------------------------------------------------
KHI,Karachi                         ,I,+0500
--------------------------------------------------------------------
20020104,20020125,weekly,....5..,DXB,    ,    ,KHI,CLX,781  , ,744,0
20020102,20020130,weekly,..3...7,DXB,    ,    ,KHI,MAS,161  , ,333,0
20020102,20020130,weekly,..3.5..,DXB,    ,    ,KHI,UAE,610  , ,772,0
20020107,20020128,weekly,1......,DXB,0020,    ,KHI,RSO,733  , ,YK2,0
20020102,20020130,weekly,..3....,DXB,0055,    ,KHI,RSO,701  , ,YK2,0
20020102,20020131,weekly,.23456.,DXB,0100,    ,KHI,PIA,214  , ,AB3,0
20020107,20020128,weekly,1......,DXB,0100,    ,KHI,PIA,214  , ,312,0
20020106,20020127,weekly,......7,DXB,0130,    ,KHI,PIA,214  , ,AB3,0
20020104,20020129,weekly,.2..5..,DXB,0145,    ,KHI,RJA,190  , ,313,0
20020103,20020127,weekly,...4..7,DXB,0530,    ,KHI,PIA,788  , ,742,0
20020101,20020130,weekly,1234567,DXB,0800,    ,KHI,UAE,600  , ,772,0
20020101,20020129,weekly,.2.....,DXB,0930,    ,KHI,PIA,788  , ,742,0
20020103,20020128,weekly,1..4...,DXB,1045,    ,KHI,MSR,870  , ,AB6,0
20020102,20020130,weekly,..34567,DXB,1500,    ,KHI,PIA,212  , ,733,0
20020101,20020129,weekly,.2.....,DXB,1600,    ,KHI,PIA,212  , ,733,0
20020107,20020128,weekly,1......,DXB,1615,    ,KHI,PIA,212  , ,AB3,0
20020102,20020130,weekly,..3....,DXB,1700,    ,KHI,SAI,087  , ,TU5,1
20020214,20020215,weekly,...45..,DXB,1800,2100,KHI,DLH,111  , ,737,0
20020102,20020130,weekly,..3....,DXB,1800,    ,KHI,RSO,756  , ,YK2,0
20020101,20020113,weekly,1234567,DXB,1815,    ,KHI,UAE,602  , ,772,0
20020114,20020120,weekly,12.4567,DXB,1815,    ,KHI,UAE,602  , ,772,0
20020116,20020116,weekly,..3....,DXB,1815,    ,KHI,UAE,602  , ,343,0
20020121,20020125,weekly,12345..,DXB,1815,    ,KHI,UAE,602  , ,343,0
20020126,20020130,weekly,123..67,DXB,1815,    ,KHI,UAE,602  , ,772,0
20020105,20020126,weekly,.....6.,DXB,1830,    ,KHI,ETH,632  , ,763,0
20020107,20020128,weekly,1......,DXB,1830,    ,KHI,ETH,652  , ,763,0
20020107,20020114,weekly,1......,DXB,1900,    ,KHI,SAI,312  , ,TU5,0
20020128,20020128,weekly,1......,DXB,1900,    ,KHI,SAI,312  , ,TU5,0
20020102,20020130,weekly,..3.5.7,DXB,1910,    ,KHI,SWR,394  , ,332,0
20020105,20020126,weekly,.....6.,DXB,1930,    ,KHI,RSO,767  , ,YK2,0
20020104,20020125,weekly,....5..,DXB,1950,    ,KHI,RSO,744  , ,YK2,1
20020106,20020127,weekly,......7,DXB,2010,    ,KHI,RSO,767  , ,YK2,0
20020106,20020127,weekly,......7,DXB,2010,    ,KHI,RSO,787  , ,YK2,0
20020107,20020128,weekly,1......,DXB,2100,    ,KHI,RSO,711  , ,YK2,1
20020103,20020124,weekly,...4...,DXB,2225,    ,KHI,RSO,723  , ,YK2,1
20020102,20020130,weekly,..3....,DXB,2330,    ,KHI,IYE,860  , ,313,0
--------------------------------------------------------------------
KIH,Kish                            ,I,+????
--------------------------------------------------------------------
20020101,20020129,weekly,12.4567,DXB,0800,    ,KIH,IRG,2611 , ,DHT,0
20020101,20020130,weekly,123..67,DXB,0830,    ,KIH,IRG,2606 , ,F50,0
20020101,20020129,weekly,.2.....,DXB,1600,    ,KIH,IRG,2613 , ,DHT,0
20020106,20020127,weekly,......7,DXB,1600,    ,KIH,IRK,7133 , ,YK4,0
20020101,20020121,weekly,123456.,DXB,1730,    ,KIH,IRK,7135 , ,YK2,0
20020106,20020127,weekly,......7,DXB,1900,    ,KIH,IRK,7135 , ,YK4,0
20020101,20020121,weekly,123456.,DXB,2030,    ,KIH,IRK,7137 , ,YK4,0
20020106,20020127,weekly,......7,DXB,2200,    ,KIH,IRK,7137 , ,YK4,0
--------------------------------------------------------------------
KRT,Khartoum                        ,I,+0300
--------------------------------------------------------------------
20020107,20020128,weekly,......7,DXB,    ,    ,KRT,ETH,653  , ,752,0
20020105,20020126,weekly,.....6.,DXB,1330,    ,KRT,SUD,2235 , ,AB6,0
20011028,20011028,weekly,......7,DXB,1430,    ,KRT,SUD,225  , ,AB6,1
20020102,20020130,weekly,..3....,DXB,1430,    ,KRT,SUD,225  , ,AB6,0
20011031,20011031,weekly,..3....,DXB,1630,    ,KRT,SUD,235  , ,AB6,1
20020107,20020128,weekly,1......,DXB,2330,    ,KRT,SUD,231  , ,72S,0
--------------------------------------------------------------------
KSH,Kermanshah                      ,I,+????
--------------------------------------------------------------------
20020106,20020127,weekly,......7,DXB,1300,    ,KSH,IRQ,1120 , ,TU5,0
--------------------------------------------------------------------
KTM,Kathmandu                       ,I,+0530
--------------------------------------------------------------------
20020101,20020129,weekly,.2.4...,DXB,0900,    ,KTM,RNA,230  , ,752,0
20020106,20020127,weekly,......7,DXB,0900,    ,KTM,RNA,232  , ,752,0
--------------------------------------------------------------------
KUL,Kuala Lumpur                    ,I,+0800
--------------------------------------------------------------------
20020102,20020130,weekly,..3.567,DXB,0255,    ,KUL,UAE,062  , ,772,1
20020101,20020129,weekly,.2.4.6.,DXB,0930,    ,KUL,MAS,091  , ,772,0
20020102,20020130,weekly,..3...7,DXB,1900,    ,KUL,MAS,161  , ,333,1
20020101,20020129,weekly,.2...6.,DXB,2005,    ,KUL,MAS,031  , ,333,0
--------------------------------------------------------------------
KWI,Kuwait                          ,I,+0300
--------------------------------------------------------------------
20020105,20020126,weekly,.....6.,DXB,    ,    ,KWI,AMC,833  , ,320,0
20020103,20020124,weekly,...4...,DXB,    ,    ,KWI,AMC,835  , ,320,0
20020106,20020127,weekly,......7,DXB,    ,    ,KWI,LAZ,537  , ,TU5,0
20020105,20020128,weekly,1....6.,DXB,    ,    ,KWI,OAL,346  , ,734,0
20020107,20020128,weekly,1......,DXB,    ,    ,KWI,OMA,417  , ,733,0
20020101,20020130,weekly,1234567,DXB,0725,    ,KWI,KAC,676  , ,320,0
20020103,20020128,weekly,1..4.6.,DXB,0745,    ,KWI,UAE,101  , ,332,0
20020104,20020125,weekly,....5..,DXB,1210,    ,KWI,GFA,231  , ,320,0
20020105,20020128,weekly,1....6.,DXB,1455,    ,KWI,KAC,672  , ,320,0
20020112,20020112,weekly,.....6.,DXB,1615,    ,KWI,DLH,103  , ,772,0
20020101,20020105,weekly,.2...6.,DXB,1615,    ,KWI,UAE,103  , ,772,0
20020102,20020130,weekly,..345.7,DXB,1615,    ,KWI,UAE,103  , ,332,0
20020107,20020108,weekly,12.....,DXB,1615,    ,KWI,UAE,103  , ,772,0
20020114,20020129,weekly,12...6.,DXB,1615,    ,KWI,UAE,103  , ,772,0
20020104,20020125,weekly,....5..,DXB,1705,1605,KWI,ALK,227  , ,332,0
20020105,20020127,weekly,.....67,DXB,1720,    ,KWI,ALK,227  , ,332,0
20020102,20020130,weekly,..3....,DXB,1820,    ,KWI,GFA,231  , ,320,0
20020101,20020129,weekly,.2...6.,DXB,1925,    ,KWI,RBA,117  , ,763,0
20020101,20020130,weekly,123..67,DXB,2025,    ,KWI,KAC,674  , ,AB6,0
20020103,20020125,weekly,...45..,DXB,2025,    ,KWI,KAC,674  , ,312,0
--------------------------------------------------------------------
LAM,Lamerd                          ,I,+????
--------------------------------------------------------------------
20020104,20020125,weekly,....5..,DXB,0730,    ,LAM,IRC,6718 , ,AT7,0
20020107,20020128,weekly,1......,DXB,1100,    ,LAM,IRC,6718 , ,AT7,0
--------------------------------------------------------------------
LAR,LAR                             ,I,+????
--------------------------------------------------------------------
20020107,20020128,weekly,1......,DXB,0700,    ,LAR,IRC,6748 , ,AT7,0
20011028,20011028,weekly,......7,DXB,0730,    ,LAR,IRC,6550 , ,AT7,0
20020102,20020130,weekly,..3....,DXB,0730,    ,LAR,IRC,6550 , ,AT7,0
20020101,20020129,weekly,.2.4.6.,DXB,0730,    ,LAR,IRC,6748 , ,AT7,0
20020104,20020125,weekly,....5..,DXB,1130,    ,LAR,IRC,6550 , ,AT7,0
20020106,20020127,weekly,......7,DXB,1320,    ,LAR,IRC,6550 , ,AT7,0
--------------------------------------------------------------------
LBV,Libreville                      ,I,+0100
--------------------------------------------------------------------
20020106,20020127,weekly,......7,DXB,0130,    ,LBV,AGN,701  , ,763,0
--------------------------------------------------------------------
LCA,Larnaca                         ,I,+0200
--------------------------------------------------------------------
20020101,20020111,weekly,.2.45..,DXB,    ,    ,LCA,CSA,401  , ,734,0
20020115,20020129,weekly,.2.4...,DXB,    ,    ,LCA,CSA,401  , ,734,0
20020102,20020130,weekly,..3....,DXB,    ,    ,LCA,ROT,065  , ,733,0
20020104,20020125,weekly,....5..,DXB,    ,    ,LCA,ROT,065  , ,313,0
20020106,20020127,weekly,......7,DXB,    ,    ,LCA,ROT,066  , ,733,0
20020101,20020129,weekly,12.4.6.,DXB,    ,    ,LCA,UAE,027  , ,AB6,0
20020106,20020127,weekly,......7,DXB,1355,    ,LCA,CYP,383  , ,320,0
20020102,20020130,weekly,..3....,DXB,2245,    ,LCA,CYP,393  , ,320,1
--------------------------------------------------------------------
LGW,London Gatwick                  ,I,+0000
--------------------------------------------------------------------
20020105,20020126,weekly,.....6.,DXB,0200,    ,LGW,SEY,028  , ,762,0
20020102,20020131,weekly,1234567,DXB,0215,    ,LGW,UAE,007  , ,332,0
20020102,20020130,weekly,1.3....,DXB,1155,    ,LGW,RNA,229  , ,752,1
--------------------------------------------------------------------
LHE,Lahore                          ,I,+0530
--------------------------------------------------------------------
20020102,20020130,weekly,..3....,DXB,    ,    ,LHE,PIA,222  , ,AB3,0
20020104,20020125,weekly,....5..,DXB,0025,    ,LHE,RSO,445  , ,YK2,0
20020105,20020126,weekly,.....6.,DXB,0050,    ,LHE,RSO,434  , ,YK2,0
20020103,20020131,weekly,...4...,DXB,0055,    ,LHE,SAI,903  , ,TU5,1
20020108,20020129,weekly,.2.....,DXB,0330,    ,LHE,UAE,674  , ,313,0
20020102,20020130,weekly,..3.5.7,DXB,1445,    ,LHE,PIA,210  , ,AB3,0
20020102,20020130,weekly,..34..7,DXB,2200,    ,LHE,UAE,674  , ,332,0
20020106,20020127,weekly,......7,DXB,2250,    ,LHE,RSO,411  , ,YK2,1
20020104,20020125,weekly,....5..,DXB,2300,    ,LHE,SAI,913  , ,TU5,1
--------------------------------------------------------------------
LHR,London Heathrow                 ,I,+0000
--------------------------------------------------------------------
20020102,20020131,weekly,1234567,DXB,0110,    ,LHR,BAW,106  , ,772,0
20020102,20020130,weekly,.23...7,DXB,0140,    ,LHR,RBA,097  , ,763,0
20020104,20020125,weekly,....5..,DXB,0230,    ,LHR,BBC,001  , ,D10,1
20020106,20020127,weekly,.....6.,DXB,0420,    ,LHR,BBC,007  , ,D10,1
20020101,20020129,weekly,1......,DXB,0450,    ,LHR,BBC,003  , ,D10,1
20020102,20020130,weekly,..3....,DXB,0615,    ,LHR,BBC,005  , ,D10,1
20020107,20020128,weekly,1......,DXB,0635,    ,LHR,RBA,095  , ,763,0
20020103,20020124,weekly,...4...,DXB,0645,    ,LHR,BBC,057  , ,313,0
20020101,20020130,weekly,1234567,DXB,0745,    ,LHR,UAE,001  , ,772,0
20020105,20020126,weekly,.....6.,DXB,0810,    ,LHR,ALK,507  , ,332,0
20020105,20020126,weekly,.....6.,DXB,0830,    ,LHR,BBC,015  , ,313,0
20020107,20020128,weekly,1......,DXB,0830,    ,LHR,BBC,017  , ,313,0
20020101,20020130,weekly,1234567,DXB,0845,    ,LHR,BAW,108  , ,772,0
20020102,20020130,weekly,1.3..6.,DXB,1040,    ,LHR,PIA,787  , ,742,0
20020105,20020126,weekly,.....6.,DXB,1115,    ,LHR,EVA,677  , ,M11,0
20020101,20020129,weekly,.2.....,DXB,1125,    ,LHR,EVA,677  , ,M11,0
20020102,20020130,weekly,..3....,DXB,1205,    ,LHR,EVA,677  , ,M11,0
20020106,20020127,weekly,......7,DXB,1215,    ,LHR,SIA,7396 , ,74F,0
20020101,20020129,weekly,.2....7,DXB,1300,    ,LHR,ALK,507  , ,332,0
20020101,20020130,weekly,1234567,DXB,1415,    ,LHR,UAE,003  , ,772,0
20020101,20020106,weekly,.234567,DXB,1600,    ,LHR,UAE,005  , ,332,0
20020107,20020112,weekly,123456.,DXB,1600,    ,LHR,UAE,005  , ,332,0
20020114,20020130,weekly,1234567,DXB,1600,    ,LHR,UAE,005  , ,332,0
20020113,20020113,weekly,......7,DXB,1605,    ,LHR,UAE,005  , ,332,0
20020102,20020130,weekly,..3....,DXB,1655,    ,LHR,SIA,7396 , ,74F,0
--------------------------------------------------------------------
LUX,Luxemburg                       ,I,+0100
--------------------------------------------------------------------
20020105,20020126,weekly,.....6.,DXB,0245,    ,LUX,CLX,781  , ,744,1
--------------------------------------------------------------------
LYP,Faisalabad                      ,I,+0530
--------------------------------------------------------------------
20020101,20020129,weekly,.2.....,DXB,    ,    ,LYP,PIA,252  , ,733,0
20020104,20020125,weekly,....5..,DXB,0200,    ,LYP,PIA,254  , ,733,1
--------------------------------------------------------------------
MAA,Chennai (Madras)                ,I,+0530
--------------------------------------------------------------------
20020107,20020128,weekly,1......,DXB,    ,    ,MAA,AIC,708  , ,742,0
20020102,20020130,weekly,..3....,DXB,    ,    ,MAA,AIC,758  , ,312,0
20020107,20020128,weekly,1......,DXB,0255,    ,MAA,UAE,540  , ,332,0
20020103,20020131,weekly,...4...,DXB,0330,    ,MAA,UAE,540  , ,332,0
20020101,20020129,weekly,.2...6.,DXB,2130,    ,MAA,UAE,542  , ,332,0
--------------------------------------------------------------------
MAN,Manchester                      ,I,+0000
--------------------------------------------------------------------
20020101,20020130,weekly,.234.67,DXB,0515,    ,MAN,HDA,500  , ,742,0
20020101,20020130,weekly,1234567,DXB,0530,    ,MAN,AHK,001  , ,742,0
20020101,20020130,weekly,1234567,DXB,0735,    ,MAN,UAE,035  , ,332,0
--------------------------------------------------------------------
MCT,Muscat                          ,I,+0300
--------------------------------------------------------------------
20020107,20020128,weekly,1......,DXB,    ,    ,MCT,MSR,929  , ,AB6,0
20020104,20020125,weekly,....5..,DXB,    ,    ,MCT,RSO,744  , ,YK2,0
20020105,20020126,weekly,.....6.,DXB,0200,    ,MCT,SYR,525  , ,72S,0
20020102,20020131,weekly,1234567,DXB,0210,    ,MCT,OMA,120  , ,AT4,0
20020101,20020129,weekly,12.4.67,DXB,0800,    ,MCT,UAE,202  , ,772,0
20020102,20020130,weekly,..3.5..,DXB,0800,    ,MCT,UAE,202  , ,312,0
20020101,20020130,weekly,1234567,DXB,0830,    ,MCT,OMA,112  , ,AT4,0
20020101,20020130,weekly,1234567,DXB,1020,    ,MCT,GFA,500  , ,320,0
20020101,20020130,weekly,1234567,DXB,1240,    ,MCT,OMA,414  , ,313,0
20020107,20020128,weekly,1......,DXB,1400,    ,MCT,OMA,417  , ,733,1
20020101,20020113,weekly,.23.5.7,DXB,1445,    ,MCT,GFA,502  , ,320,0
20020103,20020112,weekly,1..4.6.,DXB,1445,    ,MCT,GFA,502  , ,763,0
20020114,20020120,weekly,1..4567,DXB,1445,    ,MCT,GFA,502  , ,763,0
20020115,20020116,weekly,.23....,DXB,1445,    ,MCT,GFA,502  , ,320,0
20020121,20020129,weekly,12.4567,DXB,1445,    ,MCT,GFA,502  , ,763,0
20020123,20020130,weekly,..3....,DXB,1445,    ,MCT,GFA,502  , ,320,0
20020101,20020130,weekly,1234567,DXB,1545,    ,MCT,OMA,114  , ,AT4,0
20020105,20020126,weekly,.....6.,DXB,1720,    ,MCT,OMA,418  , ,733,0
20020101,20020129,weekly,.2.....,DXB,1915,    ,MCT,GFA,232  , ,320,0
20020101,20020130,weekly,1234567,DXB,1945,    ,MCT,OMA,116  , ,AT4,0
20020101,20020129,weekly,.2.4.6.,DXB,2135,    ,MCT,SWR,398  , ,332,0
20020101,20020130,weekly,1234567,DXB,2215,    ,MCT,OMA,412  , ,313,0
20020104,20020125,weekly,....5..,DXB,2225,    ,MCT,GFA,232  , ,320,0
20020101,20020119,weekly,123456.,DXB,2305,    ,MCT,GFA,506  , ,320,0
20020106,20020120,weekly,......7,DXB,2305,    ,MCT,GFA,506  , ,763,0
20020121,20020130,weekly,1234.6.,DXB,2305,    ,MCT,GFA,506  , ,320,0
20020125,20020127,weekly,....5.7,DXB,2305,    ,MCT,GFA,506  , ,763,0
--------------------------------------------------------------------
MEL,Melbourne                       ,I,+1100
--------------------------------------------------------------------
20020102,20020131,weekly,1234567,DXB,0245,    ,MEL,UAE,068  , ,772,1
--------------------------------------------------------------------
MGQ,Mogadishu                       ,I,+0300
--------------------------------------------------------------------
20020106,20020127,weekly,......7,DXB,0300,    ,MGQ,PHG,7006 , ,IL8,0
--------------------------------------------------------------------
MHD,Mashad                          ,I,+????
--------------------------------------------------------------------
20020103,20020131,weekly,...4...,DXB,0030,    ,MHD,IRC,6790 , ,TU3,0
20020107,20020128,weekly,1......,DXB,1015,    ,MHD,IRC,6790 , ,72S,0
20020101,20020129,weekly,.2..5..,DXB,1345,    ,MHD,IRB,9807 , ,TU5,0
--------------------------------------------------------------------
MLA,Malta                           ,I,+0100
--------------------------------------------------------------------
20020102,20020130,weekly,..3.5.7,DXB,    ,    ,MLA,UAE,445  , ,AB6,0
20020106,20020127,weekly,......7,DXB,0100,    ,MLA,AMC,833  , ,320,1
20020103,20020124,weekly,...4...,DXB,0930,    ,MLA,AMC,835  , ,320,1
--------------------------------------------------------------------
MLE,Male                            ,I,+????
--------------------------------------------------------------------
20020101,20020129,weekly,12.4.6.,DXB,    ,    ,MLE,UAE,814  , ,332,0
20020103,20020131,weekly,.2.4...,DXB,0250,    ,MLE,UAE,810  , ,332,1
20020107,20020128,weekly,1......,DXB,0310,    ,MLE,AUO,3331 , ,333,0
--------------------------------------------------------------------
MNL,Manila                          ,I,+0800
--------------------------------------------------------------------
20020101,20020130,weekly,123.567,DXB,0815,    ,MNL,UAE,084  , ,332,0
--------------------------------------------------------------------
MUC,Muenchen                        ,S,+0100
--------------------------------------------------------------------
20020101,20020130,weekly,1234567,DXB,0805,    ,MUC,UAE,025  , ,332,0
--------------------------------------------------------------------
MUX,Multan                          ,I,+????
--------------------------------------------------------------------
20020103,20020124,weekly,...4...,DXB,    ,    ,MUX,PIA,254  , ,733,0
20020101,20020129,weekly,.2.....,DXB,1300,    ,MUX,PIA,252  , ,733,1
--------------------------------------------------------------------
MXP,Milan-Malpensa                  ,I,+0100
--------------------------------------------------------------------
20020102,20020130,weekly,..3.5..,DXB,0300,    ,MXP,AZA,749  , ,M11,0
20020101,20020129,weekly,.2.4..7,DXB,0715,    ,MXP,AZA,749  , ,M11,0
20020101,20020129,weekly,.2..567,DXB,0755,    ,MXP,UAE,019  , ,332,1
--------------------------------------------------------------------
NBO,Nairobi                         ,I,+0300
--------------------------------------------------------------------
20020101,20020130,weekly,.23.5.7,DXB,    ,    ,NBO,UAE,421  , ,772,0
20020103,20020128,weekly,1..4.6.,DXB,    ,    ,NBO,UAE,423  , ,772,0
20020102,20020131,weekly,1234567,DXB,0225,    ,NBO,KQA,311  , ,313,0
--------------------------------------------------------------------
NCE,Nizza (Cote d Azur)             ,I,+0100
--------------------------------------------------------------------
20020102,20020130,weekly,1.34...,DXB,0705,    ,NCE,UAE,017  , ,332,1
--------------------------------------------------------------------
ODS,Odessa                          ,I,+0300
--------------------------------------------------------------------
20020107,20020128,weekly,1......,DXB,    ,    ,ODS,TVR,302  , ,YK2,0
20020103,20020124,weekly,...4...,DXB,    ,    ,ODS,UKR,234  , ,TU5,0
--------------------------------------------------------------------
ORY,Paris Orly                      ,I,+0100
--------------------------------------------------------------------
20020101,20020129,weekly,1......,DXB,    ,    ,ORY,BBC,003  , ,D10,0
20020105,20020126,weekly,.....6.,DXB,1155,    ,ORY,RNA,231  , ,752,1
--------------------------------------------------------------------
OVB,Novosibirsk                     ,I,+1000
--------------------------------------------------------------------
20020104,20020125,weekly,....5..,DXB,1230,    ,OVB,SBI,866  , ,TU5,0
--------------------------------------------------------------------
PEW,Peshawar                        ,I,+0500
--------------------------------------------------------------------
20020102,20020130,weekly,..3....,DXB,0030,    ,PEW,SAI,102  , ,TU5,1
20020103,20020131,weekly,...4...,DXB,0130,    ,PEW,PIA,222  , ,AB3,1
20020102,20020130,weekly,..3....,DXB,0130,    ,PEW,PIA,224  , ,AB3,0
20020104,20020129,weekly,12..5..,DXB,0230,    ,PEW,PIA,224  , ,AB3,0
20020105,20020127,weekly,.....67,DXB,0315,    ,PEW,PIA,232  , ,AB3,1
20020104,20020127,weekly,...4.6.,DXB,0420,    ,PEW,UAE,654  , ,313,0
20020103,20020124,weekly,...4...,DXB,2230,    ,PEW,RSO,655  , ,YK2,1
20020107,20020128,weekly,1......,DXB,2250,    ,PEW,RSO,622  , ,YK2,1
20020104,20020125,weekly,....5..,DXB,2300,    ,PEW,SAI,065  , ,TU5,1
20020106,20020127,weekly,......7,DXB,2355,    ,PEW,SAI,085  , ,TU5,1
--------------------------------------------------------------------
PRG,Prague                          ,.,+0100
--------------------------------------------------------------------
20020101,20020111,weekly,.2.45..,DXB,2325,    ,PRG,CSA,401  , ,734,1
20020115,20020129,weekly,.2.4...,DXB,2325,    ,PRG,CSA,401  , ,734,1
--------------------------------------------------------------------
RIY,Riyan(Mukalla)                  ,I,+????
--------------------------------------------------------------------
20020102,20020130,weekly,..3....,DXB,    ,    ,RIY,DML,505  , ,IL8,0
20020104,20020125,weekly,....5..,DXB,    ,    ,RIY,IYE,803  , ,313,0
--------------------------------------------------------------------
RUH,Riyadh                          ,I,+0300
--------------------------------------------------------------------
20020103,20020124,weekly,...4...,DXB,    ,    ,RUH,ETH,613  , ,752,0
20020108,20020129,weekly,.2.....,DXB,0100,    ,RUH,FEC,507  , ,BES,0
20020102,20020130,weekly,.23.56.,DXB,0130,    ,RUH,FEC,507  , ,BES,0
20020102,20020131,weekly,123456.,DXB,0330,    ,RUH,FEC,501  , ,BES,0
20020103,20020128,weekly,1..4.6.,DXB,1825,    ,RUH,UAE,313  , ,772,0
20020101,20020120,weekly,1234567,DXB,1900,    ,RUH,SVA,555  , ,772,0
20020122,20020130,weekly,1234567,DXB,1900,    ,RUH,SVA,555  , ,772,0
--------------------------------------------------------------------
SAH,Sanaa                           ,I,+0300
--------------------------------------------------------------------
20020106,20020127,weekly,......7,DXB,0110,    ,SAH,IYE,820  , ,72S,0
20020103,20020131,weekly,.2.4.6.,DXB,0230,    ,SAH,UAE,451  , ,313,0
20020103,20020124,weekly,...4...,DXB,0730,    ,SAH,IYE,861  , ,313,0
20020104,20020125,weekly,....5..,DXB,1245,    ,SAH,IYE,803  , ,313,1
20020101,20020129,weekly,.2.....,DXB,1300,    ,SAH,IYE,801  , ,72S,1
20020107,20020128,weekly,1......,DXB,1400,    ,SAH,IYE,821  , ,72S,1
20020105,20020126,weekly,.....6.,DXB,1845,    ,SAH,IYE,805  , ,313,1
--------------------------------------------------------------------
SEZ,Seychelles                      ,I,+0530
--------------------------------------------------------------------
20020106,20020127,weekly,......7,DXB,0505,    ,SEZ,SEY,027  , ,762,0
--------------------------------------------------------------------
SGN,Ho Chi Minh City                ,I,+0700
--------------------------------------------------------------------
20020124,20020124,weekly,...4...,DXB,    ,    ,SGN,AFL,1234 , ,   ,0
20020102,20020130,weekly,1.3.5..,DXB,2230,    ,SGN,HVN,532  , ,763,0
--------------------------------------------------------------------
SHJ,Sharjah                         ,I,+0400
--------------------------------------------------------------------
20020102,20020130,weekly,.23...7,DXB,0130,    ,SHJ,FEC,105  , ,BES,0
20020101,20020129,weekly,12...67,DXB,1900,    ,SHJ,FEC,101  , ,BES,0
20020106,20020127,weekly,......7,DXB,1900,    ,SHJ,PHG,7007 , ,IL8,0
20020107,20020128,weekly,1......,DXB,1930,    ,SHJ,FEC,105  , ,BES,0
20020106,20020127,weekly,......7,DXB,2010,    ,SHJ,DML,506  , ,IL8,0
20020103,20020117,weekly,...4...,DXB,2030,    ,SHJ,STA,102  , ,IL8,0
--------------------------------------------------------------------
SIN,Singapore                       ,I,+0700
--------------------------------------------------------------------
20020106,20020127,weekly,......7,DXB,    ,    ,SIN,RBA,096  , ,763,0
20020101,20020129,weekly,.2...6.,DXB,    ,    ,SIN,RBA,108  , ,763,0
20020101,20020130,weekly,.23.5.7,DXB,    ,    ,SIN,UAE,066  , ,772,0
20020101,20020130,weekly,1234567,DXB,    ,    ,SIN,UAE,068  , ,772,0
20020101,20020129,weekly,.2.4.67,DXB,    ,    ,SIN,UAE,076  , ,772,0
20020102,20020130,weekly,1.3..6.,DXB,0300,    ,SIN,KLM,9165 , ,742,0
20020107,20020128,weekly,1......,DXB,0655,    ,SIN,SIA,7395 , ,74F,0
20020103,20020124,weekly,...4...,DXB,1005,    ,SIN,SIA,7379 , ,74F,0
20020101,20020129,weekly,.2.....,DXB,1325,    ,SIN,SIA,7377 , ,744,0
20020103,20020124,weekly,...4...,DXB,1745,    ,SIN,SIA,7395 , ,74F,0
20020101,20020129,weekly,.2.....,DXB,1945,    ,SIN,SIA,7375 , ,74F,0
20020101,20020130,weekly,.23.5.7,DXB,2000,    ,SIN,SIA,403  , ,772,0
20020103,20020128,weekly,1..4.6.,DXB,2000,    ,SIN,SIA,427  , ,773,0
20020106,20020127,weekly,......7,DXB,2250,    ,SIN,SIA,7375 , ,74F,0
--------------------------------------------------------------------
SOF,Sofia                           ,I,+0100
--------------------------------------------------------------------
20020106,20020127,weekly,......7,DXB,0515,    ,SOF,LAZ,537  , ,TU5,1
20011028,20011028,weekly,......7,DXB,0515,    ,SOF,LAZ,540  , ,TU5,0
20020102,20020130,weekly,..3....,DXB,0515,    ,SOF,LAZ,540  , ,TU5,0
--------------------------------------------------------------------
STO,Stockholm                       ,I,+0100
--------------------------------------------------------------------
20011028,20011028,weekly,......7,DXB,0535,    ,STO,ALK,531  , ,332,0
20020102,20020130,weekly,..3....,DXB,0535,    ,STO,ALK,531  , ,332,0
20020107,20020128,weekly,1......,DXB,0650,    ,STO,ALK,531  , ,332,0
--------------------------------------------------------------------
SVO,Moskau-Sheremetyevo             ,I,+0300
--------------------------------------------------------------------
20020106,20020127,weekly,......7,DXB,0330,    ,SVO,AFL,522  , ,TU5,0
20020104,20020128,weekly,1...5..,DXB,1500,    ,SVO,PVV,8808 , ,ILW,0
20020107,20020128,weekly,1......,DXB,1550,    ,SVO,AFL,522  , ,ILW,0
20020124,20020124,weekly,...4...,DXB,1840,    ,SVO,AFL,1234 , ,   ,1
20020104,20020125,weekly,....5..,DXB,1840,    ,SVO,AFL,522  , ,ILW,0
--------------------------------------------------------------------
SVX,Ekaterinburg                    ,I,+0300
--------------------------------------------------------------------
20020104,20020125,weekly,....5..,DXB,1750,    ,SVX,SVR,3738 , ,TU5,0
--------------------------------------------------------------------
SXF,Berlin/Schonefeld               ,.,+0100
--------------------------------------------------------------------
20020103,20020127,weekly,...4..7,DXB,0850,    ,SXF,ALK,555  , ,332,0
--------------------------------------------------------------------
SYD,Sydney                          ,I,+1100
--------------------------------------------------------------------
20020101,20020130,weekly,.23.5.7,DXB,0810,    ,SYD,UAE,066  , ,772,1
--------------------------------------------------------------------
SYZ,Shiraz                          ,I,+0400
--------------------------------------------------------------------
20020101,20020129,weekly,.2.4.6.,DXB,0840,    ,SYZ,IRA,656  , ,AB4,0
20020102,20020130,weekly,..3.5.7,DXB,1000,    ,SYZ,IRC,6812 , ,72S,0
20020107,20020128,weekly,1......,DXB,1530,    ,SYZ,IRC,6812 , ,AT7,0
--------------------------------------------------------------------
TBZ,Tabriz                          ,.,+????
--------------------------------------------------------------------
20020102,20020130,weekly,..3....,DXB,1230,    ,TBZ,IRQ,1157 , ,TU5,0
--------------------------------------------------------------------
THR,Tehran                          ,I,+0330
--------------------------------------------------------------------
20020107,20020128,weekly,1......,DXB,0700,    ,THR,IRA,658  , ,313,0
20020101,20020129,weekly,.2.....,DXB,0745,    ,THR,UAE,622  , ,772,0
20020103,20020128,weekly,1..4.67,DXB,0745,    ,THR,UAE,622  , ,313,0
20020101,20020129,weekly,.2.4.6.,DXB,1300,    ,THR,IRA,658  , ,AB4,0
20020102,20020130,weekly,..3.5..,DXB,1300,    ,THR,IRA,658  , ,AB3,0
20020102,20020130,weekly,..3.5.7,DXB,1430,    ,THR,IRC,6744 , ,72S,0
20020101,20020129,weekly,.2.4.6.,DXB,1500,    ,THR,IRC,6744 , ,72S,0
20020107,20020128,weekly,1......,DXB,1600,    ,THR,IRA,610  , ,74L,0
20020102,20020130,weekly,..3..6.,DXB,1600,    ,THR,IRM,5040 , ,AB6,0
20020107,20020128,weekly,1......,DXB,1700,    ,THR,IRC,6744 , ,72S,0
20020102,20020130,weekly,..3.5..,DXB,1815,    ,THR,UAE,624  , ,313,0
20020106,20020127,weekly,......7,DXB,1945,    ,THR,IRA,658  , ,313,0
20020103,20020127,weekly,...4..7,DXB,2000,    ,THR,IRQ,1122 , ,TU5,0
20020101,20020130,weekly,1234567,DXB,2130,    ,THR,IRC,6754 , ,72S,0
--------------------------------------------------------------------
TIP,Tripoli                         ,.,+0100
--------------------------------------------------------------------
20020106,20020127,weekly,......7,DXB,0300,    ,TIP,LAA,273  , ,313,0
20020101,20020129,weekly,.2.....,DXB,0700,    ,TIP,LAA,277  , ,313,0
20020102,20020130,weekly,..3.5.7,DXB,0900,    ,TIP,UAE,445  , ,AB6,1
--------------------------------------------------------------------
TPE,Taipeh                          ,I,+0800
--------------------------------------------------------------------
20020107,20020128,weekly,1......,DXB,0245,    ,TPE,EVA,686  , ,M11,0
20020102,20020130,weekly,..3....,DXB,0255,    ,TPE,EVA,686  , ,M11,0
20020102,20020130,weekly,..3....,DXB,0555,    ,TPE,EVA,678  , ,M11,0
20020103,20020124,weekly,...4...,DXB,0830,    ,TPE,EVA,678  , ,M11,0
20020103,20020124,weekly,...4...,DXB,0845,    ,TPE,CLX,790  , ,744,0
20020106,20020127,weekly,......7,DXB,0900,    ,TPE,EVA,678  , ,M11,0
20020101,20020129,weekly,.2.....,DXB,1845,    ,TPE,CLX,796  , ,744,0
20020105,20020126,weekly,.....6.,DXB,2100,    ,TPE,CLX,796  , ,744,0
20020107,20020128,weekly,1......,DXB,2115,    ,TPE,CLX,796  , ,744,0
--------------------------------------------------------------------
TRV,Trivandrum                      ,I,+????
--------------------------------------------------------------------
20020101,20020129,weekly,.2.....,DXB,    ,    ,TRV,AIC,920  , ,AB4,0
20020102,20020130,weekly,..3....,DXB,    ,    ,TRV,AIC,955  , ,313,0
20020104,20020125,weekly,....5..,DXB,0115,    ,TRV,AIC,928  , ,312,0
20020106,20020127,weekly,......7,DXB,2320,    ,TRV,AIC,948  , ,312,1
--------------------------------------------------------------------
VIE,Vienna                          ,I,+0100
--------------------------------------------------------------------
20020107,20020128,weekly,1......,DXB,1420,    ,VIE,AUO,3332 , ,333,0
--------------------------------------------------------------------
ZAH,Zahedan                         ,I,+????
--------------------------------------------------------------------
20020101,20020129,weekly,.2..5..,DXB,1200,    ,ZAH,IRM,5037 , ,TU5,0
--------------------------------------------------------------------
ZRH,Zurich                          ,I,+0100
--------------------------------------------------------------------
20020103,20020131,weekly,1..4.6.,DXB,0150,    ,ZRH,SWR,395  , ,332,0
20020108,20020129,weekly,.2.....,DXB,0150,    ,ZRH,SWR,397  , ,332,0
20020102,20020130,weekly,..3.5.7,DXB,0150,    ,ZRH,SWR,399  , ,332,0
20020101,20020130,weekly,1234567,DXB,0830,    ,ZRH,UAE,033  , ,332,0
--------------------------------------------------------------------
ZYL,Sylhet                          ,I,+????
--------------------------------------------------------------------
20020106,20020127,weekly,......7,DXB,    ,    ,ZYL,BBC,016  , ,313,0
20020101,20020129,weekly,.2.....,DXB,    ,    ,ZYL,BBC,018  , ,313,0
20020107,20020128,weekly,1......,DXB,    ,    ,ZYL,BBC,052  , ,313,0
20020103,20020124,weekly,...4...,DXB,    ,    ,ZYL,BBC,058  , ,313,0
--------------------------------------------------------------------

