building with nmake 
Warning: cannot find "mre200.dep"
	cl.exe /nologo /ML /W3 /GX /O2 /I "..\include" /D RE_LOCALE_W32 /D "WIN32" /D "NDEBUG" /D "_MBCS" /D "_LIB" /Fp".\mre200.pch" /YX /Fo".\\" /Fd".\mre200" /FD /c ..\src\regfac.cpp
regfac.cpp
	cl.exe /nologo /ML /W3 /GX /O2 /I "..\include" /D RE_LOCALE_W32 /D "WIN32" /D "NDEBUG" /D "_MBCS" /D "_LIB" /Fp".\mre200.pch" /YX /Fo".\\" /Fd".\mre200" /FD /c ..\src\re_coll.cpp
re_coll.cpp
	cl.exe /nologo /ML /W3 /GX /O2 /I "..\include" /D RE_LOCALE_W32 /D "WIN32" /D "NDEBUG" /D "_MBCS" /D "_LIB" /Fp".\mre200.pch" /YX /Fo".\\" /Fd".\mre200" /FD /c ..\src\re_mss.cpp
re_mss.cpp
	cl.exe /nologo /ML /W3 /GX /O2 /I "..\include" /D RE_LOCALE_W32 /D "WIN32" /D "NDEBUG" /D "_MBCS" /D "_LIB" /Fp".\mre200.pch" /YX /Fo".\\" /Fd".\mre200" /FD /c ..\src\re_nls.cpp
re_nls.cpp
	cl.exe /nologo /ML /W3 /GX /O2 /I "..\include" /D RE_LOCALE_W32 /D "WIN32" /D "NDEBUG" /D "_MBCS" /D "_LIB" /Fp".\mre200.pch" /YX /Fo".\\" /Fd".\mre200" /FD /c ..\src\re_nlsw.cpp
re_nlsw.cpp
	cl.exe /nologo /ML /W3 /GX /O2 /I "..\include" /D RE_LOCALE_W32 /D "WIN32" /D "NDEBUG" /D "_MBCS" /D "_LIB" /Fp".\mre200.pch" /YX /Fo".\\" /Fd".\mre200" /FD /c ..\src\re_psx.cpp
re_psx.cpp
	cl.exe /nologo /ML /W3 /GX /O2 /I "..\include" /D RE_LOCALE_W32 /D "WIN32" /D "NDEBUG" /D "_MBCS" /D "_LIB" /Fp".\mre200.pch" /YX /Fo".\\" /Fd".\mre200" /FD /c ..\src\re_psxw.cpp
re_psxw.cpp
	cl.exe /nologo /ML /W3 /GX /O2 /I "..\include" /D RE_LOCALE_W32 /D "WIN32" /D "NDEBUG" /D "_MBCS" /D "_LIB" /Fp".\mre200.pch" /YX /Fo".\\" /Fd".\mre200" /FD /c ..\src\re_strw.cpp
re_strw.cpp
	cl.exe /nologo /ML /W3 /GX /O2 /I "..\include" /D RE_LOCALE_W32 /D "WIN32" /D "NDEBUG" /D "_MBCS" /D "_LIB" /Fp".\mre200.pch" /YX /Fo".\\" /Fd".\mre200" /FD /c ..\src\re_thrd.cpp
re_thrd.cpp
	cl.exe /nologo /ML /W3 /GX /O2 /I "..\include" /D RE_LOCALE_W32 /D "WIN32" /D "NDEBUG" /D "_MBCS" /D "_LIB" /Fp".\mre200.pch" /YX /Fo".\\" /Fd".\mre200" /FD /c ..\src\regex.cpp
regex.cpp
	cl.exe /nologo /ML /W3 /GX /O2 /I "..\include" /D RE_LOCALE_W32 /D "WIN32" /D "NDEBUG" /D "_MBCS" /D "_LIB" /Fp".\mre200.pch" /YX /Fo".\\" /Fd".\mre200" /FD /c ..\src\fileiter.cpp
fileiter.cpp
	cl.exe /nologo /ML /W3 /GX /O2 /I "..\include" /D RE_LOCALE_W32 /D "WIN32" /D "NDEBUG" /D "_MBCS" /D "_LIB" /Fp".\mre200.pch" /YX /Fo".\\" /Fd".\mre200" /FD /c ..\src\cregex.cpp
cregex.cpp
	cl.exe /nologo /ML /W3 /GX /O2 /I "..\include" /D RE_LOCALE_W32 /D "WIN32" /D "NDEBUG" /D "_MBCS" /D "_LIB" /Fp".\mre200.pch" /YX /Fo".\\" /Fd".\mre200" /FD /c ..\src\re_cls.cpp
re_cls.cpp
	link.exe -lib @C:\TEMP\nma00163.
	copy "mre200.lib" "C:\PROGRA~1\MICROS~2\VC98\lib\mre200.lib"
        1 Datei(en) kopiert.
Warning: cannot find "mre200m.dep"
	cl.exe /nologo /MT /W3 /GX /O2 /I "..\include" /D RE_LOCALE_W32 /D "_MT" /D "WIN32" /D "NDEBUG" /D "_MBCS" /D "_LIB" /Fp".\mre200m.pch" /YX /Fo".\\" /Fd".\mre200m" /FD /c ..\src\regfac.cpp
regfac.cpp
	cl.exe /nologo /MT /W3 /GX /O2 /I "..\include" /D RE_LOCALE_W32 /D "_MT" /D "WIN32" /D "NDEBUG" /D "_MBCS" /D "_LIB" /Fp".\mre200m.pch" /YX /Fo".\\" /Fd".\mre200m" /FD /c ..\src\re_coll.cpp
re_coll.cpp
	cl.exe /nologo /MT /W3 /GX /O2 /I "..\include" /D RE_LOCALE_W32 /D "_MT" /D "WIN32" /D "NDEBUG" /D "_MBCS" /D "_LIB" /Fp".\mre200m.pch" /YX /Fo".\\" /Fd".\mre200m" /FD /c ..\src\re_mss.cpp
re_mss.cpp
	cl.exe /nologo /MT /W3 /GX /O2 /I "..\include" /D RE_LOCALE_W32 /D "_MT" /D "WIN32" /D "NDEBUG" /D "_MBCS" /D "_LIB" /Fp".\mre200m.pch" /YX /Fo".\\" /Fd".\mre200m" /FD /c ..\src\re_nls.cpp
re_nls.cpp
	cl.exe /nologo /MT /W3 /GX /O2 /I "..\include" /D RE_LOCALE_W32 /D "_MT" /D "WIN32" /D "NDEBUG" /D "_MBCS" /D "_LIB" /Fp".\mre200m.pch" /YX /Fo".\\" /Fd".\mre200m" /FD /c ..\src\re_nlsw.cpp
re_nlsw.cpp
	cl.exe /nologo /MT /W3 /GX /O2 /I "..\include" /D RE_LOCALE_W32 /D "_MT" /D "WIN32" /D "NDEBUG" /D "_MBCS" /D "_LIB" /Fp".\mre200m.pch" /YX /Fo".\\" /Fd".\mre200m" /FD /c ..\src\re_psx.cpp
re_psx.cpp
	cl.exe /nologo /MT /W3 /GX /O2 /I "..\include" /D RE_LOCALE_W32 /D "_MT" /D "WIN32" /D "NDEBUG" /D "_MBCS" /D "_LIB" /Fp".\mre200m.pch" /YX /Fo".\\" /Fd".\mre200m" /FD /c ..\src\re_psxw.cpp
re_psxw.cpp
	cl.exe /nologo /MT /W3 /GX /O2 /I "..\include" /D RE_LOCALE_W32 /D "_MT" /D "WIN32" /D "NDEBUG" /D "_MBCS" /D "_LIB" /Fp".\mre200m.pch" /YX /Fo".\\" /Fd".\mre200m" /FD /c ..\src\re_strw.cpp
re_strw.cpp
	cl.exe /nologo /MT /W3 /GX /O2 /I "..\include" /D RE_LOCALE_W32 /D "_MT" /D "WIN32" /D "NDEBUG" /D "_MBCS" /D "_LIB" /Fp".\mre200m.pch" /YX /Fo".\\" /Fd".\mre200m" /FD /c ..\src\re_thrd.cpp
re_thrd.cpp
	cl.exe /nologo /MT /W3 /GX /O2 /I "..\include" /D RE_LOCALE_W32 /D "_MT" /D "WIN32" /D "NDEBUG" /D "_MBCS" /D "_LIB" /Fp".\mre200m.pch" /YX /Fo".\\" /Fd".\mre200m" /FD /c ..\src\regex.cpp
regex.cpp
	cl.exe /nologo /MT /W3 /GX /O2 /I "..\include" /D RE_LOCALE_W32 /D "_MT" /D "WIN32" /D "NDEBUG" /D "_MBCS" /D "_LIB" /Fp".\mre200m.pch" /YX /Fo".\\" /Fd".\mre200m" /FD /c ..\src\fileiter.cpp
fileiter.cpp
	cl.exe /nologo /MT /W3 /GX /O2 /I "..\include" /D RE_LOCALE_W32 /D "_MT" /D "WIN32" /D "NDEBUG" /D "_MBCS" /D "_LIB" /Fp".\mre200m.pch" /YX /Fo".\\" /Fd".\mre200m" /FD /c ..\src\cregex.cpp
cregex.cpp
	cl.exe /nologo /MT /W3 /GX /O2 /I "..\include" /D RE_LOCALE_W32 /D "_MT" /D "WIN32" /D "NDEBUG" /D "_MBCS" /D "_LIB" /Fp".\mre200m.pch" /YX /Fo".\\" /Fd".\mre200m" /FD /c ..\src\re_cls.cpp
re_cls.cpp
	link.exe -lib @C:\TEMP\nma00047.
	copy "mre200m.lib" "C:\PROGRA~1\MICROS~2\VC98\lib\mre200m.lib"
        1 Datei(en) kopiert.
Warning: cannot find "mre200d.dep"
	cl.exe /nologo /MLd /W3 /Gm /GX /Zi /Od /I "..\include" /D RE_LOCALE_W32 /D "WIN32" /D "_DEBUG" /D "_MBCS" /D "_LIB" /Fp".\mre200d.pch" /YX /Fo".\\" /Fd".\mre200d" /FD /GZ  /c ..\src\regfac.cpp
regfac.cpp
	cl.exe /nologo /MLd /W3 /Gm /GX /Zi /Od /I "..\include" /D RE_LOCALE_W32 /D "WIN32" /D "_DEBUG" /D "_MBCS" /D "_LIB" /Fp".\mre200d.pch" /YX /Fo".\\" /Fd".\mre200d" /FD /GZ  /c ..\src\re_coll.cpp
re_coll.cpp
	cl.exe /nologo /MLd /W3 /Gm /GX /Zi /Od /I "..\include" /D RE_LOCALE_W32 /D "WIN32" /D "_DEBUG" /D "_MBCS" /D "_LIB" /Fp".\mre200d.pch" /YX /Fo".\\" /Fd".\mre200d" /FD /GZ  /c ..\src\re_mss.cpp
re_mss.cpp
	cl.exe /nologo /MLd /W3 /Gm /GX /Zi /Od /I "..\include" /D RE_LOCALE_W32 /D "WIN32" /D "_DEBUG" /D "_MBCS" /D "_LIB" /Fp".\mre200d.pch" /YX /Fo".\\" /Fd".\mre200d" /FD /GZ  /c ..\src\re_nls.cpp
re_nls.cpp
	cl.exe /nologo /MLd /W3 /Gm /GX /Zi /Od /I "..\include" /D RE_LOCALE_W32 /D "WIN32" /D "_DEBUG" /D "_MBCS" /D "_LIB" /Fp".\mre200d.pch" /YX /Fo".\\" /Fd".\mre200d" /FD /GZ  /c ..\src\re_nlsw.cpp
re_nlsw.cpp
	cl.exe /nologo /MLd /W3 /Gm /GX /Zi /Od /I "..\include" /D RE_LOCALE_W32 /D "WIN32" /D "_DEBUG" /D "_MBCS" /D "_LIB" /Fp".\mre200d.pch" /YX /Fo".\\" /Fd".\mre200d" /FD /GZ  /c ..\src\re_psx.cpp
re_psx.cpp
	cl.exe /nologo /MLd /W3 /Gm /GX /Zi /Od /I "..\include" /D RE_LOCALE_W32 /D "WIN32" /D "_DEBUG" /D "_MBCS" /D "_LIB" /Fp".\mre200d.pch" /YX /Fo".\\" /Fd".\mre200d" /FD /GZ  /c ..\src\re_psxw.cpp
re_psxw.cpp
	cl.exe /nologo /MLd /W3 /Gm /GX /Zi /Od /I "..\include" /D RE_LOCALE_W32 /D "WIN32" /D "_DEBUG" /D "_MBCS" /D "_LIB" /Fp".\mre200d.pch" /YX /Fo".\\" /Fd".\mre200d" /FD /GZ  /c ..\src\re_strw.cpp
re_strw.cpp
	cl.exe /nologo /MLd /W3 /Gm /GX /Zi /Od /I "..\include" /D RE_LOCALE_W32 /D "WIN32" /D "_DEBUG" /D "_MBCS" /D "_LIB" /Fp".\mre200d.pch" /YX /Fo".\\" /Fd".\mre200d" /FD /GZ  /c ..\src\re_thrd.cpp
re_thrd.cpp
	cl.exe /nologo /MLd /W3 /Gm /GX /Zi /Od /I "..\include" /D RE_LOCALE_W32 /D "WIN32" /D "_DEBUG" /D "_MBCS" /D "_LIB" /Fp".\mre200d.pch" /YX /Fo".\\" /Fd".\mre200d" /FD /GZ  /c ..\src\regex.cpp
regex.cpp
	cl.exe /nologo /MLd /W3 /Gm /GX /Zi /Od /I "..\include" /D RE_LOCALE_W32 /D "WIN32" /D "_DEBUG" /D "_MBCS" /D "_LIB" /Fp".\mre200d.pch" /YX /Fo".\\" /Fd".\mre200d" /FD /GZ  /c ..\src\fileiter.cpp
fileiter.cpp
	cl.exe /nologo /MLd /W3 /Gm /GX /Zi /Od /I "..\include" /D RE_LOCALE_W32 /D "WIN32" /D "_DEBUG" /D "_MBCS" /D "_LIB" /Fp".\mre200d.pch" /YX /Fo".\\" /Fd".\mre200d" /FD /GZ  /c ..\src\cregex.cpp
cregex.cpp
	cl.exe /nologo /MLd /W3 /Gm /GX /Zi /Od /I "..\include" /D RE_LOCALE_W32 /D "WIN32" /D "_DEBUG" /D "_MBCS" /D "_LIB" /Fp".\mre200d.pch" /YX /Fo".\\" /Fd".\mre200d" /FD /GZ  /c ..\src\re_cls.cpp
re_cls.cpp
	link.exe -lib @C:\TEMP\nma00209.
	copy "mre200d.lib" "C:\PROGRA~1\MICROS~2\VC98\lib\mre200d.lib"
        1 Datei(en) kopiert.
	copy "mre200d.pdb" "C:\PROGRA~1\MICROS~2\VC98\lib\mre200d.pdb"
        1 Datei(en) kopiert.
Warning: cannot find "mre200dm.dep"
	cl.exe /nologo /MTd /W3 /Gm /GX /Zi /Od /I "..\include" /D RE_LOCALE_W32 /D "WIN32" /D "_MT" /D "_DEBUG" /D "_MBCS" /D "_LIB" /Fp".\mre200dm.pch" /YX /Fo".\\" /Fd".\mre200dm" /FD /GZ  /c ..\src\regfac.cpp
regfac.cpp
	cl.exe /nologo /MTd /W3 /Gm /GX /Zi /Od /I "..\include" /D RE_LOCALE_W32 /D "WIN32" /D "_MT" /D "_DEBUG" /D "_MBCS" /D "_LIB" /Fp".\mre200dm.pch" /YX /Fo".\\" /Fd".\mre200dm" /FD /GZ  /c ..\src\re_coll.cpp
re_coll.cpp
	cl.exe /nologo /MTd /W3 /Gm /GX /Zi /Od /I "..\include" /D RE_LOCALE_W32 /D "WIN32" /D "_MT" /D "_DEBUG" /D "_MBCS" /D "_LIB" /Fp".\mre200dm.pch" /YX /Fo".\\" /Fd".\mre200dm" /FD /GZ  /c ..\src\re_mss.cpp
re_mss.cpp
	cl.exe /nologo /MTd /W3 /Gm /GX /Zi /Od /I "..\include" /D RE_LOCALE_W32 /D "WIN32" /D "_MT" /D "_DEBUG" /D "_MBCS" /D "_LIB" /Fp".\mre200dm.pch" /YX /Fo".\\" /Fd".\mre200dm" /FD /GZ  /c ..\src\re_nls.cpp
re_nls.cpp
	cl.exe /nologo /MTd /W3 /Gm /GX /Zi /Od /I "..\include" /D RE_LOCALE_W32 /D "WIN32" /D "_MT" /D "_DEBUG" /D "_MBCS" /D "_LIB" /Fp".\mre200dm.pch" /YX /Fo".\\" /Fd".\mre200dm" /FD /GZ  /c ..\src\re_nlsw.cpp
re_nlsw.cpp
	cl.exe /nologo /MTd /W3 /Gm /GX /Zi /Od /I "..\include" /D RE_LOCALE_W32 /D "WIN32" /D "_MT" /D "_DEBUG" /D "_MBCS" /D "_LIB" /Fp".\mre200dm.pch" /YX /Fo".\\" /Fd".\mre200dm" /FD /GZ  /c ..\src\re_psx.cpp
re_psx.cpp
	cl.exe /nologo /MTd /W3 /Gm /GX /Zi /Od /I "..\include" /D RE_LOCALE_W32 /D "WIN32" /D "_MT" /D "_DEBUG" /D "_MBCS" /D "_LIB" /Fp".\mre200dm.pch" /YX /Fo".\\" /Fd".\mre200dm" /FD /GZ  /c ..\src\re_psxw.cpp
re_psxw.cpp
	cl.exe /nologo /MTd /W3 /Gm /GX /Zi /Od /I "..\include" /D RE_LOCALE_W32 /D "WIN32" /D "_MT" /D "_DEBUG" /D "_MBCS" /D "_LIB" /Fp".\mre200dm.pch" /YX /Fo".\\" /Fd".\mre200dm" /FD /GZ  /c ..\src\re_strw.cpp
re_strw.cpp
	cl.exe /nologo /MTd /W3 /Gm /GX /Zi /Od /I "..\include" /D RE_LOCALE_W32 /D "WIN32" /D "_MT" /D "_DEBUG" /D "_MBCS" /D "_LIB" /Fp".\mre200dm.pch" /YX /Fo".\\" /Fd".\mre200dm" /FD /GZ  /c ..\src\re_thrd.cpp
re_thrd.cpp
	cl.exe /nologo /MTd /W3 /Gm /GX /Zi /Od /I "..\include" /D RE_LOCALE_W32 /D "WIN32" /D "_MT" /D "_DEBUG" /D "_MBCS" /D "_LIB" /Fp".\mre200dm.pch" /YX /Fo".\\" /Fd".\mre200dm" /FD /GZ  /c ..\src\regex.cpp
regex.cpp
	cl.exe /nologo /MTd /W3 /Gm /GX /Zi /Od /I "..\include" /D RE_LOCALE_W32 /D "WIN32" /D "_MT" /D "_DEBUG" /D "_MBCS" /D "_LIB" /Fp".\mre200dm.pch" /YX /Fo".\\" /Fd".\mre200dm" /FD /GZ  /c ..\src\fileiter.cpp
fileiter.cpp
	cl.exe /nologo /MTd /W3 /Gm /GX /Zi /Od /I "..\include" /D RE_LOCALE_W32 /D "WIN32" /D "_MT" /D "_DEBUG" /D "_MBCS" /D "_LIB" /Fp".\mre200dm.pch" /YX /Fo".\\" /Fd".\mre200dm" /FD /GZ  /c ..\src\cregex.cpp
cregex.cpp
	cl.exe /nologo /MTd /W3 /Gm /GX /Zi /Od /I "..\include" /D RE_LOCALE_W32 /D "WIN32" /D "_MT" /D "_DEBUG" /D "_MBCS" /D "_LIB" /Fp".\mre200dm.pch" /YX /Fo".\\" /Fd".\mre200dm" /FD /GZ  /c ..\src\re_cls.cpp
re_cls.cpp
	link.exe -lib @C:\TEMP\nma00213.
	copy "mre200dm.lib" "C:\PROGRA~1\MICROS~2\VC98\lib\mre200dm.lib"
        1 Datei(en) kopiert.
	copy "mre200dm.pdb" "C:\PROGRA~1\MICROS~2\VC98\lib\mre200dm.pdb"
        1 Datei(en) kopiert.
Warning: cannot find "mre200dl.dep"
	cl.exe /nologo /MDd /W3 /Gm /GX /Zi /Od /I "..\include" /D RE_LOCALE_W32 /D "_DEBUG" /D "WIN32" /D "_WINDOWS" /D "_MBCS" /D "_USRDLL" /D "RE_DLL_EXPORTS" /D "RE_BUILD_DLL" /Fp".\mre200dl.pch" /YX /Fd".\mre200dl" /FD /GZ  /c ..\src\regfac.cpp
regfac.cpp
	cl.exe /nologo /MDd /W3 /Gm /GX /Zi /Od /I "..\include" /D RE_LOCALE_W32 /D "_DEBUG" /D "WIN32" /D "_WINDOWS" /D "_MBCS" /D "_USRDLL" /D "RE_DLL_EXPORTS" /D "RE_BUILD_DLL" /Fp".\mre200dl.pch" /YX /Fd".\mre200dl" /FD /GZ  /c ..\src\re_coll.cpp
re_coll.cpp
	cl.exe /nologo /MDd /W3 /Gm /GX /Zi /Od /I "..\include" /D RE_LOCALE_W32 /D "_DEBUG" /D "WIN32" /D "_WINDOWS" /D "_MBCS" /D "_USRDLL" /D "RE_DLL_EXPORTS" /D "RE_BUILD_DLL" /Fp".\mre200dl.pch" /YX /Fd".\mre200dl" /FD /GZ  /c ..\src\re_mss.cpp
re_mss.cpp
	cl.exe /nologo /MDd /W3 /Gm /GX /Zi /Od /I "..\include" /D RE_LOCALE_W32 /D "_DEBUG" /D "WIN32" /D "_WINDOWS" /D "_MBCS" /D "_USRDLL" /D "RE_DLL_EXPORTS" /D "RE_BUILD_DLL" /Fp".\mre200dl.pch" /YX /Fd".\mre200dl" /FD /GZ  /c ..\src\re_nls.cpp
re_nls.cpp
	cl.exe /nologo /MDd /W3 /Gm /GX /Zi /Od /I "..\include" /D RE_LOCALE_W32 /D "_DEBUG" /D "WIN32" /D "_WINDOWS" /D "_MBCS" /D "_USRDLL" /D "RE_DLL_EXPORTS" /D "RE_BUILD_DLL" /Fp".\mre200dl.pch" /YX /Fd".\mre200dl" /FD /GZ  /c ..\src\re_nlsw.cpp
re_nlsw.cpp
	cl.exe /nologo /MDd /W3 /Gm /GX /Zi /Od /I "..\include" /D RE_LOCALE_W32 /D "_DEBUG" /D "WIN32" /D "_WINDOWS" /D "_MBCS" /D "_USRDLL" /D "RE_DLL_EXPORTS" /D "RE_BUILD_DLL" /Fp".\mre200dl.pch" /YX /Fd".\mre200dl" /FD /GZ  /c ..\src\re_psx.cpp
re_psx.cpp
	cl.exe /nologo /MDd /W3 /Gm /GX /Zi /Od /I "..\include" /D RE_LOCALE_W32 /D "_DEBUG" /D "WIN32" /D "_WINDOWS" /D "_MBCS" /D "_USRDLL" /D "RE_DLL_EXPORTS" /D "RE_BUILD_DLL" /Fp".\mre200dl.pch" /YX /Fd".\mre200dl" /FD /GZ  /c ..\src\re_psxw.cpp
re_psxw.cpp
	cl.exe /nologo /MDd /W3 /Gm /GX /Zi /Od /I "..\include" /D RE_LOCALE_W32 /D "_DEBUG" /D "WIN32" /D "_WINDOWS" /D "_MBCS" /D "_USRDLL" /D "RE_DLL_EXPORTS" /D "RE_BUILD_DLL" /Fp".\mre200dl.pch" /YX /Fd".\mre200dl" /FD /GZ  /c ..\src\re_strw.cpp
re_strw.cpp
	cl.exe /nologo /MDd /W3 /Gm /GX /Zi /Od /I "..\include" /D RE_LOCALE_W32 /D "_DEBUG" /D "WIN32" /D "_WINDOWS" /D "_MBCS" /D "_USRDLL" /D "RE_DLL_EXPORTS" /D "RE_BUILD_DLL" /Fp".\mre200dl.pch" /YX /Fd".\mre200dl" /FD /GZ  /c ..\src\re_thrd.cpp
re_thrd.cpp
	cl.exe /nologo /MDd /W3 /Gm /GX /Zi /Od /I "..\include" /D RE_LOCALE_W32 /D "_DEBUG" /D "WIN32" /D "_WINDOWS" /D "_MBCS" /D "_USRDLL" /D "RE_DLL_EXPORTS" /D "RE_BUILD_DLL" /Fp".\mre200dl.pch" /YX /Fd".\mre200dl" /FD /GZ  /c ..\src\regex.cpp
regex.cpp
	cl.exe /nologo /MDd /W3 /Gm /GX /Zi /Od /I "..\include" /D RE_LOCALE_W32 /D "_DEBUG" /D "WIN32" /D "_WINDOWS" /D "_MBCS" /D "_USRDLL" /D "RE_DLL_EXPORTS" /D "RE_BUILD_DLL" /Fp".\mre200dl.pch" /YX /Fd".\mre200dl" /FD /GZ  /c ..\src\fileiter.cpp
fileiter.cpp
	cl.exe /nologo /MDd /W3 /Gm /GX /Zi /Od /I "..\include" /D RE_LOCALE_W32 /D "_DEBUG" /D "WIN32" /D "_WINDOWS" /D "_MBCS" /D "_USRDLL" /D "RE_DLL_EXPORTS" /D "RE_BUILD_DLL" /Fp".\mre200dl.pch" /YX /Fd".\mre200dl" /FD /GZ  /c ..\src\cregex.cpp
cregex.cpp
	cl.exe /nologo /MDd /W3 /Gm /GX /Zi /Od /I "..\include" /D RE_LOCALE_W32 /D "_DEBUG" /D "WIN32" /D "_WINDOWS" /D "_MBCS" /D "_USRDLL" /D "RE_DLL_EXPORTS" /D "RE_BUILD_DLL" /Fp".\mre200dl.pch" /YX /Fd".\mre200dl" /FD /GZ  /c ..\src\re_cls.cpp
re_cls.cpp
	link.exe @C:\TEMP\nma00221.
   Creating library .\mre200dl.lib and object .\mre200dl.exp
	copy "mre200dl.dll" "C:\PROGRA~1\MICROS~2\VC98\bin\mre200dl.dll"
        1 Datei(en) kopiert.
	copy "mre200dl.lib" "C:\PROGRA~1\MICROS~2\VC98\lib\mre200dl.lib"
        1 Datei(en) kopiert.
	copy "mre200dl.pdb" "C:\PROGRA~1\MICROS~2\VC98\lib\mre200dl.pdb"
        1 Datei(en) kopiert.
Warning: cannot find "mre200l.dep"
	cl.exe /nologo /MD /W3 /GX /O2 /I "../include" /D RE_LOCALE_W32 /D "NDEBUG" /D "WIN32" /D "_WINDOWS" /D "_MBCS" /D "_USRDLL" /D "RE_DLL_EXPORTS" /D "RE_BUILD_DLL" /Fp".\mre200l.pch" /YX  /Fd".\mre200l" /FD /c ..\src\regfac.cpp
regfac.cpp
	cl.exe /nologo /MD /W3 /GX /O2 /I "../include" /D RE_LOCALE_W32 /D "NDEBUG" /D "WIN32" /D "_WINDOWS" /D "_MBCS" /D "_USRDLL" /D "RE_DLL_EXPORTS" /D "RE_BUILD_DLL" /Fp".\mre200l.pch" /YX  /Fd".\mre200l" /FD /c ..\src\re_coll.cpp
re_coll.cpp
	cl.exe /nologo /MD /W3 /GX /O2 /I "../include" /D RE_LOCALE_W32 /D "NDEBUG" /D "WIN32" /D "_WINDOWS" /D "_MBCS" /D "_USRDLL" /D "RE_DLL_EXPORTS" /D "RE_BUILD_DLL" /Fp".\mre200l.pch" /YX  /Fd".\mre200l" /FD /c ..\src\re_mss.cpp
re_mss.cpp
	cl.exe /nologo /MD /W3 /GX /O2 /I "../include" /D RE_LOCALE_W32 /D "NDEBUG" /D "WIN32" /D "_WINDOWS" /D "_MBCS" /D "_USRDLL" /D "RE_DLL_EXPORTS" /D "RE_BUILD_DLL" /Fp".\mre200l.pch" /YX  /Fd".\mre200l" /FD /c ..\src\re_nls.cpp
re_nls.cpp
	cl.exe /nologo /MD /W3 /GX /O2 /I "../include" /D RE_LOCALE_W32 /D "NDEBUG" /D "WIN32" /D "_WINDOWS" /D "_MBCS" /D "_USRDLL" /D "RE_DLL_EXPORTS" /D "RE_BUILD_DLL" /Fp".\mre200l.pch" /YX  /Fd".\mre200l" /FD /c ..\src\re_nlsw.cpp
re_nlsw.cpp
	cl.exe /nologo /MD /W3 /GX /O2 /I "../include" /D RE_LOCALE_W32 /D "NDEBUG" /D "WIN32" /D "_WINDOWS" /D "_MBCS" /D "_USRDLL" /D "RE_DLL_EXPORTS" /D "RE_BUILD_DLL" /Fp".\mre200l.pch" /YX  /Fd".\mre200l" /FD /c ..\src\re_psx.cpp
re_psx.cpp
	cl.exe /nologo /MD /W3 /GX /O2 /I "../include" /D RE_LOCALE_W32 /D "NDEBUG" /D "WIN32" /D "_WINDOWS" /D "_MBCS" /D "_USRDLL" /D "RE_DLL_EXPORTS" /D "RE_BUILD_DLL" /Fp".\mre200l.pch" /YX  /Fd".\mre200l" /FD /c ..\src\re_psxw.cpp
re_psxw.cpp
	cl.exe /nologo /MD /W3 /GX /O2 /I "../include" /D RE_LOCALE_W32 /D "NDEBUG" /D "WIN32" /D "_WINDOWS" /D "_MBCS" /D "_USRDLL" /D "RE_DLL_EXPORTS" /D "RE_BUILD_DLL" /Fp".\mre200l.pch" /YX  /Fd".\mre200l" /FD /c ..\src\re_strw.cpp
re_strw.cpp
	cl.exe /nologo /MD /W3 /GX /O2 /I "../include" /D RE_LOCALE_W32 /D "NDEBUG" /D "WIN32" /D "_WINDOWS" /D "_MBCS" /D "_USRDLL" /D "RE_DLL_EXPORTS" /D "RE_BUILD_DLL" /Fp".\mre200l.pch" /YX  /Fd".\mre200l" /FD /c ..\src\re_thrd.cpp
re_thrd.cpp
	cl.exe /nologo /MD /W3 /GX /O2 /I "../include" /D RE_LOCALE_W32 /D "NDEBUG" /D "WIN32" /D "_WINDOWS" /D "_MBCS" /D "_USRDLL" /D "RE_DLL_EXPORTS" /D "RE_BUILD_DLL" /Fp".\mre200l.pch" /YX  /Fd".\mre200l" /FD /c ..\src\regex.cpp
regex.cpp
	cl.exe /nologo /MD /W3 /GX /O2 /I "../include" /D RE_LOCALE_W32 /D "NDEBUG" /D "WIN32" /D "_WINDOWS" /D "_MBCS" /D "_USRDLL" /D "RE_DLL_EXPORTS" /D "RE_BUILD_DLL" /Fp".\mre200l.pch" /YX  /Fd".\mre200l" /FD /c ..\src\fileiter.cpp
fileiter.cpp
	cl.exe /nologo /MD /W3 /GX /O2 /I "../include" /D RE_LOCALE_W32 /D "NDEBUG" /D "WIN32" /D "_WINDOWS" /D "_MBCS" /D "_USRDLL" /D "RE_DLL_EXPORTS" /D "RE_BUILD_DLL" /Fp".\mre200l.pch" /YX  /Fd".\mre200l" /FD /c ..\src\cregex.cpp
cregex.cpp
	cl.exe /nologo /MD /W3 /GX /O2 /I "../include" /D RE_LOCALE_W32 /D "NDEBUG" /D "WIN32" /D "_WINDOWS" /D "_MBCS" /D "_USRDLL" /D "RE_DLL_EXPORTS" /D "RE_BUILD_DLL" /Fp".\mre200l.pch" /YX  /Fd".\mre200l" /FD /c ..\src\re_cls.cpp
re_cls.cpp
	link.exe @C:\TEMP\nma00163.
   Creating library .\mre200l.lib and object .\mre200l.exp
	copy "mre200l.dll" "C:\PROGRA~1\MICROS~2\VC98\bin\mre200l.dll"
        1 Datei(en) kopiert.
	copy "mre200l.lib" "C:\PROGRA~1\MICROS~2\VC98\lib\mre200l.lib"
        1 Datei(en) kopiert.
