* THIS IS THE HOT-STANBY CONFIGURATION FILE
* THIS FILE HAS TO BE CHANGED VERY CAREFULLY
* THIS FILE HAS TO BE NAMED HSB.DAT
* 
* to get the correct hostnames use "uname -n"
* NEVER use "uname -s" to change hostname  -- ALWAYS use "sysadm" !!!
*

* RHOST means hostname of the remote machine
* LHOST means hostname of this machine
[main]
STATUS = STANDALONE
LHOST  = UFIS-LH
RHOST  = UFIS-LH
LHOST2 = UFIS-LH
RHOST2 = UFIS-LH
UPDATE = 10
OS = SOLARIS
PRODUCT = UFIS
START = /ceda/etc/UfisStart
STOP = /ceda/etc/UfisStop
SWITCH = /ceda/etc/hsb_pre_active
PAUSE = 1
USENET2 = 0
[main_end]

[atshdl]
QUEUES = 1100,6100
TIMEOUT = 30
[atshdl_end]

[dbtcl]
DEBUG = 1
TIMEOUT = 1200
EXPSCR = /ceda/etc/UfisDbtExp
IMPSCR = /ceda/etc/UfisDbtImp
FILES = 0
TABLES = 109
TABLE1 = ACCTAB
TABLE2 = ACRTAB
TABLE3 = ACTTAB
TABLE4 = AFMTAB
TABLE5 = AFTTAB
TABLE6 = ALTTAB
TABLE7 = APTTAB
TABLE8 = ARCTAB
TABLE9 = ASFTAB
TABLE10 = AWITAB
TABLE11 = BLKTAB
TABLE12 = BLMTAB
TABLE13 = BLTTAB
TABLE14 = BSDTAB
TABLE15 = BUTTAB
TABLE16 = CALTAB
TABLE17 = CCATAB
TABLE18 = CCCTAB
TABLE19 = CFLTAB
TABLE20 = CHTTAB
TABLE21 = CICTAB
TABLE22 = COTTAB
TABLE23 = DBOTAB
TABLE24 = DENTAB
TABLE25 = DEVTAB
TABLE26 = DGRTAB
TABLE27 = DSPTAB
TABLE28 = DSRTAB
TABLE29 = ENTTAB
TABLE30 = EQUTAB
TABLE31 = ESPTAB
TABLE32 = EXTTAB
TABLE33 = FIDTAB
TABLE34 = FKTTAB
TABLE35 = GATTAB
TABLE36 = GEGTAB
TABLE37 = GHDTAB
TABLE38 = GHPTAB
TABLE39 = GHSTAB
TABLE40 = GPLTAB
TABLE41 = GPMTAB
TABLE42 = GRMTAB
TABLE43 = GRNTAB
TABLE44 = GRPTAB
TABLE45 = GSPTAB
TABLE46 = HAGTAB
TABLE47 = HAITAB
TABLE48 = HOLTAB
TABLE49 = HTYTAB
TABLE50 = INFTAB
TABLE51 = L00TAB
TABLE52 = L01TAB
TABLE53 = L02TAB
TABLE54 = L03TAB
TABLE55 = LOGTAB
TABLE56 = MSGTAB
TABLE57 = MVTTAB
TABLE58 = NATTAB
TABLE59 = NFMTAB
TABLE60 = NFPTAB
TABLE61 = NUMTAB
TABLE62 = ODATAB
TABLE63 = OPTTAB
TABLE64 = ORGTAB
TABLE65 = PAGTAB
TABLE66 = PERTAB
TABLE67 = PFCTAB
TABLE68 = PGPTAB
TABLE69 = PGRTAB
TABLE70 = PICTAB
TABLE71 = PRCTAB
TABLE72 = PRVTAB
TABLE73 = PSGTAB
TABLE74 = PSTTAB
TABLE75 = ROSTAB
TABLE76 = RWYTAB
TABLE77 = SCOTAB
TABLE78 = SDGTAB
TABLE79 = SDTTAB
TABLE80 = SEATAB
TABLE81 = SECTAB
TABLE82 = SETTAB
TABLE83 = SLGTAB
TABLE84 = SORTAB
TABLE85 = SPETAB
TABLE86 = SPFTAB
TABLE87 = SPHTAB
TABLE88 = SPLTAB
TABLE89 = SSITAB
TABLE90 = STETAB
TABLE91 = STFTAB
TABLE92 = STRTAB
TABLE93 = STYTAB
TABLE94 = SWGTAB
TABLE95 = SYNTAB
TABLE96 = SYSTAB
TABLE97 = TABTAB
TABLE98 = TEATAB
TABLE99 = TIPTAB
TABLE100 = TLXTAB
TABLE101 = TRMTAB
TABLE102 = TWYTAB
TABLE103 = UDVTAB
TABLE104 = VCDTAB
TABLE105 = VERTAB
TABLE106 = VIPTAB
TABLE107 = WAYTAB
TABLE108 = WGPTAB
TABLE109 = WROTAB
[dbtcl_end]

[netif]   
SERVICE = UFIS_NETIF
[netif_end]

[watch]
SERVICE = UFIS_WATCH
ERRMODE = MASTER
[watch_end]
