SGS 1572864 512 2000 500
/* SGS 98304 512 600 500
/*    |    |   |   |--- STATUS TABLE SIZE
/*    |    |   |--------MAX OCURRENCE OF A LABEL
/*    |    |------------RECORD SIZE
/*    |-----------------SYSTEM MEMORY SIZE


MTABNUM 40              /* MAX TABLE NO (CURRENT)
MTABNUM 76              /* MAX TABLE NO (ABSOLUTE)

/*****************************************************************************
/* Versionseintrag:
/* SCCS: @(#)  sgs.tab 1.134 / 97/07/07 13:54:50 
/*****************************************************************************
/*	SYSTEM PARAMETER CONFIGURATION FILE
/*****************************************************************************

SPTABNR   1             /* TABLE NO
SPTABSZ 992             /* TABLE SIZE

/*  FSMEM RT1SZ,RT2SZ,RT1P,MEMSZ
/*          |     |    |     |
/*          |     |    |     --- FS MEMORY SIZE IN BYTES
/*          |     |    --------- PERCENTAGE OF RT1 AREA
/*          |     -------------- RT2 RECORD SIZE
/*          -------------------- RT1 RECORD SIZE

FSMEM 30,100,40,20000

/*	PRTDEV PMSG,SMSG,SW
/*		|    |   |------ 0 = DISPLAY ON BOTH DEVICES
/*		|    |           1 = DISPLAY ON PRIMARY DEVICE ONLY
/*              |    |---------- SECONDARY DEVICE FOR SYSTEM MESSAGES
/*              |--------------- PRIMARY DEVICE FOR SYSTEM MESSAGES
/* PRTDEV /dev/null,/dev/null,0

PRTDEV /ceda/conf/ceda.log,/dev/null,0

/*	INCLUDE COMP1
/*                |----SYSTEM COMPONENT 

/* INCLUDE ICC         /* HOT-STANDBY CONFIGURATION
/* INCLUDE LOG1           /* LOGGING (ACTUAL FLIGHTS)
/* INCLUDE ILOG           /* INPUT LOGGING


/******************************************
/*	T E R M I N A L  T A B L E
/******************************************

TETABNR    3
TETABRSZ 432

/*  TETAB NAME,I,FULLNAME
/*	   |   |    |--------------- FULL DEVICE NAME
/*         |   |-------------------- 1 = SUPERVISOR TERMINAL
/*	   |		             0 = NO SUPERVISOR TERMINAL
/*	   |------------------------ DEVICE ID

TETAB "TTYP0 ",0,"DISPLAY11"

/******************************************
/*  R O U T E  T A B L E
/******************************************

ROTABNR   5                     /* TABLE NO.
ROTABRSZ 32                     /* RECORD SIZE

/*  ROTAB ROUTEID,QUEUE1,...,QUEUE16
/*	     |      |           |
/*	     |      |------------------- QUEUE NUMBERS
/*	     |-------------------------- ROUTE ID

ROTAB 506,7150,7160,7170,7180,0,0,0,0,0,0,0,0,0,0,0,0  /* Loadsharing sqlhdl
ROTAB 509,7810,7820,7830,7840,0,0,0,0,0,0,0,0,0,0,0,0  /* Loadsharing fligro
ROTAB 515,7860,7870,7880,7890,0,0,0,0,0,0,0,0,0,0,0,0  /* Loadsharing fligrs
/* ROTAB 5,1100,0,0,0,0,0,0,0,0,0,0,0,0,0,0,0  /* progress msg to msghdl+eroute
ROTAB 1101,1900,0,0,0,0,0,0,0,0,0,0,0,0,0,0,0  /* msghdl to bchdl
ROTAB 1801,1200,0,0,0,0,0,0,0,0,0,0,0,0,0,0,0  /* netin to router
ROTAB 1802,1900,0,0,0,0,0,0,0,0,0,0,0,0,0,0,0  /* netin to bchdl
/*ROTAB 3101,7800,0,0,0,0,0,0,0,0,0,0,0,0,0,0,0 /* ctxhdl to flthdl
/*ROTAB 3102,7800,0,0,0,0,0,0,0,0,0,0,0,0,0,0,0 /* ctxhdl to seahdl
/*ROTAB 3103,1900,0,0,0,0,0,0,0,0,0,0,0,0,0,0,0 /* ctxhdl to bchdl
/*ROTAB 3104,3500,0,0,0,0,0,0,0,0,0,0,0,0,0,0,0 /* ctxhdl to mvtgen
ROTAB 7151,1900,7400,0,0,0,0,0,0,0,0,0,0,0,0,0,0 /* sqlhdl1 to bchdl,action
ROTAB 7161,1900,7400,0,0,0,0,0,0,0,0,0,0,0,0,0,0 /* sqlhdl1 to bchdl,action
ROTAB 7171,1900,7400,0,0,0,0,0,0,0,0,0,0,0,0,0,0 /* sqlhdl1 to bchdl,action
ROTAB 7181,1900,7400,0,0,0,0,0,0,0,0,0,0,0,0,0,0 /* sqlhdl1 to bchdl,action
ROTAB 7801,1900,0,0,0,0,0,0,0,0,0,0,0,0,0,0,0 /* flight to bchdl
/*ROTAB 19001,1300,0,0,0,0,0,0,0,0,0,0,0,0,0,0,0 /* Timsch Interface to timsch
/*ROTAB 15432,6100,0,0,0,0,0,0,0,0,0,0,0,0,0,0,0 /* Hsb! DB_data to netif
ROTAB 9151,1900,7400,0,0,0,0,0,0,0,0,0,0,0,0,0,0 /* sqlhdl to bchdl,action
ROTAB 9161,1900,7400,0,0,0,0,0,0,0,0,0,0,0,0,0,0 /* sqlhdl to bchdl,action
ROTAB 9171,1900,7400,0,0,0,0,0,0,0,0,0,0,0,0,0,0 /* sqlhdl to bchdl,action
ROTAB 16384,1100,0,0,0,0,0,0,0,0,0,0,0,0,0,0,0 /* Message Route to msghdl

/******************************************
/*	P R O C E S S  N A M E  T A B L E
/******************************************

PNTABNR  10			/* TABLE NO.
PNTABRSZ 28			/* RECORD SIZE

/*  PNTAB  PRCNAM,QUEUEID
/*            |      |--------- QUEUE NUMBER
/*            |---------------- PROCESS NAME

PNTAB sysqcp,1,0,0,0,0,0,0
PNTAB nmghdl,1100,0,0,0,0,0,0
PNTAB router,1200,0,0,0,0,0,0
PNTAB netin,1800,0,0,0,0,0,0
PNTAB bchdl,1900,0,0,0,0,0,0
PNTAB cdrhdl,1910,0,0,0,0,0,0
PNTAB authdl,2600,0,0,0,0,0,0
PNTAB relhdl,5400,0,0,0,0,0,0 

PNTAB ceisnd,6110,0,0,0,0,0,0
PNTAB ceircv,6120,0,0,0,0,0,0
PNTAB ceiout,6130,0,0,0,0,0,0

PNTAB sqlhdl1,7150,0,0,0,0,0,0 
PNTAB sqlhdl2,7160,0,0,0,0,0,0
PNTAB sqlhdl3,7170,0,0,0,0,0,0
PNTAB sqlhdl4,7180,0,0,0,0,0,0
PNTAB fileif,7300,0,0,0,0,0,0
PNTAB fileif2,7310,0,0,0,0,0,0
PNTAB action,7400,0,0,0,0,0,0

/* CUTE IF RELATED PROCESSES
/*PNTAB cdi2_1,7500,0,0,0,0,0,0
/*PNTAB cdi2_2,7510,0,0,0,0,0,0
/*PNTAB cdi2_3,7520,0,0,0,0,0,0
/* CUTE IF

PNTAB basif,7600,0,0,0,0,0,0
PNTAB loghdl,7700,0,0,0,0,0,0
PNTAB ssiuhd,7760,0,0,0,0,0,0
PNTAB ssiehd,7765,0,0,0,0,0,0
PNTAB fogdhd,7770,0,0,0,0,0,0
PNTAB fogshd,7775,0,0,0,0,0,0
PNTAB roghdl,7780,0,0,0,0,0,0
PNTAB flight,7800,0,0,0,0,0,0
PNTAB flisea,7805,0,0,0,0,0,0
PNTAB fligro1,7810,0,0,0,0,0,0
PNTAB fligro2,7820,0,0,0,0,0,0
PNTAB fligro3,7830,0,0,0,0,0,0
PNTAB fligro4,7840,0,0,0,0,0,0
PNTAB fligrs1,7860,0,0,0,0,0,0
PNTAB fligrs2,7870,0,0,0,0,0,0
PNTAB fligrs3,7880,0,0,0,0,0,0
PNTAB fligrs4,7890,0,0,0,0,0,0
PNTAB stxhdl,7900,0,0,0,0,0,0
PNTAB nflhdl,7950,0,0,0,0,0,0
PNTAB htmhdl,8100,0,0,0,0,0,0
/* PNTAB dspsrv,8300,0,0,0,0,0,0
PNTAB midhdl,8320,0,0,0,0,0,0
PNTAB remhdl,8350,0,0,0,0,0,0
PNTAB dsphdl01,8351,0,0,0,0,0,0
PNTAB dsphdl02,8352,0,0,0,0,0,0
PNTAB dsphdl03,8353,0,0,0,0,0,0
PNTAB dsphdl04,8354,0,0,0,0,0,0
PNTAB dsphdl05,8355,0,0,0,0,0,0
PNTAB dsphdl06,8356,0,0,0,0,0,0
PNTAB dsphdl07,8357,0,0,0,0,0,0
PNTAB dsphdl08,8358,0,0,0,0,0,0
PNTAB dsphdl09,8359,0,0,0,0,0,0
PNTAB dsphdl10,8360,0,0,0,0,0,0
/*PNTAB dsphdl11,8361,0,0,0,0,0,0
/*PNTAB dsphdl12,8362,0,0,0,0,0,0
/*PNTAB dsphdl13,8363,0,0,0,0,0,0
/*PNTAB dsphdl14,8364,0,0,0,0,0,0
PNTAB dsphdl15,8365,0,0,0,0,0,0
PNTAB dsphdl16,8366,0,0,0,0,0,0
PNTAB dsphdl17,8367,0,0,0,0,0,0
PNTAB fldhdl,8310,0,0,0,0,0,0

PNTAB fdihdl,8450,0,0,0,0,0,0
PNTAB bhsif,8650,0,0,0,0,0,0
PNTAB dysif,8670,0,0,0,0,0,0
PNTAB ftphdl,8750,0,0,0,0,0,0

PNTAB pdehdl,8960,0,0,0,0,0,0

PNTAB berni,9000,0,0,0,0,0,0
PNTAB impflt,9100,0,0,0,0,0,0
PNTAB outflt,9110,0,0,0,0,0,0
PNTAB impsql,9150,0,0,0,0,0,0
PNTAB outsql,9160,0,0,0,0,0,0

PNTAB tlxgen,9200,0,0,0,0,0,0 
PNTAB lcdhdl,9350,0,0,0,0,0,0 
PNTAB impmgr,9550,0,0,0,0,0,0 
PNTAB imphdl,9600,0,0,0,0,0,0 
PNTAB expmgr,9650,0,0,0,0,0,0 
PNTAB exphdl,9700,0,0,0,0,0,0 

/* ntisch should be last entry in PNTAB */
PNTAB ntisch,7850,0,0,0,0,0,0

/******************************************
/*	BROADCAST TABLE
/* 100 entries written and read by the bchdl
/* NOT NEEDED ANYMORE                       
/******************************************
BCTABNR 14
BCTABRSZ 1024

BCTAB "EmPtY BuFfEr"
BCTAB "EmPtY BuFfEr"

/* *********************************************
/* THE TIMSCH TABLE 
/* NOT NEEDED ANYMORE                       
/* *********************************************
TTTABNR 25
TTTABRSZ 16

TTTAB 00,04,00,00,0,1,1600,100

/* *********************************************/
/* THE Name Server Table		       */
/* NOT NEEDED ANYMORE                       
/* *********************************************/
NMTABNR 31
NMTABRSZ 16

NMTAB OWN_TYPE,HAJ


/* **********************************************/
/* THE EXCO Generator Process config table Table (used on CEDA)	       */
/* Process code (RSA, MVT), key, data			*/
/* **********************************************/
EXTABNR 33
EXTABRSZ 80

EXTAB SYS,HOMEAP,"ATH"

EXTAB ALL,TABTAB,"TABTAB"
EXTAB ALL,TABEND,"TAB"
EXTAB ALL,VERSION,"@(#) UFIS (c) ABB AAT/I sgs.tab 1.121 / 99/03/24 12:31:18"

EXTAB BC,PORT2,UFIS_BC2

EXTAB NET,HOST,ufislh
EXTAB NET,SECUR,N
EXTAB NET,MASK,fffff000
EXTAB NET,BCADDR,0xac1e0fff

EXTAB MON,5MIN,0
EXTAB MON,10MIN,0
EXTAB MON,20MIN,0

EXTAB MSG,LANG,DE

EXTAB CDI,CDI1,cdiif1.cfg
EXTAB CDI,CDI2,cdiif2.cfg
EXTAB CDI,CDI3,cdiif3.cfg
EXTAB CDI,CDI4,cdiif4.cfg
EXTAB CDI,CDI5,cdiif5.cfg
EXTAB CDI2,CDI2_1,cdi2_1.cfg
EXTAB CDI2,CDI2_2,cdi2_2.cfg
EXTAB CDI2,CDI2_3,cdi2_3.cfg
EXTAB FLI,CCA,000000 /* CCAHDL Communication queue.
EXTAB DIF,DIF,000000 /* DIFHDL Communication queue.


HSTABNR 34
HSTABRSZ 1024
HSTAB _STATUS_,"STANDALONE"
HSTAB QUE_HOLD,"1100,6000"
HSTAB QUE_GOFI,"1100"
HSTAB QUE_GOLA,"6000"


C3TABNR	35 
C3TABRSZ 17 

C3TAB URT,506
C3TAB RT,506
C3TAB IRT,506
C3TAB RTA,506
C3TAB RTB,506
C3TAB URF,506
C3TAB DRT,506
C3TAB DRF,506
C3TAB UCD,506
C3TAB DCD,506
C3TAB SQL,506
C3TAB WRD,506
C3TAB SNU,506 /* new Command - GSA 16-04-98 SetNextUrno */
C3TAB SYS,506 /* new SYS Command - GSA 17-07-97 08:20 */
C3TAB SA32,506 /* special commands - GSA 17-07-97 AKL Aufgaben 08:20 */
C3TAB SA23,506
C3TAB S2O3,506
C3TAB GSI,506
C3TAB SBC,1900
C3TAB RBC,1900
C3TAB RBS,1900
C3TAB GPR,2600 /* authdl Get Privs */
C3TAB SEC,2600 /* authdl General Commands */
C3TAB SSI,2600 /* authdl Security System Ini */
C3TAB SMI,2600 /* authdl Security Module Ini */
C3TAB IBT,506
C3TAB GNU,506
C3TAB GMU,506
C3TAB GMN,506 
C3TAB CPE,2600
C3TAB UBT,506
C3TAB DBT,506
C3TAB ISF,7805
C3TAB UFR,7800
C3TAB GFR,509
C3TAB GFRC,509
C3TAB GDF,7800
C3TAB SPR,7800
C3TAB DFR,7800
C3TAB CGM,7800
C3TAB DGM,7800
C3TAB JOF,7800
C3TAB EXCO,7800
C3TAB SEAS,7805
C3TAB TSCH,7800
C3TAB IDF,7800
C3TAB AFI,7800
C3TAB GFRS,515
C3TAB ART,7805
C3TAB VRM,msghdl
C3TAB SSIR,ssiehd
C3TAB FOGD,fogdhd
C3TAB FOGS,fogshd
C3TAB ROGR,roghdl
C3TAB CDR,cdrhdl
C3TAB SME,nmghdl 
C3TAB TST,fileif 
C3TAB REL,relhdl 
C3TAB NFP,bchdl 
C3TAB IAQ,bchdl 
C3TAB IAY,adshdl 
C3TAB AON,adshdl 
C3TAB AOF,adshdl 
C3TAB AOO,adshdl 
C3TAB ABA,adshdl 
C3TAB AEM,adshdl 
C3TAB AAN,action
C3TAB APB,action 
C3TAB ABE,action 
C3TAB AFR,action 
C3TAB ABR,action 
C3TAB GFL,action 
C3TAB ABW,fileif 
C3TAB LZD,fileif 
C3TAB KZD,fileif 
C3TAB RMS,rmshdl 
C3TAB SIM,simhdl 
C3TAB FDI,fdihdl 
C3TAB FDIU,fdihdl 
C3TAB FTX,fdihdl 
C3TAB ACM,tlxgen 
C3TAB TRM,tlxgen 
C3TAB PCM,tlxgen 
C3TAB TLX,tlxgen 
C3TAB IMP,impmgr 
C3TAB EXP,expmgr 


/* *********************************************/
/* THE COMMAND Table 4 for the router
/* *********************************************
C4TABNR 36
C4TABRSZ 23

C4TAB SDBXXX,URT,netin

!EOF

