CREATE TABLE CEDA_ARCH_LOG (
	SEQ_ID			NUMBER(12),
	TYPE			VARCHAR2(10),
	TABLE_NAME		VARCHAR2(32),
	WHERE_CLAUSE	VARCHAR2(512),
	ARCHIVE_TABLE	VARCHAR2(32),
	DATE_TIME_START	DATE,
	DATE_TIME_END	DATE,
	RECORDS			NUMBER(9) 
)
tablespace CEDAARCHIVE
  pctfree 10
  initrans 1
  maxtrans 255
  storage
  (
    initial 1M
    next 1M
    minextents 1
    maxextents unlimited
    pctincrease 0
  );
COMMENT ON COLUMN CEDA_ARCH_LOG.SEQ_ID
IS 'SequenceID';
COMMENT ON COLUMN CEDA_ARCH_LOG.TYPE
IS 'ARCHIVE or DELETE';
COMMENT ON COLUMN CEDA_ARCH_LOG.TABLE_NAME
IS 'Source table';
COMMENT ON COLUMN CEDA_ARCH_LOG.WHERE_CLAUSE
IS 'Condition';
COMMENT ON COLUMN CEDA_ARCH_LOG.ARCHIVE_TABLE
IS 'Destination table should start with ARCH_xxx for TYPE=ARCHIVE and is empty for TYPE=DELETE';
COMMENT ON COLUMN CEDA_ARCH_LOG.DATE_TIME_START
IS 'Start of archiving for this record';
COMMENT ON COLUMN CEDA_ARCH_LOG.DATE_TIME_END
IS 'End of archiving for this record';
COMMENT ON COLUMN CEDA_ARCH_LOG.RECORDS
IS 'Archived / deleted records';
/