001:AIAPRM1:test::G1
002:AIAPRM2:test::G1
003:swissprm1:swissprm1::G2
004:oaprm1:oaprm1::G3
005:inteprm1:interprm1::G4
006:goldprm1:goldprm1::G5
007:goldprm2:goldprm2::G5
008:goldprm3:goldprm3::G5
011:goldprm4:goldprm4::G5
009:TOSPRM:2001::G1
010:ITPRM:test::G1
