TITLE;NAME;TYPE;UFIS;UFIS;FLAG;DEFAULT;DEFAULT;DEFAULT;ATC;ATC;ATC;VDGS;VDGS;VDGS
TITLE;;;ADID=A;ADID=D;;METHOD;UFIS FIELD;UFIS FIELD;METHOD;UFIS FIELD;UFIS FIELD;METHOD;UFIS FIELD;UFIS FIELD
TITLE;;;;;;;ADID=A;ADID=D;;ADID=A;ADID=D;;ADID=A;ADID=D
STR_BGN;MSG;;;;;;;;;;;;;
STR_BGN;BATCHFILE_OUT;;;;;;;;;;;;;
STR_BGN;INFOBJ_FILE_OUT;;;;;OUT;;;;;;;;
DAT;ORIGIN;;;;;;;;;;;;;
DAT;FILENAME;;;;;;;;;;;;;
DAT;FILEACTION;;;;;;;;;;;;;
DAT;TIMESTAMP;;;;;;;;;;;;;
DAT;CONTENT_OUT;;;;;;;;;;;;;
STR_END;INFOBJ_FILE_OUT;;;;;;;;;;;;;
STR_END;BATCHFILE_OUT;;;;;;;;;;;;;
STR_BGN;MSGSTREAM_OUT;;;;;;;;;;;;;
STR_BGN;INFOBJ_GENERIC;;;;;;;;;;;;;
HDR;MESSAGETYPE;;;;M;;;;;;;;;
HDR;MESSAGEORIGIN;;;;M;;
HDR;TIMEID;;;;M;;
HDR;TIMESTAMP;;;;M;;
HDR;ACTIONTYPE;;;;M;;
KEY;URNO;URNO;;;M;;
KEY;ADID;;;;M;;
KEY;STDT;DATI;STOA;STOD;M;;
KEY;FLNO;FLNO;;;M;;
KEY;CSGN;;;;M;;
KEY;RKEY;;;;M;;
KEY;RTYP;;;;M;;
STR_END;INFOBJ_GENERIC;;;;;;
STR_BGN;INFOBJ_FLIGHT;;;;;OUT;UFISFLTUD
DAT;ADID;;;;;;
DAT;FLNO;FLNO;;;;;
DAT;JFNO;JFNO;;;;;
DAT;ALC2;BAS;;;;;;
DAT;ALC3;BAS;;;;;;
DAT;FLTN;;;;;;;
DAT;FLNS;;;;;;;
DAT;FLTI;;;;M;;;
DAT;FCLS;IGNORE;;;;;;
DAT;CSGN;;;;;;;
DAT;STOA;DATI;;;;;;XXXX
DAT;ETOA;DATI;;;;;;XXXX
DAT;ETAI;DATI;;;;;;XXXX
DAT;ETDI;DATI;;;;;XXXX;
DAT;STOD;DATI;;;;;XXXX;
DAT;ETOD;DATI;;;;;XXXX;
DAT;RKEY;NUM;;;M;;;
DAT;RTYP;;;;M;;;
DAT;DES3;BAS;;;;;;
DAT;DES3;;DIVR;DIVR;DES3-;;;
DAT;DES4;BAS;;;;;;
DAT;ORG3;BAS;;;;;;
DAT;ORG4;BAS;;;;;;
DAT;FTYP;;;;;;;
DAT;REGN;BAS;;;;;;
DAT;REM1;;;;;;;
DAT;REM2;;;;;;;
DAT;TTYP;;;;;;;
DAT;VIAN;;;;VIAL;;;
DAT;VIAL;VIAL;;;VIAN;;;
DAT;ACT3;BAS;;;;;;
DAT;ACT5;BAS;;;;;;
DAT;ONBL;DATI;;;;;;XXXX
DAT;OFBL;DATI;;;;;XXXX;
DAT;AIRB;DATI;;;;;XXXX;
DAT;LAND;DATI;;;;;;XXXX
DAT;RWYD;BAS;;;;;;
DAT;RWYA;BAS;;;;;;
DAT;TMOA;DATI;;;;;;XXXX
DAT;PAXT;;;;PAX1|PAX2|PAX3;;;
DAT;PAX1;;;;PAXT|PAX2|PAX3;;;
DAT;PAX2;;;;PAXT|PAX1|PAX3;;;
DAT;PAX3;;;;PAXT|PAX1|PAX2;;;
DAT;STYP;;;;;;;
DAT;DCD2;;;;;;;
DAT;REMP;BAS;;;;;;
DAT;IFRA;;;;;;;
DAT;IFRD;;;;;;;
DAT;PAID;;;;;;;
DAT;SLOT;DATI;;;;;;
DAT;BAGN;;;;;;;
DAT;BAGW;;;;;;
DAT;MAIL;;;;;;
DAT;MTOW;;;;;;
DAT;CGOT;;;;;;
DAT;JCNT;;;;;;
DAT;FCAL;DATI;;;;;
DAT;BOAC;DATI;;;;;
STR_END;INFOBJ_FLIGHT;;;;;;
STR_BGN;INFOBJ_ACPOSITION;;;;;;
STR_BGN;ACPOSITIONARR;;;;;OUT;UFISPOSUD
DAT;PSTA;BAS;;;;;
DAT;RAID;RAID;;;;;
DAT;PTYP;IGNORE;;;;;
DAT;PABS;DATI;;;;;
DAT;PAES;DATI;;;;;
DAT;PABA;DATI;;;;;
DAT;PAEA;DATI;;;;;
STR_END;ACPOSITIONARR;;;;;;
STR_BGN;ACPOSITIONDEP;;;;;OUT;UFISPOSUD
DAT;PSTD;BAS;;;;;
DAT;RAID;RAID;;;;;
DAT;PTYP;IGNORE;;;;;
DAT;PDBS;DATI;;;;;
DAT;PDES;DATI;;;;;
DAT;PDBA;DATI;;;;;
DAT;PDEA;DATI;;;;;
STR_END;ACPOSITIONDEP;;;;;;
STR_END;INFOBJ_ACPOSITION;;;;;;
STR_BGN;INFOBJ_BELT;;;;;OUT;UFISBLTUD
DAT;BLT1;BAS;;;;;
DAT;RAID;RAID;;;;;
DAT;B1BS;DATI;;;;;
DAT;B1ES;DATI;;;;;
DAT;B1BA;DATI;;;;;
DAT;B1EA;DATI;;;;;
DAT;BLT2;BAS;;;;;
DAT;B2BS;DATI;;;;;
DAT;B2ES;DATI;;;;;
DAT;B2BA;DATI;;;;;
DAT;B2EA;DATI;;;;;
STR_END;INFOBJ_BELT;;;;;;
STR_BGN;INFOBJ_GATE;;;;;;
STR_BGN;GATEARR;;;;;OUT;UFISGTDUD
DAT;GTA1;BAS;;;;;
DAT;RAID;RAID;;;;;
DAT;GA1B;DATI;;;;;
DAT;GA1E;DATI;;;;;
DAT;GA1X;DATI;;;;;
DAT;GA1Y;DATI;;;;;
DAT;GTA2;BAS;;;;;
DAT;GA2B;DATI;;;;;
DAT;GA2E;DATI;;;;;
DAT;GA2X;DATI;;;;;
DAT;GA2Y;DATI;;;;;
STR_END;GATEARR;;;;;;
STR_BGN;GATEDEP;;;;;OUT;UFISGTDUD
DAT;GTD1;BAS;;;;;
DAT;RAID;RAID;;;;;
DAT;GD1B;DATI;;;;;
DAT;GD1E;DATI;;;;;
DAT;GD1X;DATI;;;;;
DAT;GD1Y;DATI;;;;;
DAT;GTD2;BAS;;;;;
DAT;GD2B;DATI;;;;;
DAT;GD2E;DATI;;;;;
DAT;GD2X;DATI;;;;;
DAT;GD2Y;DATI;;;;;
STR_END;GATEDEP;;;;;;
STR_END;INFOBJ_GATE;;;;;;
STR_BGN;INFOBJ_COUNTER;;;;;OUT;UFISCHKUD
DAT;CKIC;BAS;;;;;
DAT;RAID;RAID;;; ;;
DAT;CTYP;;;;M;;
DAT;CKIT;;;;M;;
DAT;CKBS;DATI;;;M;;
DAT;CKES;DATI;;;M;;
DAT;CKBA;DATI;;;;;
DAT;CKEA;DATI;;;;;
DAT;DISP;;;;;;
DAT;REMA;;;;;;
DAT;FLNU;FLNU;;;M;;;
DAT;URNO;URNO;;;M;;;
STR_END;INFOBJ_COUNTER;;;;;;;
STR_BGN;INFOBJ_VDGS;;;;;;;
STR_BGN;VDGSARR;;;;;OUT;UFISVDGUD;
DAT;TOID;TOID;URNO;URNO;;;XXXX;XXXX
DAT;PSTA;BAS;;;F;;;
DAT;ACT5;BAS;;;M;;;
DAT;FTYP;;;;M;;;
DAT;LAND;DATI;;;F;;;
DAT;ONBL;IGNORE;;;M;;;
DAT;TIFA;IGNORE;;;;;;
STR_END;VDGSARR;;;;;;;
STR_BGN;VDGSDEP;;;;;OUT;UFISVDGUD;
DAT;TOID;TOID;URNO;URNO;;;XXXX;XXXX
DAT;PSTD;BAS;;;F;;;
DAT;ACT5;BAS;;;M;;
DAT;FTYP;;;;M;;
DAT;TIFD;DATI;;;M;;
DAT;OFBL;IGNORE;;;M;;
STR_END;VDGSDEP;;;;;;
STR_END;INFOBJ_VDGS;;;;;;
STR_BGN;INFOBJ_LOUNGE;;;;;OUT;UFISLNGUD
DAT;RAID;RAID;;;;;
DAT;WRO1;BAS;;;;;
DAT;WRO2;BAS;;;;;
STR_END;INFOBJ_LOUNGE;;;;;;
STR_BGN;INFOBJ_EXIT;;;;;OUT;UFISEXTUD
DAT;RAID;RAID;;;;;
DAT;EXT1;BAS;;;;;
DAT;EXT2;BAS;;;;;
STR_END;INFOBJ_EXIT;;;;;;
STR_BGN;STATIC;;;;;;
STR_BGN;RESOURCES;;;;;;
STR_BGN;COMMON_COUNTERS;;;;;OUT;UFISCCIUD
DAT;CKIC;BAS;;;;;
DAT;RAID;RAID;;;M;;
DAT;ALCD;;;;M;;
DAT;HANM;IGNORE;;;;;
DAT;CTYP;;;;M;;
DAT;CKIT;;;;M;;
DAT;CKBS;DATI;;;M;;
DAT;CKES;DATI;;;M;;
DAT;CKBA;DATI;;;;;
DAT;CKEA;DATI;;;;;
DAT;DISP;;;;;;
DAT;REMA;;;;;;
DAT;FLNU;FLNU;;;M;;
DAT;URNO;URNO;;;M;;
STR_END;COMMON_COUNTERS;;;;;;
STR_BGN;ACPOSITIONS;;;;;;
STR_BGN;STATIC_ACPOSITION;;;;;OUT;UFISPOSST
DAT;PSID;BAS;PNAM;PNAM;;;
DAT;PSBS;DATI;NAFR;NAFR;;;
DAT;PSES;DATI;NATO;NATO;;;
DAT;REMA;;RESN;RESN;;;
DAT;RCID;;TABN;TABN;;;
DAT;DGRP;;DAYS;DAYS;;;
DAT;SOFF;TIMS;TIFR;TIFR;;;
DAT;EOFF;TIMS;TITO;TITO;;;
STR_END;STATIC_ACPOSITION;;;;;;
STR_END;ACPOSITIONS;;;;;;
STR_BGN;BELTS;;;;;;
STR_BGN;STATIC_BELT;;;;;OUT;UFISBLTST
DAT;BBID;BAS;BNAM;BNAM;;;
DAT;BBBS;DATI;NAFR;NAFR;;;
DAT;BBES;DATI;NATO;NATO;;;
DAT;REMA;;RESN;RESN;;;
DAT;RCID;;TABN;TABN;;;
DAT;DGRP;;DAYS;DAYS;;;
DAT;SOFF;TIMS;TIFR;TIFR;;;
DAT;EOFF;TIMS;TITO;TITO;;;
STR_END;STATIC_BELT;;;;;;
STR_END;BELTS;;;;;;
STR_BGN;GATE;;;;;;
STR_BGN;STATIC_GATE;;;;;OUT;UFISGTDST
DAT;GTID;BAS;GNAM;GNAM;;;
DAT;GTBS;DATI;NAFR;NAFR;;;
DAT;GTES;DATI;NATO;NATO;;;
DAT;REMA;;RESN;RESN;;;
DAT;RCID;;TABN;TABN;;;
DAT;DGRP;;DAYS;DAYS;;;
DAT;SOFF;TIMS;TIFR;TIFR;;;
DAT;EOFF;TIMS;TITO;TITO;;;
STR_END;STATIC_GATE;;;;;;
STR_END;GATE;;;;;;
STR_BGN;COUNTERS;;;;;;
STR_BGN;STATIC_COUNTER;;;;;OUT;UFISCHKST
DAT;CKIC;BAS;CNAM;CNAM;;;
DAT;CTYP;;;;;;
DAT;CKIT;IGNORE;;;;;
DAT;CKBS;DATI;NAFR;NAFR;;;
DAT;CKES;DATI;NATO;NATO;;;
DAT;CKBA;DATI;;;;;
DAT;CKEA;DATI;;;;;
DAT;DISP;;;;;;
DAT;REMA;;RESN;RESN;;;
DAT;FLNU;FLNU;;;;;
DAT;RCID;;TABN;TABN;;;
DAT;DGRP;;DAYS;DAYS;;;
DAT;SOFF;TIMS;TIFR;TIFR;;;
DAT;EOFF;TIMS;TITO;TITO;;;
STR_END;STATIC_COUNTER;;;;;;
STR_END;COUNTERS;;;;;;
STR_END;RESOURCES;;;;;;
STR_END;STATIC;;;;;;
STR_BGN;CONCAT;;;;;;
STR_BGN;TOWINGS;;;;;OUT;UFISTOWUD
DAT;TOID;TOID;URNO;URNO;M;;
DAT;TWTP;;FTYP;FTYP;M;;
DAT;PSTD;BAS;;;;;
DAT;PSTA;BAS;;;;;
DAT;SCHS;DATI;STOD;STOD;;;
DAT;SCHE;DATI;STOA;STOA;;;
DAT;ACTS;DATI;OFBL;OFBL;;;
DAT;ACTE;DATI;ONBL;ONBL;;;
STR_END;TOWINGS;;;;;;
STR_END;CONCAT;;;;;;
STR_BGN;BULKDATA;;;;;;
STR_BGN;METAR;;;;;OUT;UFISMETUD
DAT;LOCATION;;LOCA;LOCA;;;
DAT;TEMP;;TEMP;TEMP;;;
DAT;CODE;;CODE;CODE;;;
DAT;METARCODE;;META;META;;;
DAT;TIME;DATI;TIME;TIME;;;
DAT;WINDSPEED;;WIND;WIND;;;
DAT;WINDDIR;;WDIR;WDIR;;;
DAT;VISIBILITY;;VISI;VISI;;;
STR_END;METAR;;;;;;
STR_BGN;SITA;;;;;OUT;UFISSITA
DAT;FILE_NAME;;;;;;
DAT;CONTENT;;;;;;
STR_END;SITA;;;;;;
STR_BGN;AFTN;;;;;OUT;UFISAFTN
DAT;FILE_NAME;;;;;;
DAT;CONTENT;;;;;;
STR_END;AFTN;;;;;;
STR_END;BULKDATA;;;;;;
STR_END;MSGSTREAM_OUT;;;;;;
STR_END;MSG;;;;;;
