CMDS_BGN;BASAP;
;VALID;YES
PROC_BGN;PROC-01;
;DEF-FILE;xxx
STEP_BGN;STEP-01;
;TIMEOUT;5
TASK_BGN;TASK-01;
;TYPE;QUE
;WAIT-ACK;YES
;DEST;7300
;CMD;BSDAP
;TAB;xxx
;SEL;xxx
;FLD;xxx
;DAT;xxx
TASK_END;TASK-01;
STEP_END;STEP-01;
STEP_BGN;STEP-02;
;TIMEOUT;5
TASK_BGN;TASK-01;
;TYPE;QUE
;WAIT-ACK;NO
;DEST;7922
;CMD;FRDY
;TAB;Param1
;SEL;*DEF-FILE*
;FLD;Param3
;DAT;Param4
TASK_END;TASK-01;
STEP_END;STEP-02;
PROC_END;PROC-01;
CMDS_END;;
CMDS_BGN;BFSAPT;
;VALID;YES
PROC_BGN;PROC-01;
;DEF-FILE;xxx
STEP_BGN;STEP-01;
;TIMEOUT;5
TASK_BGN;TASK-01;
;TYPE;QUE
;WAIT-ACK;YES
;DEST;7300
;CMD;BFSAP
;TAB;xxx
;SEL;xxx
;FLD;xxx
;DAT;xxx
TASK_END;TASK-01;
STEP_END;STEP-01;
STEP_BGN;STEP-02;
;TIMEOUT;5
TASK_BGN;TASK-01;
;TYPE;QUE
;WAIT-ACK;NO
;DEST;7922
;CMD;FRDY
;TAB;Param1
;SEL;*DEF-FILE*
;FLD;Param3
;DAT;Param4
TASK_END;TASK-01;
STEP_END;STEP-02;
PROC_END;PROC-01;
CMDS_END;;
CMDS_BGN;BFSACT;
;VALID;YES
PROC_BGN;PROC-01;
;DEF-FILE;xxx
STEP_BGN;STEP-01;
;TIMEOUT;5
TASK_BGN;TASK-01;
;TYPE;QUE
;WAIT-ACK;YES
;DEST;7300
;CMD;BFSAT
;TAB;xxx
;SEL;xxx
;FLD;xxx
;DAT;xxx
TASK_END;TASK-01;
STEP_END;STEP-01;
STEP_BGN;STEP-02;
;TIMEOUT;5
TASK_BGN;TASK-01;
;TYPE;QUE
;WAIT-ACK;NO
;DEST;7922
;CMD;FRDY
;TAB;Param1
;SEL;*DEF-FILE*
;FLD;Param3
;DAT;Param4
TASK_END;TASK-01;
STEP_END;STEP-02;
PROC_END;PROC-01;
CMDS_END;;
CMDS_BGN;BSDALT;
;VALID;YES
PROC_BGN;PROC-01;
;DEF-FILE;xxx
STEP_BGN;STEP-01;
;TIMEOUT;5
TASK_BGN;TASK-01;
;TYPE;QUE
;WAIT-ACK;YES
;DEST;7300
;CMD;BSDAL
;TAB;xxx
;SEL;xxx
;FLD;xxx
;DAT;xxx
TASK_END;TASK-01;
STEP_END;STEP-01;
STEP_BGN;STEP-02;
;TIMEOUT;5
TASK_BGN;TASK-01;
;TYPE;QUE
;WAIT-ACK;NO
;DEST;7922
;CMD;FRDY
;TAB;Param1
;SEL;*DEF-FILE*
;FLD;Param3
;DAT;Param4
TASK_END;TASK-01;
STEP_END;STEP-02;
PROC_END;PROC-01;
CMDS_END;;
CMDS_BGN;BSDRWY;
;VALID;YES
PROC_BGN;PROC-01;
;DEF-FILE;xxx
STEP_BGN;STEP-01;
;TIMEOUT;5
TASK_BGN;TASK-01;
;TYPE;QUE
;WAIT-ACK;YES
;DEST;7300
;CMD;BSDRW
;TAB;xxx
;SEL;xxx
;FLD;xxx
;DAT;xxx
TASK_END;TASK-01;
STEP_END;STEP-01;
STEP_BGN;STEP-02;
;TIMEOUT;5
TASK_BGN;TASK-01;
;TYPE;QUE
;WAIT-ACK;NO
;DEST;7922
;CMD;FRDY
;TAB;Param1
;SEL;*DEF-FILE*
;FLD;Param3
;DAT;Param4
TASK_END;TASK-01;
STEP_END;STEP-02;
PROC_END;PROC-01;
CMDS_END;;
CMDS_BGN;BSDBLT;
;VALID;YES
PROC_BGN;PROC-01;
;DEF-FILE;xxx
STEP_BGN;STEP-01;
;TIMEOUT;5
TASK_BGN;TASK-01;
;TYPE;QUE
;WAIT-ACK;YES
;DEST;7300
;CMD;BSDBT
;TAB;xxx
;SEL;xxx
;FLD;xxx
;DAT;xxx
TASK_END;TASK-01;
STEP_END;STEP-01;
STEP_BGN;STEP-02;
;TIMEOUT;5
TASK_BGN;TASK-01;
;TYPE;QUE
;WAIT-ACK;NO
;DEST;7922
;CMD;FRDY
;TAB;Param1
;SEL;*DEF-FILE*
;FLD;Param3
;DAT;Param4
TASK_END;TASK-01;
STEP_END;STEP-02;
PROC_END;PROC-01;
CMDS_END;;
CMDS_BGN;BSDPST;
;VALID;YES
PROC_BGN;PROC-01;
;DEF-FILE;xxx
STEP_BGN;STEP-01;
;TIMEOUT;5
TASK_BGN;TASK-01;
;TYPE;QUE
;WAIT-ACK;YES
;DEST;7300
;CMD;BSDPS
;TAB;xxx
;SEL;xxx
;FLD;xxx
;DAT;xxx
TASK_END;TASK-01;
STEP_END;STEP-01;
STEP_BGN;STEP-02;
;TIMEOUT;5
TASK_BGN;TASK-01;
;TYPE;QUE
;WAIT-ACK;NO
;DEST;7922
;CMD;FRDY
;TAB;Param1
;SEL;*DEF-FILE*
;FLD;Param3
;DAT;Param4
TASK_END;TASK-01;
STEP_END;STEP-02;
PROC_END;PROC-01;
CMDS_END;;
CMDS_BGN;BSDGAT;
;VALID;YES
PROC_BGN;PROC-01;
;DEF-FILE;xxx
STEP_BGN;STEP-01;
;TIMEOUT;5
TASK_BGN;TASK-01;
;TYPE;QUE
;WAIT-ACK;YES
;DEST;7300
;CMD;BSDGT
;TAB;xxx
;SEL;xxx
;FLD;xxx
;DAT;xxx
TASK_END;TASK-01;
STEP_END;STEP-01;
STEP_BGN;STEP-02;
;TIMEOUT;5
TASK_BGN;TASK-01;
;TYPE;QUE
;WAIT-ACK;NO
;DEST;7922
;CMD;FRDY
;TAB;Param1
;SEL;*DEF-FILE*
;FLD;Param3
;DAT;Param4
TASK_END;TASK-01;
STEP_END;STEP-02;
PROC_END;PROC-01;
CMDS_END;;
CMDS_BGN;BSDCIC;
;VALID;YES
PROC_BGN;PROC-01;
;DEF-FILE;xxx
STEP_BGN;STEP-01;
;TIMEOUT;5
TASK_BGN;TASK-01;
;TYPE;QUE
;WAIT-ACK;YES
;DEST;7300
;CMD;BSDCC
;TAB;xxx
;SEL;xxx
;FLD;xxx
;DAT;xxx
TASK_END;TASK-01;
STEP_END;STEP-01;
STEP_BGN;STEP-02;
;TIMEOUT;5
TASK_BGN;TASK-01;
;TYPE;QUE
;WAIT-ACK;NO
;DEST;7922
;CMD;FRDY
;TAB;Param1
;SEL;*DEF-FILE*
;FLD;Param3
;DAT;Param4
TASK_END;TASK-01;
STEP_END;STEP-02;
PROC_END;PROC-01;
CMDS_END;;
CMDS_BGN;BSDNAT;
;VALID;YES
PROC_BGN;PROC-01;
;DEF-FILE;xxx
STEP_BGN;STEP-01;
;TIMEOUT;5
TASK_BGN;TASK-01;
;TYPE;QUE
;WAIT-ACK;YES
;DEST;7300
;CMD;BSDNA
;TAB;xxx
;SEL;xxx
;FLD;xxx
;DAT;xxx
TASK_END;TASK-01;
STEP_END;STEP-01;
STEP_BGN;STEP-02;
;TIMEOUT;5
TASK_BGN;TASK-01;
;TYPE;QUE
;WAIT-ACK;NO
;DEST;7922
;CMD;FRDY
;TAB;Param1
;SEL;*DEF-FILE*
;FLD;Param3
;DAT;Param4
TASK_END;TASK-01;
STEP_END;STEP-02;
PROC_END;PROC-01;
CMDS_END;;
CMDS_BGN;ATCDGP;
;VALID;YES
PROC_BGN;PROC-01;
;DEF-FILE;xxx
STEP_BGN;STEP-01;
;TIMEOUT;5
TASK_BGN;TASK-01;
;TYPE;QUE
;WAIT-ACK;YES
;DEST;7300
;CMD;ATCGP
;TAB;xxx
;SEL;xxx
;FLD;xxx
;DAT;xxx
TASK_END;TASK-01;
STEP_END;STEP-01;
STEP_BGN;STEP-02;
;TIMEOUT;5
TASK_BGN;TASK-01;
;TYPE;QUE
;WAIT-ACK;NO
;DEST;7922
;CMD;FRDY
;TAB;Param1
;SEL;*DEF-FILE*
;FLD;Param3
;DAT;Param4
TASK_END;TASK-01;
STEP_END;STEP-02;
PROC_END;PROC-01;
CMDS_END;;
CMDS_BGN;ATCUGP;
;VALID;YES
PROC_BGN;PROC-01;
;DEF-FILE;xxx
STEP_BGN;STEP-01;
;TIMEOUT;5
TASK_BGN;TASK-01;
;TYPE;QUE
;WAIT-ACK;YES
;DEST;7300
;CMD;ATCUG
;TAB;xxx
;SEL;xxx
;FLD;xxx
;DAT;xxx
TASK_END;TASK-01;
STEP_END;STEP-01;
STEP_BGN;STEP-02;
;TIMEOUT;5
TASK_BGN;TASK-01;
;TYPE;QUE
;WAIT-ACK;NO
;DEST;7922
;CMD;FRDY
;TAB;Param1
;SEL;*DEF-FILE*
;FLD;Param3
;DAT;Param4
TASK_END;TASK-01;
STEP_END;STEP-02;
PROC_END;PROC-01;
CMDS_END;;
CMDS_BGN;COMDAF;
;VALID;YES
PROC_BGN;PROC-01;
;DEF-FILE;xxx
STEP_BGN;STEP-01;
;TIMEOUT;5
TASK_BGN;TASK-01;
;TYPE;QUE
;WAIT-ACK;YES
;DEST;7300
;CMD;COMDF
;TAB;xxx
;SEL;xxx
;FLD;xxx
;DAT;xxx
TASK_END;TASK-01;
STEP_END;STEP-01;
STEP_BGN;STEP-02;
;TIMEOUT;5
TASK_BGN;TASK-01;
;TYPE;QUE
;WAIT-ACK;NO
;DEST;7922
;CMD;FRDY
;TAB;Param1
;SEL;*DEF-FILE*
;FLD;Param3
;DAT;Param4
TASK_END;TASK-01;
STEP_END;STEP-02;
PROC_END;PROC-01;
CMDS_END;;
CMDS_BGN;AIRDFL;
;VALID;YES
PROC_BGN;PROC-01;
;DEF-FILE;xxx
STEP_BGN;STEP-01;
;TIMEOUT;5
TASK_BGN;TASK-01;
;TYPE;QUE
;WAIT-ACK;YES
;DEST;7300
;CMD;ARLDF
;TAB;xxx
;SEL;xxx
;FLD;xxx
;DAT;xxx
TASK_END;TASK-01;
STEP_END;STEP-01;
STEP_BGN;STEP-02;
;TIMEOUT;5
TASK_BGN;TASK-01;
;TYPE;QUE
;WAIT-ACK;NO
;DEST;7922
;CMD;FRDY
;TAB;Param1
;SEL;*DEF-FILE*
;FLD;Param3
;DAT;Param4
TASK_END;TASK-01;
STEP_END;STEP-02;
PROC_END;PROC-01;
CMDS_END;;
CMDS_BGN;TGDSYN;
;VALID;YES
PROC_BGN;PROC-01;
;DEF-FILE;xxx
STEP_BGN;STEP-01;
;TIMEOUT;5
TASK_BGN;TASK-01;
;TYPE;QUE
;WAIT-ACK;YES
;DEST;7300
;CMD;TGSYN
;TAB;xxx
;SEL;xxx
;FLD;xxx
;DAT;xxx
TASK_END;TASK-01;
STEP_END;STEP-01;
STEP_BGN;STEP-02;
;TIMEOUT;5
TASK_BGN;TASK-01;
;TYPE;QUE
;WAIT-ACK;NO
;DEST;7922
;CMD;FRDY
;TAB;Param1
;SEL;*DEF-FILE*
;FLD;Param3
;DAT;Param4
TASK_END;TASK-01;
STEP_END;STEP-02;
STEP_BGN;STEP-03;
;TIMEOUT;5
TASK_BGN;TASK-01;
;TYPE;QUE
;WAIT-ACK;YES
;DEST;7300
;CMD;TCSYN
;TAB;xxx
;SEL;xxx
;FLD;xxx
;DAT;xxx
TASK_END;TASK-01;
STEP_END;STEP-03;
STEP_BGN;STEP-04;
;TIMEOUT;5
TASK_BGN;TASK-01;
;TYPE;QUE
;WAIT-ACK;NO
;DEST;7922
;CMD;FRDY
;TAB;Param1
;SEL;*DEF-FILE*
;FLD;Param3
;DAT;Param4
TASK_END;TASK-01
STEP_END;STEP-04
PROC_END;PROC-01
CMDS_END;
CMDS_BGN;PGDSYN;
;VALID;YES
PROC_BGN;PROC-01;
;DEF-FILE;xxx
STEP_BGN;STEP-01;
;TIMEOUT;5
TASK_BGN;TASK-01;
;TYPE;QUE
;WAIT-ACK;YES
;DEST;7300
;CMD;PGSYN
;TAB;xxx
;SEL;xxx
;FLD;xxx
;DAT;xxx
TASK_END;TASK-01;
STEP_END;STEP-01;
STEP_BGN;STEP-02;
;TIMEOUT;5
TASK_BGN;TASK-01;
;TYPE;QUE
;WAIT-ACK;NO
;DEST;7922
;CMD;FRDY
;TAB;Param1
;SEL;*DEF-FILE*
;FLD;Param3
;DAT;Param4
TASK_END;TASK-01;
STEP_END;STEP-02;
STEP_BGN;STEP-03;
;TIMEOUT;5
TASK_BGN;TASK-01;
;TYPE;QUE
;WAIT-ACK;YES
;DEST;7300
;CMD;PCSYN
;TAB;xxx
;SEL;xxx
;FLD;xxx
;DAT;xxx
TASK_END;TASK-01;
STEP_END;STEP-03;
STEP_BGN;STEP-04;
;TIMEOUT;5
TASK_BGN;TASK-01;
;TYPE;QUE
;WAIT-ACK;NO
;DEST;7922
;CMD;FRDY
;TAB;Param1
;SEL;*DEF-FILE*
;FLD;Param3
;DAT;Param4
TASK_END;TASK-01;
STEP_END;STEP-04;
PROC_END;PROC-01;
CMDS_END;;
CMDS_BGN;COMSI;
;VALID;YES
PROC_BGN;PROC-01;
;DEF-FILE;xxx
STEP_BGN;STEP-01;
;TIMEOUT;5
TASK_BGN;TASK-01;
;TYPE;QUE
;WAIT-ACK;YES
;DEST;7300
;CMD;COMSI
;TAB;xxx
;SEL;xxx
;FLD;xxx
;DAT;xxx
TASK_END;TASK-01;
STEP_END;STEP-01;
STEP_BGN;STEP-02;
;TIMEOUT;5
TASK_BGN;TASK-01;
;TYPE;QUE
;WAIT-ACK;NO
;DEST;7922
;CMD;FRDY
;TAB;Param1
;SEL;*DEF-FILE*
;FLD;Param3
;DAT;Param4
TASK_END;TASK-01;
STEP_END;STEP-02;
PROC_END;PROC-01;
CMDS_END;;
CMDS_BGN;BHSCC;
;VALID;YES
PROC_BGN;PROC-01;
;DEF-FILE;xxx
STEP_BGN;STEP-01;
;TIMEOUT;5
TASK_BGN;TASK-01;
;TYPE;QUE
;WAIT-ACK;YES
;DEST;7300
;CMD;BHSCC
;TAB;xxx
;SEL;xxx
;FLD;xxx
;DAT;xxx
TASK_END;TASK-01;
STEP_END;STEP-01;
STEP_BGN;STEP-02;
;TIMEOUT;5
TASK_BGN;TASK-01;
;TYPE;QUE
;WAIT-ACK;NO
;DEST;7922
;CMD;FRDY
;TAB;Param1
;SEL;*DEF-FILE*
;FLD;Param3
;DAT;Param4
TASK_END;TASK-01;
STEP_END;STEP-02;
PROC_END;PROC-01;
CMDS_END;;
CMDS_BGN;ARCKIN;
;VALID;YES
PROC_BGN;PROC-01;
;DEF-FILE;xxx
STEP_BGN;STEP-01;
;TIMEOUT;5
TASK_BGN;TASK-01;
;TYPE;QUE
;WAIT-ACK;YES
;DEST;7300
;CMD;ARLCC
;TAB;xxx
;SEL;xxx
;FLD;xxx
;DAT;xxx
TASK_END;TASK-01;
STEP_END;STEP-01;
STEP_BGN;STEP-02;
;TIMEOUT;5
TASK_BGN;TASK-01;
;TYPE;QUE
;WAIT-ACK;NO
;DEST;7922
;CMD;FRDY
;TAB;Param1
;SEL;*DEF-FILE*
;FLD;Param3
;DAT;Param4
TASK_END;TASK-01;
STEP_END;STEP-02;
PROC_END;PROC-01;
CMDS_END;;
CMDS_BGN;BSDACT;
;VALID;YES
PROC_BGN;PROC-01;
;DEF-FILE;xxx
STEP_BGN;STEP-01;
;TIMEOUT;5
TASK_BGN;TASK-01;
;TYPE;QUE
;WAIT-ACK;YES
;DEST;7300
;CMD;BSDAT
;TAB;xxx
;SEL;xxx
;FLD;xxx
;DAT;xxx
TASK_END;TASK-01;
STEP_END;STEP-01;
STEP_BGN;STEP-02;
;TIMEOUT;5
TASK_BGN;TASK-01;
;TYPE;QUE
;WAIT-ACK;NO
;DEST;7922
;CMD;FRDY
;TAB;Param1
;SEL;*DEF-FILE*
;FLD;Param3
;DAT;Param4
TASK_END;TASK-01;
STEP_END;STEP-02;
PROC_END;PROC-01;
CMDS_END;;
CMDS_BGN;HKTEST;
;VALID;YES
PROC_BGN;PROC-01;
;DEF-FILE;xxx
STEP_BGN;STEP-01;
;TIMEOUT;5
TASK_BGN;TASK-01;
;TYPE;QUE
;WAIT-ACK;YES
;DEST;7300
;CMD;HKTST
;TAB;xxx
;SEL;xxx
;FLD;xxx
;DAT;xxx
TASK_END;TASK-01;
STEP_END;STEP-01;
STEP_BGN;STEP-02;
;TIMEOUT;5
TASK_BGN;TASK-01;
;TYPE;QUE
;WAIT-ACK;NO
;DEST;7922
;CMD;FRDY
;TAB;Param1
;SEL;*DEF-FILE*
;FLD;Param3
;DAT;Param4
TASK_END;TASK-01;
STEP_END;STEP-02;
PROC_END;PROC-01;
CMDS_END;;
CMDS_BGN;ARLSI;
;VALID;YES
PROC_BGN;PROC-01;
;DEF-FILE;xxx
STEP_BGN;STEP-01;
;TIMEOUT;5
TASK_BGN;TASK-01;
;TYPE;QUE
;WAIT-ACK;YES
;DEST;7300
;CMD;ARLSI
;TAB;xxx
;SEL;xxx
;FLD;xxx
;DAT;xxx
TASK_END;TASK-01;
STEP_END;STEP-01;
STEP_BGN;STEP-02;
;TIMEOUT;5
TASK_BGN;TASK-01;
;TYPE;QUE
;WAIT-ACK;NO
;DEST;7922
;CMD;FRDY
;TAB;Param1
;SEL;*DEF-FILE*
;FLD;Param3
;DAT;Param4
TASK_END;TASK-01;
STEP_END;STEP-02;
PROC_END;PROC-01;
CMDS_END;;
CMDS_BGN;COMGT;
;VALID;YES
PROC_BGN;PROC-01;
;DEF-FILE;xxx
STEP_BGN;STEP-01;
;TIMEOUT;5
TASK_BGN;TASK-01;
;TYPE;QUE
;WAIT-ACK;YES
;DEST;7300
;CMD;COMGT
;TAB;xxx
;SEL;xxx
;FLD;xxx
;DAT;xxx
TASK_END;TASK-01;
STEP_END;STEP-01;
STEP_BGN;STEP-02;
;TIMEOUT;5
TASK_BGN;TASK-01;
;TYPE;QUE
;WAIT-ACK;NO
;DEST;7922
;CMD;FRDY
;TAB;Param1
;SEL;*DEF-FILE*
;FLD;Param3
;DAT;Param4
TASK_END;TASK-01;
STEP_END;STEP-02;
PROC_END;PROC-01;
CMDS_END;;
CMDS_BGN;COMBT;
;VALID;YES
PROC_BGN;PROC-01;
;DEF-FILE;xxx
STEP_BGN;STEP-01;
;TIMEOUT;5
TASK_BGN;TASK-01;
;TYPE;QUE
;WAIT-ACK;YES
;DEST;7300
;CMD;COMBT
;TAB;xxx
;SEL;xxx
;FLD;xxx
;DAT;xxx
TASK_END;TASK-01;
STEP_END;STEP-01;
STEP_BGN;STEP-02;
;TIMEOUT;5
TASK_BGN;TASK-01;
;TYPE;QUE
;WAIT-ACK;NO
;DEST;7922
;CMD;FRDY
;TAB;Param1
;SEL;*DEF-FILE*
;FLD;Param3
;DAT;Param4
TASK_END;TASK-01;
STEP_END;STEP-02;
PROC_END;PROC-01;
CMDS_END;;
CMDS_BGN;BFSALT;
;VALID;YES
PROC_BGN;PROC-01;
;DEF-FILE;xxx
STEP_BGN;STEP-01;
;TIMEOUT;5
TASK_BGN;TASK-01;
;TYPE;QUE
;WAIT-ACK;YES
;DEST;7300
;CMD;BFSAL
;TAB;xxx
;SEL;xxx
;FLD;xxx
;DAT;xxx
TASK_END;TASK-01;
STEP_END;STEP-01;
STEP_BGN;STEP-02;
;TIMEOUT;5
TASK_BGN;TASK-01;
;TYPE;QUE
;WAIT-ACK;NO
;DEST;7922
;CMD;FRDY
;TAB;Param1
;SEL;*DEF-FILE*
;FLD;Param3
;DAT;Param4
TASK_END;TASK-01;
STEP_END;STEP-02;
PROC_END;PROC-01;
CMDS_END;;
CMDS_BGN;IMSYN;
;VALID;YES
PROC_BGN;PROC-01;
;DEF-FILE;xxx
STEP_BGN;STEP-01;
;TIMEOUT;5
TASK_BGN;TASK-01;
;TYPE;QUE
;WAIT-ACK;YES
;DEST;7300
;CMD;IMSYN
;TAB;xxx
;SEL;xxx
;FLD;xxx
;DAT;xxx
TASK_END;TASK-01;
STEP_END;STEP-01
STEP_BGN;STEP-02;
;TIMEOUT;5
TASK_BGN;TASK-01;
;TYPE;QUE
;WAIT-ACK;NO
;DEST;7922
;CMD;FRDY
;TAB;Param1
;SEL;*DEF-FILE*
;FLD;Param3
;DAT;Param4
TASK_END;TASK-01;
STEP_END;STEP-02
PROC_END;PROC-01
CMDS_END;
CMDS_BGN;CASDF;
;VALID;YES
PROC_BGN;PROC-01;
;DEF-FILE;xxx
STEP_BGN;STEP-01;
;TIMEOUT;5
TASK_BGN;TASK-01;
;TYPE;QUE
;WAIT-ACK;YES
;DEST;7300
;CMD;CASDF
;TAB;xxx
;SEL;xxx
;FLD;xxx
;DAT;xxx
TASK_END;TASK-01;
STEP_END;STEP-01
STEP_BGN;STEP-02;
;TIMEOUT;5
TASK_BGN;TASK-01;
;TYPE;QUE
;WAIT-ACK;NO
;DEST;7922
;CMD;FRDY
;TAB;Param1
;SEL;*DEF-FILE*
;FLD;Param3
;DAT;Param4
TASK_END;TASK-01;
STEP_END;STEP-02
PROC_END;PROC-01
CMDS_END;
CMDS_BGN;IMMSI;
;VALID;YES
PROC_BGN;PROC-01;
;DEF-FILE;xxx
STEP_BGN;STEP-01;
;TIMEOUT;5
TASK_BGN;TASK-01;
;TYPE;QUE
;WAIT-ACK;YES
;DEST;7300
;CMD;IMMSI
;TAB;xxx
;SEL;xxx
;FLD;xxx
;DAT;xxx
TASK_END;TASK-01;
STEP_END;STEP-01
STEP_BGN;STEP-02;
;TIMEOUT;5
TASK_BGN;TASK-01;
;TYPE;QUE
;WAIT-ACK;NO
;DEST;7922
;CMD;FRDY
;TAB;Param1
;SEL;*DEF-FILE*
;FLD;Param3
;DAT;Param4
TASK_END;TASK-01;
STEP_END;STEP-02
PROC_END;PROC-01
CMDS_END;
CMDS_BGN;IMMDF;
;VALID;YES
PROC_BGN;PROC-01;
;DEF-FILE;xxx
STEP_BGN;STEP-01;
;TIMEOUT;5
TASK_BGN;TASK-01;
;TYPE;QUE
;WAIT-ACK;YES
;DEST;7300
;CMD;IMMDF
;TAB;xxx
;SEL;xxx
;FLD;xxx
;DAT;xxx
TASK_END;TASK-01;
STEP_END;STEP-01
STEP_BGN;STEP-02;
;TIMEOUT;5
TASK_BGN;TASK-01;
;TYPE;QUE
;WAIT-ACK;NO
;DEST;7922
;CMD;FRDY
;TAB;Param1
;SEL;*DEF-FILE*
;FLD;Param3
;DAT;Param4
TASK_END;TASK-01;
STEP_END;STEP-02
PROC_END;PROC-01
CMDS_END;
CMDS_BGN;BHSYN;
;VALID;YES
PROC_BGN;PROC-01;
;DEF-FILE;xxx
STEP_BGN;STEP-01;
;TIMEOUT;5
TASK_BGN;TASK-01;
;TYPE;QUE
;WAIT-ACK;YES
;DEST;7300
;CMD;BHSYN
;TAB;xxx
;SEL;xxx
;FLD;xxx
;DAT;xxx
TASK_END;TASK-01;
STEP_END;STEP-01
STEP_BGN;STEP-02;
;TIMEOUT;5
TASK_BGN;TASK-01;
;TYPE;QUE
;WAIT-ACK;NO
;DEST;7922
;CMD;FRDY
;TAB;Param1
;SEL;*DEF-FILE*
;FLD;Param3
;DAT;Param4
TASK_END;TASK-01;
STEP_END;STEP-02
PROC_END;PROC-01
CMDS_END;
CMDS_BGN;KIOSI;
;VALID;YES
PROC_BGN;PROC-01;
;DEF-FILE;xxx
STEP_BGN;STEP-01;
;TIMEOUT;5
TASK_BGN;TASK-01;
;TYPE;QUE
;WAIT-ACK;YES
;DEST;7300
;CMD;KIOSI
;TAB;xxx
;SEL;xxx
;FLD;xxx
;DAT;xxx
TASK_END;TASK-01;
STEP_END;STEP-01
STEP_BGN;STEP-02;
;TIMEOUT;5
TASK_BGN;TASK-01;
;TYPE;QUE
;WAIT-ACK;NO
;DEST;7922
;CMD;FRDY
;TAB;Param1
;SEL;*DEF-FILE*
;FLD;Param3
;DAT;Param4
TASK_END;TASK-01;
STEP_END;STEP-02
PROC_END;PROC-01
CMDS_END;
CMDS_BGN;KIODF;
;VALID;YES
PROC_BGN;PROC-01;
;DEF-FILE;xxx
STEP_BGN;STEP-01;
;TIMEOUT;5
TASK_BGN;TASK-01;
;TYPE;QUE
;WAIT-ACK;YES
;DEST;7300
;CMD;KIODF
;TAB;xxx
;SEL;xxx
;FLD;xxx
;DAT;xxx
TASK_END;TASK-01;
STEP_END;STEP-01
STEP_BGN;STEP-02;
;TIMEOUT;5
TASK_BGN;TASK-01;
;TYPE;QUE
;WAIT-ACK;NO
;DEST;7922
;CMD;FRDY
;TAB;Param1
;SEL;*DEF-FILE*
;FLD;Param3
;DAT;Param4
TASK_END;TASK-01;
STEP_END;STEP-02
PROC_END;PROC-01
CMDS_END;
CMDS_BGN;KIOAP;
;VALID;YES
PROC_BGN;PROC-01;
;DEF-FILE;xxx
STEP_BGN;STEP-01;
;TIMEOUT;5
TASK_BGN;TASK-01;
;TYPE;QUE
;WAIT-ACK;YES
;DEST;7300
;CMD;KIOAP
;TAB;xxx
;SEL;xxx
;FLD;xxx
;DAT;xxx
TASK_END;TASK-01;
STEP_END;STEP-01
STEP_BGN;STEP-02;
;TIMEOUT;5
TASK_BGN;TASK-01;
;TYPE;QUE
;WAIT-ACK;NO
;DEST;7922
;CMD;FRDY
;TAB;Param1
;SEL;*DEF-FILE*
;FLD;Param3
;DAT;Param4
TASK_END;TASK-01;
STEP_END;STEP-02
PROC_END;PROC-01
CMDS_END;
CMDS_BGN;KIOAL;
;VALID;YES
PROC_BGN;PROC-01;
;DEF-FILE;xxx
STEP_BGN;STEP-01;
;TIMEOUT;5
TASK_BGN;TASK-01;
;TYPE;QUE
;WAIT-ACK;YES
;DEST;7300
;CMD;KIOAL
;TAB;xxx
;SEL;xxx
;FLD;xxx
;DAT;xxx
TASK_END;TASK-01;
STEP_END;STEP-01
STEP_BGN;STEP-02;
;TIMEOUT;5
TASK_BGN;TASK-01;
;TYPE;QUE
;WAIT-ACK;NO
;DEST;7922
;CMD;FRDY
;TAB;Param1
;SEL;*DEF-FILE*
;FLD;Param3
;DAT;Param4
TASK_END;TASK-01;
STEP_END;STEP-02
PROC_END;PROC-01
CMDS_END;
CMDS_BGN;SAPAL;
;VALID;YES
PROC_BGN;PROC-01;
;DEF-FILE;xxx
STEP_BGN;STEP-01;
;TIMEOUT;5
TASK_BGN;TASK-01;
;TYPE;QUE
;WAIT-ACK;YES
;DEST;7300
;CMD;SAPAL
;TAB;xxx
;SEL;xxx
;FLD;xxx
;DAT;xxx
TASK_END;TASK-01;
STEP_END;STEP-01
STEP_BGN;STEP-02;
;TIMEOUT;5
TASK_BGN;TASK-01;
;TYPE;QUE
;WAIT-ACK;NO
;DEST;7922
;CMD;FRDY
;TAB;Param1
;SEL;*DEF-FILE*
;FLD;Param3
;DAT;Param4
TASK_END;TASK-01;
STEP_END;STEP-02
PROC_END;PROC-01
CMDS_END;
CMDS_BGN;APIDF;
;VALID;YES
PROC_BGN;PROC-01;
;DEF-FILE;xxx
STEP_BGN;STEP-01;
;TIMEOUT;5
TASK_BGN;TASK-01;
;TYPE;QUE
;WAIT-ACK;YES
;DEST;7300
;CMD;APIDF
;TAB;xxx
;SEL;xxx
;FLD;xxx
;DAT;xxx
TASK_END;TASK-01;
STEP_END;STEP-01
STEP_BGN;STEP-02;
;TIMEOUT;5
TASK_BGN;TASK-01;
;TYPE;QUE
;WAIT-ACK;NO
;DEST;7922
;CMD;FRDY
;TAB;Param1
;SEL;*DEF-FILE*
;FLD;Param3
;DAT;Param4
TASK_END;TASK-01;
STEP_END;STEP-02
PROC_END;PROC-01
CMDS_END;
CMDS_BGN;APSYN;
;VALID;YES
PROC_BGN;PROC-01;
;DEF-FILE;xxx
STEP_BGN;STEP-01;
;TIMEOUT;5
TASK_BGN;TASK-01;
;TYPE;QUE
;WAIT-ACK;YES
;DEST;7300
;CMD;APSYN
;TAB;xxx
;SEL;xxx
;FLD;xxx
;DAT;xxx
TASK_END;TASK-01;
STEP_END;STEP-01
STEP_BGN;STEP-02;
;TIMEOUT;5
TASK_BGN;TASK-01;
;TYPE;QUE
;WAIT-ACK;NO
;DEST;7922
;CMD;FRDY
;TAB;Param1
;SEL;*DEF-FILE*
;FLD;Param3
;DAT;Param4
TASK_END;TASK-01;
STEP_END;STEP-02
PROC_END;PROC-01
CMDS_END;
CMDS_BGN;FIDCC;
;VALID;YES
PROC_BGN;PROC-01;
;DEF-FILE;xxx
STEP_BGN;STEP-01;
;TIMEOUT;5
TASK_BGN;TASK-01;
;TYPE;QUE
;WAIT-ACK;YES
;DEST;7300
;CMD;FIDCC
;TAB;xxx
;SEL;xxx
;FLD;xxx
;DAT;xxx
TASK_END;TASK-01;
STEP_END;STEP-01
STEP_BGN;STEP-02;
;TIMEOUT;5
TASK_BGN;TASK-01;
;TYPE;QUE
;WAIT-ACK;NO
;DEST;7922
;CMD;FRDY
;TAB;Param1
;SEL;*DEF-FILE*
;FLD;Param3
;DAT;Param4
TASK_END;TASK-01;
STEP_END;STEP-02
PROC_END;PROC-01
CMDS_END;
CMDS_BGN;KIOGT;
;VALID;YES
PROC_BGN;PROC-01;
;DEF-FILE;xxx
STEP_BGN;STEP-01;
;TIMEOUT;5
TASK_BGN;TASK-01;
;TYPE;QUE
;WAIT-ACK;YES
;DEST;7300
;CMD;KIOGT
;TAB;xxx
;SEL;xxx
;FLD;xxx
;DAT;xxx
TASK_END;TASK-01;
STEP_END;STEP-01
STEP_BGN;STEP-02;
;TIMEOUT;5
TASK_BGN;TASK-01;
;TYPE;QUE
;WAIT-ACK;NO
;DEST;7922
;CMD;FRDY
;TAB;Param1
;SEL;*DEF-FILE*
;FLD;Param3
;DAT;Param4
TASK_END;TASK-01;
STEP_END;STEP-02
PROC_END;PROC-01
CMDS_END;
CMDS_BGN;SAPDF;
;VALID;YES
PROC_BGN;PROC-01;
;DEF-FILE;xxx
STEP_BGN;STEP-01;
;TIMEOUT;5
TASK_BGN;TASK-01;
;TYPE;QUE
;WAIT-ACK;YES
;DEST;7300
;CMD;SAPDF
;TAB;xxx
;SEL;xxx
;FLD;xxx
;DAT;xxx
TASK_END;TASK-01;
STEP_END;STEP-01
STEP_BGN;STEP-02;
;TIMEOUT;5
TASK_BGN;TASK-01;
;TYPE;SYS
;WAIT-ACK;YES
;DEST;
;CMD;/ceda/etc/BillingInterface.ksh
;TAB;Param1
;SEL;*DEF-FILE*
;FLD;Param3
;DAT;Param4
TASK_END;TASK-01;
STEP_END;STEP-02
STEP_BGN;STEP-03;
;TIMEOUT;5
TASK_BGN;TASK-01;
;TYPE;QUE
;WAIT-ACK;NO
;DEST;7922
;CMD;FRDY
;TAB;Param1
;SEL;*DEF-FILE*
;FLD;Param3
;DAT;Param4
TASK_END;TASK-01;
STEP_END;STEP-03
PROC_END;PROC-01
CMDS_END;
CMDS_BGN;SAPCA;
;VALID;YES
PROC_BGN;PROC-01;
;DEF-FILE;xxx
STEP_BGN;STEP-01;
;TIMEOUT;5
TASK_BGN;TASK-01;
;TYPE;QUE
;WAIT-ACK;YES
;DEST;7300
;CMD;SAPCA
;TAB;xxx
;SEL;xxx
;FLD;xxx
;DAT;xxx
TASK_END;TASK-01;
STEP_END;STEP-01
STEP_BGN;STEP-02;
;TIMEOUT;5
TASK_BGN;TASK-01;
;TYPE;SYS
;WAIT-ACK;YES
;DEST;
;CMD;/ceda/etc/CashArrInterface.ksh
;TAB;Param1
;SEL;*DEF-FILE*
;FLD;Param3
;DAT;Param4
TASK_END;TASK-01;
STEP_END;STEP-02
STEP_BGN;STEP-03;
;TIMEOUT;5
TASK_BGN;TASK-01;
;TYPE;QUE
;WAIT-ACK;NO
;DEST;7922
;CMD;FRDY
;TAB;Param1
;SEL;*DEF-FILE*
;FLD;Param3
;DAT;Param4
TASK_END;TASK-01;
STEP_END;STEP-03
PROC_END;PROC-01
CMDS_END;
CMDS_BGN;SAPCD;
;VALID;YES
PROC_BGN;PROC-01;
;DEF-FILE;xxx
STEP_BGN;STEP-01;
;TIMEOUT;5
TASK_BGN;TASK-01;
;TYPE;QUE
;WAIT-ACK;YES
;DEST;7300
;CMD;SAPCD
;TAB;xxx
;SEL;xxx
;FLD;xxx
;DAT;xxx
TASK_END;TASK-01;
STEP_END;STEP-01
STEP_BGN;STEP-02;
;TIMEOUT;5
TASK_BGN;TASK-01;
;TYPE;SYS
;WAIT-ACK;YES
;DEST;
;CMD;/ceda/etc/CashDepInterface.ksh
;TAB;Param1
;SEL;*DEF-FILE*
;FLD;Param3
;DAT;Param4
TASK_END;TASK-01;
STEP_END;STEP-02
STEP_BGN;STEP-03;
;TIMEOUT;5
TASK_BGN;TASK-01;
;TYPE;QUE
;WAIT-ACK;NO
;DEST;7922
;CMD;FRDY
;TAB;Param1
;SEL;*DEF-FILE*
;FLD;Param3
;DAT;Param4
TASK_END;TASK-01;
STEP_END;STEP-03
PROC_END;PROC-01
CMDS_END;
CMDS_BGN;BRSDF;
;VALID;YES
PROC_BGN;PROC-01;
;DEF-FILE;xxx
STEP_BGN;STEP-01;
;TIMEOUT;5
TASK_BGN;TASK-01;
;TYPE;QUE
;WAIT-ACK;YES
;DEST;7300
;CMD;BRSDF
;TAB;xxx
;SEL;xxx
;FLD;xxx
;DAT;xxx
TASK_END;TASK-01;
STEP_END;STEP-01;
STEP_BGN;STEP-02;
;TIMEOUT;5
TASK_BGN;TASK-01;
;TYPE;QUE
;WAIT-ACK;NO
;DEST;7922
;CMD;FRDY
;TAB;Param1
;SEL;*DEF-FILE*
;FLD;Param3
;DAT;Param4
TASK_END;TASK-01;
STEP_END;STEP-02;
STEP_BGN;STEP-03;
;TIMEOUT;5
TASK_BGN;TASK-01;
;TYPE;QUE
;WAIT-ACK;YES
;DEST;7300
;CMD;BRSDN
;TAB;xxx
;SEL;xxx
;FLD;xxx
;DAT;xxx
TASK_END;TASK-01;
STEP_END;STEP-03;
STEP_BGN;STEP-04;
;TIMEOUT;5
TASK_BGN;TASK-01;
;TYPE;QUE
;WAIT-ACK;NO
;DEST;7922
;CMD;FRDY
;TAB;Param1
;SEL;*DEF-FILE*
;FLD;Param3
;DAT;Param4
TASK_END;TASK-01
STEP_END;STEP-04
PROC_END;PROC-01
CMDS_END;
CMDS_BGN;CFSYN;
;VALID;YES
PROC_BGN;PROC-01;
;DEF-FILE;xxx
STEP_BGN;STEP-01;
;TIMEOUT;5
TASK_BGN;TASK-01;
;TYPE;QUE
;WAIT-ACK;YES
;DEST;7300
;CMD;CFSYN
;TAB;xxx
;SEL;xxx
;FLD;xxx
;DAT;xxx
TASK_END;TASK-01;
STEP_END;STEP-01
STEP_BGN;STEP-02;
;TIMEOUT;5
TASK_BGN;TASK-01;
;TYPE;QUE
;WAIT-ACK;NO
;DEST;7922
;CMD;FRDY
;TAB;Param1
;SEL;*DEF-FILE*
;FLD;Param3
;DAT;Param4
TASK_END;TASK-01;
STEP_END;STEP-02
PROC_END;PROC-01
CMDS_END;
CMDS_BGN;FISYN;
;VALID;YES
PROC_BGN;PROC-01;
;DEF-FILE;xxx
STEP_BGN;STEP-01;
;TIMEOUT;5
TASK_BGN;TASK-01;
;TYPE;QUE
;WAIT-ACK;YES
;DEST;7300
;CMD;FISYN
;TAB;xxx
;SEL;xxx
;FLD;xxx
;DAT;xxx
TASK_END;TASK-01;
STEP_END;STEP-01
STEP_BGN;STEP-02;
;TIMEOUT;5
TASK_BGN;TASK-01;
;TYPE;QUE
;WAIT-ACK;NO
;DEST;7922
;CMD;FRDY
;TAB;Param1
;SEL;*DEF-FILE*
;FLD;Param3
;DAT;Param4
TASK_END;TASK-01;
STEP_END;STEP-02
PROC_END;PROC-01
CMDS_END;
CMDS_BGN;HTMSI;
;VALID;YES
PROC_BGN;PROC-01;
;DEF-FILE;xxx
STEP_BGN;STEP-01;
;TIMEOUT;5
TASK_BGN;TASK-01;
;TYPE;QUE
;WAIT-ACK;YES
;DEST;7300
;CMD;HTMSI
;TAB;xxx
;SEL;xxx
;FLD;xxx
;DAT;xxx
TASK_END;TASK-01;
STEP_END;STEP-01;
STEP_BGN;STEP-02;
;TIMEOUT;5
TASK_BGN;TASK-01;
;TYPE;QUE
;WAIT-ACK;NO
;DEST;7922
;CMD;FRDY
;TAB;Param1
;SEL;*DEF-FILE*
;FLD;Param3
;DAT;Param4
TASK_END;TASK-01;
STEP_END;STEP-02;
PROC_END;PROC-01;
CMDS_END;;
CMDS_BGN;HTMDF;
;VALID;YES
PROC_BGN;PROC-01;
;DEF-FILE;xxx
STEP_BGN;STEP-01;
;TIMEOUT;5
TASK_BGN;TASK-01;
;TYPE;QUE
;WAIT-ACK;YES
;DEST;7300
;CMD;HTMDF
;TAB;xxx
;SEL;xxx
;FLD;xxx
;DAT;xxx
TASK_END;TASK-01;
STEP_END;STEP-01;
STEP_BGN;STEP-02;
;TIMEOUT;5
TASK_BGN;TASK-01;
;TYPE;QUE
;WAIT-ACK;NO
;DEST;7922
;CMD;FRDY
;TAB;Param1
;SEL;*DEF-FILE*
;FLD;Param3
;DAT;Param4
TASK_END;TASK-01;
STEP_END;STEP-02;
PROC_END;PROC-01;
CMDS_END;;
CMDS_BGN;HTMCA;
;VALID;YES
PROC_BGN;PROC-01;
;DEF-FILE;xxx
STEP_BGN;STEP-01;
;TIMEOUT;5
TASK_BGN;TASK-01;
;TYPE;QUE
;WAIT-ACK;YES
;DEST;7300
;CMD;HTMCA
;TAB;xxx
;SEL;xxx
;FLD;xxx
;DAT;xxx
TASK_END;TASK-01;
STEP_END;STEP-01;
STEP_BGN;STEP-02;
;TIMEOUT;5
TASK_BGN;TASK-01;
;TYPE;QUE
;WAIT-ACK;NO
;DEST;7922
;CMD;FRDY
;TAB;Param1
;SEL;*DEF-FILE*
;FLD;Param3
;DAT;Param4
TASK_END;TASK-01;
STEP_END;STEP-02;
PROC_END;PROC-01;
CMDS_END;;

CMDS_BGN;ASIGAL;
;VALID;YES
PROC_BGN;PROC-01;
;DEF-FILE;xxx
STEP_BGN;STEP-01;
;TIMEOUT;5
TASK_BGN;TASK-01;
;TYPE;QUE
;WAIT-ACK;YES
;DEST;7300
;CMD;ASGAL
;TAB;xxx
;SEL;xxx
;FLD;xxx
;DAT;xxx
TASK_END;TASK-01;
STEP_END;STEP-01
STEP_BGN;STEP-02;
;TIMEOUT;5
TASK_BGN;TASK-01;
;TYPE;QUE
;WAIT-ACK;NO
;DEST;7922
;CMD;FRDY
;TAB;Param1
;SEL;*DEF-FILE*
;FLD;Param3
;DAT;Param4
TASK_END;TASK-01;
STEP_END;STEP-02
PROC_END;PROC-01
CMDS_END;
CMDS_BGN;ASIGAP;
;VALID;YES
PROC_BGN;PROC-01;
;DEF-FILE;xxx
STEP_BGN;STEP-01;
;TIMEOUT;5
TASK_BGN;TASK-01;
;TYPE;QUE
;WAIT-ACK;YES
;DEST;7300
;CMD;ASGAP
;TAB;xxx
;SEL;xxx
;FLD;xxx
;DAT;xxx
TASK_END;TASK-01;
STEP_END;STEP-01
STEP_BGN;STEP-02;
;TIMEOUT;5
TASK_BGN;TASK-01;
;TYPE;QUE
;WAIT-ACK;NO
;DEST;7922
;CMD;FRDY
;TAB;Param1
;SEL;*DEF-FILE*
;FLD;Param3
;DAT;Param4
TASK_END;TASK-01;
STEP_END;STEP-02
PROC_END;PROC-01
CMDS_END;
CMDS_BGN;ASIGAT;
;VALID;YES
PROC_BGN;PROC-01;
;DEF-FILE;xxx
STEP_BGN;STEP-01;
;TIMEOUT;5
TASK_BGN;TASK-01;
;TYPE;QUE
;WAIT-ACK;YES
;DEST;7300
;CMD;ASGAT
;TAB;xxx
;SEL;xxx
;FLD;xxx
;DAT;xxx
TASK_END;TASK-01;
STEP_END;STEP-01
STEP_BGN;STEP-02;
;TIMEOUT;5
TASK_BGN;TASK-01;
;TYPE;QUE
;WAIT-ACK;NO
;DEST;7922
;CMD;FRDY
;TAB;Param1
;SEL;*DEF-FILE*
;FLD;Param3
;DAT;Param4
TASK_END;TASK-01;
STEP_END;STEP-02
PROC_END;PROC-01
CMDS_END;
CMDS_BGN;FIDAL;
;VALID;YES
PROC_BGN;PROC-01;
;DEF-FILE;xxx
STEP_BGN;STEP-01;
;TIMEOUT;5
TASK_BGN;TASK-01;
;TYPE;QUE
;WAIT-ACK;YES
;DEST;7300
;CMD;FIDAL
;TAB;xxx
;SEL;xxx
;FLD;xxx
;DAT;xxx
TASK_END;TASK-01;
STEP_END;STEP-01
STEP_BGN;STEP-02;
;TIMEOUT;5
TASK_BGN;TASK-01;
;TYPE;QUE
;WAIT-ACK;NO
;DEST;7922
;CMD;FRDY
;TAB;Param1
;SEL;*DEF-FILE*
;FLD;Param3
;DAT;Param4
TASK_END;TASK-01;
STEP_END;STEP-02
PROC_END;PROC-01
CMDS_END;
CMDS_BGN;ARLCC;
;VALID;YES
PROC_BGN;PROC-01;
;DEF-FILE;xxx
STEP_BGN;STEP-01;
;TIMEOUT;5
TASK_BGN;TASK-01;
;TYPE;QUE
;WAIT-ACK;YES
;DEST;7300
;CMD;ARLCC
;TAB;xxx
;SEL;xxx
;FLD;xxx
;DAT;xxx
TASK_END;TASK-01;
STEP_END;STEP-01
STEP_BGN;STEP-02;
;TIMEOUT;5
TASK_BGN;TASK-01;
;TYPE;QUE
;WAIT-ACK;NO
;DEST;7922
;CMD;FRDY
;TAB;Param1
;SEL;*DEF-FILE*
;FLD;Param3
;DAT;Param4
TASK_END;TASK-01;
STEP_END;STEP-02
PROC_END;PROC-01
CMDS_END;
CMDS_BGN;SIMDF;
;VALID;YES
PROC_BGN;PROC-01;
;DEF-FILE;xxx
STEP_BGN;STEP-01;
;TIMEOUT;5
TASK_BGN;TASK-01;
;TYPE;QUE
;WAIT-ACK;YES
;DEST;7300
;CMD;SIMDF
;TAB;xxx
;SEL;xxx
;FLD;xxx
;DAT;xxx
TASK_END;TASK-01;
STEP_END;STEP-01
STEP_BGN;STEP-02;
;TIMEOUT;5
TASK_BGN;TASK-01;
;TYPE;QUE
;WAIT-ACK;NO
;DEST;7922
;CMD;FRDY
;TAB;Param1
;SEL;*DEF-FILE*
;FLD;Param3
;DAT;Param4
TASK_END;TASK-01;
STEP_END;STEP-02
PROC_END;PROC-01
CMDS_END;
CMDS_BGN;SIMCC;
;VALID;YES
PROC_BGN;PROC-01;
;DEF-FILE;xxx
STEP_BGN;STEP-01;
;TIMEOUT;5
TASK_BGN;TASK-01;
;TYPE;QUE
;WAIT-ACK;YES
;DEST;7300
;CMD;SIMCC
;TAB;xxx
;SEL;xxx
;FLD;xxx
;DAT;xxx
TASK_END;TASK-01;
STEP_END;STEP-01
STEP_BGN;STEP-02;
;TIMEOUT;5
TASK_BGN;TASK-01;
;TYPE;QUE
;WAIT-ACK;NO
;DEST;7922
;CMD;FRDY
;TAB;Param1
;SEL;*DEF-FILE*
;FLD;Param3
;DAT;Param4
TASK_END;TASK-01;
STEP_END;STEP-02
PROC_END;PROC-01
CMDS_END;
CMDS_BGN;BSDAR;
;VALID;YES
PROC_BGN;PROC-01;
;DEF-FILE;xxx
STEP_BGN;STEP-01;
;TIMEOUT;5
TASK_BGN;TASK-01;
;TYPE;QUE
;WAIT-ACK;YES
;DEST;7300
;CMD;BSDAR
;TAB;xxx
;SEL;xxx
;FLD;xxx
;DAT;xxx
TASK_END;TASK-01;
STEP_END;STEP-01
STEP_BGN;STEP-02;
;TIMEOUT;5
TASK_BGN;TASK-01;
;TYPE;QUE
;WAIT-ACK;NO
;DEST;7922
;CMD;FRDY
;TAB;Param1
;SEL;*DEF-FILE*
;FLD;Param3
;DAT;Param4
TASK_END;TASK-01;
STEP_END;STEP-02
PROC_END;PROC-01
CMDS_END;
CMDS_BGN;BSDAC;
;VALID;YES
PROC_BGN;PROC-01;
;DEF-FILE;xxx
STEP_BGN;STEP-01;
;TIMEOUT;5
TASK_BGN;TASK-01;
;TYPE;QUE
;WAIT-ACK;YES
;DEST;7300
;CMD;BSDAC
;TAB;xxx
;SEL;xxx
;FLD;xxx
;DAT;xxx
TASK_END;TASK-01;
STEP_END;STEP-01
STEP_BGN;STEP-02;
;TIMEOUT;5
TASK_BGN;TASK-01;
;TYPE;QUE
;WAIT-ACK;NO
;DEST;7922
;CMD;FRDY
;TAB;Param1
;SEL;*DEF-FILE*
;FLD;Param3
;DAT;Param4
TASK_END;TASK-01;
STEP_END;STEP-02
PROC_END;PROC-01
CMDS_END;
CMDS_BGN;FIDAP;
;VALID;YES
PROC_BGN;PROC-01;
;DEF-FILE;xxx
STEP_BGN;STEP-01;
;TIMEOUT;5
TASK_BGN;TASK-01;
;TYPE;QUE
;WAIT-ACK;YES
;DEST;7300
;CMD;FIDAP
;TAB;xxx
;SEL;xxx
;FLD;xxx
;DAT;xxx
TASK_END;TASK-01;
STEP_END;STEP-01
STEP_BGN;STEP-02;
;TIMEOUT;5
TASK_BGN;TASK-01;
;TYPE;QUE
;WAIT-ACK;NO
;DEST;7922
;CMD;FRDY
;TAB;Param1
;SEL;*DEF-FILE*
;FLD;Param3
;DAT;Param4
TASK_END;TASK-01;
STEP_END;STEP-02
PROC_END;PROC-01
CMDS_END;
CMDS_BGN;EBZAL;
;VALID;YES
PROC_BGN;PROC-01;
;DEF-FILE;xxx
STEP_BGN;STEP-01;
;TIMEOUT;5
TASK_BGN;TASK-01;
;TYPE;QUE
;WAIT-ACK;YES
;DEST;7300
;CMD;EBZAL
;TAB;xxx
;SEL;xxx
;FLD;xxx
;DAT;xxx
TASK_END;TASK-01;
STEP_END;STEP-01
STEP_BGN;STEP-02;
;TIMEOUT;5
TASK_BGN;TASK-01;
;TYPE;QUE
;WAIT-ACK;NO
;DEST;7922
;CMD;FRDY
;TAB;Param1
;SEL;*DEF-FILE*
;FLD;Param3
;DAT;Param4
TASK_END;TASK-01;
STEP_END;STEP-02
PROC_END;PROC-01
CMDS_END;
CMDS_BGN;EBZGT;
;VALID;YES
PROC_BGN;PROC-01;
;DEF-FILE;xxx
STEP_BGN;STEP-01;
;TIMEOUT;5
TASK_BGN;TASK-01;
;TYPE;QUE
;WAIT-ACK;YES
;DEST;7300
;CMD;EBZGT
;TAB;xxx
;SEL;xxx
;FLD;xxx
;DAT;xxx
TASK_END;TASK-01;
STEP_END;STEP-01
STEP_BGN;STEP-02;
;TIMEOUT;5
TASK_BGN;TASK-01;
;TYPE;QUE
;WAIT-ACK;NO
;DEST;7922
;CMD;FRDY
;TAB;Param1
;SEL;*DEF-FILE*
;FLD;Param3
;DAT;Param4
TASK_END;TASK-01;
STEP_END;STEP-02
PROC_END;PROC-01
CMDS_END;
CMDS_BGN;BSDFR;
;VALID;YES
PROC_BGN;PROC-01;
;DEF-FILE;xxx
STEP_BGN;STEP-01;
;TIMEOUT;5
TASK_BGN;TASK-01;
;TYPE;QUE
;WAIT-ACK;YES
;DEST;7300
;CMD;BSDFR
;TAB;xxx
;SEL;xxx
;FLD;xxx
;DAT;xxx
TASK_END;TASK-01;
STEP_END;STEP-01;
STEP_BGN;STEP-02;
;TIMEOUT;5
TASK_BGN;TASK-01;
;TYPE;QUE
;WAIT-ACK;NO
;DEST;7922
;CMD;FRDY
;TAB;Param1
;SEL;*DEF-FILE*
;FLD;Param3
;DAT;Param4
TASK_END;TASK-01;
STEP_END;STEP-02;
PROC_END;PROC-01;
CMDS_END;;
CMDS_BGN;CFZDF;
;VALID;YES
PROC_BGN;PROC-01;
;DEF-FILE;xxx
STEP_BGN;STEP-01;
;TIMEOUT;5
TASK_BGN;TASK-01;
;TYPE;QUE
;WAIT-ACK;YES
;DEST;7300
;CMD;CFZDF
;TAB;xxx
;SEL;xxx
;FLD;xxx
;DAT;xxx
TASK_END;TASK-01;
STEP_END;STEP-01
STEP_BGN;STEP-02;
;TIMEOUT;5
TASK_BGN;TASK-01;
;TYPE;QUE
;WAIT-ACK;NO
;DEST;7922
;CMD;FRDY
;TAB;Param1
;SEL;*DEF-FILE*
;FLD;Param3
;DAT;Param4
TASK_END;TASK-01;
STEP_END;STEP-02
PROC_END;PROC-01
CMDS_END;
CMDS_BGN;ONSYN;
;VALID;YES
PROC_BGN;PROC-01;
;DEF-FILE;xxx
STEP_BGN;STEP-01;
;TIMEOUT;5
TASK_BGN;TASK-01;
;TYPE;QUE
;WAIT-ACK;YES
;DEST;7300
;CMD;ONSYN
;TAB;xxx
;SEL;xxx
;FLD;xxx
;DAT;xxx
TASK_END;TASK-01;
STEP_END;STEP-01
STEP_BGN;STEP-02;
;TIMEOUT;5
TASK_BGN;TASK-01;
;TYPE;QUE
;WAIT-ACK;NO
;DEST;7922
;CMD;FRDY
;TAB;Param1
;SEL;*DEF-FILE*
;FLD;Param3
;DAT;Param4
TASK_END;TASK-01;
STEP_END;STEP-02
PROC_END;PROC-01
CMDS_END;
CMDS_BGN;ASIGFD;
;VALID;YES
PROC_BGN;PROC-01;
;DEF-FILE;xxx
STEP_BGN;STEP-01;
;TIMEOUT;5
TASK_BGN;TASK-01;
;TYPE;QUE
;WAIT-ACK;YES
;DEST;7300
;CMD;ASGFD
;TAB;xxx
;SEL;xxx
;FLD;xxx
;DAT;xxx
TASK_END;TASK-01;
STEP_END;STEP-01;
STEP_BGN;STEP-02;
;TIMEOUT;5
TASK_BGN;TASK-01;
;TYPE;QUE
;WAIT-ACK;NO
;DEST;7922
;CMD;FRDY
;TAB;Param1
;SEL;*DEF-FILE*
;FLD;Param3
;DAT;Param4
TASK_END;TASK-01;
STEP_END;STEP-02;
PROC_END;PROC-01;
CMDS_END;
CMDS_BGN;BASFLT;
;VALID;YES
PROC_BGN;PROC-01;
;DEF-FILE;xxx
STEP_BGN;STEP-01;
;TIMEOUT;5
TASK_BGN;TASK-01;
;TYPE;QUE
;WAIT-ACK;YES
;DEST;7300
;CMD;BASFL
;TAB;xxx
;SEL;xxx
;FLD;xxx
;DAT;xxx
TASK_END;TASK-01;
STEP_END;STEP-01;
STEP_BGN;STEP-02;
;TIMEOUT;5
TASK_BGN;TASK-01;
;TYPE;QUE
;WAIT-ACK;NO
;DEST;7922
;CMD;FRDY
;TAB;Param1
;SEL;*DEF-FILE*
;FLD;Param3
;DAT;Param4
TASK_END;TASK-01;
STEP_END;STEP-02;
PROC_END;PROC-01;
CMDS_END;
CMDS_BGN;SAPCC;
;VALID;YES
PROC_BGN;PROC-01;
;DEF-FILE;xxx
STEP_BGN;STEP-01;
;TIMEOUT;5
TASK_BGN;TASK-01;
;TYPE;QUE
;WAIT-ACK;YES
;DEST;7300
;CMD;SAPCC
;TAB;xxx
;SEL;xxx
;FLD;xxx
;DAT;xxx
TASK_END;TASK-01;
STEP_END;STEP-01;
STEP_BGN;STEP-02;
;TIMEOUT;5
TASK_BGN;TASK-01;
;TYPE;QUE
;WAIT-ACK;NO
;DEST;7922
;CMD;FRDY
;TAB;Param1
;SEL;*DEF-FILE*
;FLD;Param3
;DAT;Param4
TASK_END;TASK-01;
STEP_END;STEP-02;
PROC_END;PROC-01;
CMDS_END;
CMDS_BGN;PAIDD;
;VALID;YES
PROC_BGN;PROC-01;
;DEF-FILE;xxx
STEP_BGN;STEP-01;
;TIMEOUT;5
TASK_BGN;TASK-01;
;TYPE;QUE
;WAIT-ACK;YES
;DEST;7300
;CMD;PAIDD
;TAB;xxx
;SEL;xxx
;FLD;xxx
;DAT;xxx
TASK_END;TASK-01;
STEP_END;STEP-01;
STEP_BGN;STEP-02;
;TIMEOUT;5
TASK_BGN;TASK-01;
;TYPE;QUE
;WAIT-ACK;NO
;DEST;7922
;CMD;FRDY
;TAB;Param1
;SEL;*DEF-FILE*
;FLD;Param3
;DAT;Param4
TASK_END;TASK-01;
STEP_END;STEP-02;
PROC_END;PROC-01;
CMDS_END;
CMDS_BGN;EBZAR;
;VALID;YES
PROC_BGN;PROC-01;
;DEF-FILE;xxx
STEP_BGN;STEP-01;
;TIMEOUT;5
TASK_BGN;TASK-01;
;TYPE;QUE
;WAIT-ACK;YES
;DEST;7300
;CMD;EBZAR
;TAB;xxx
;SEL;xxx
;FLD;xxx
;DAT;xxx
TASK_END;TASK-01;
STEP_END;STEP-01;
STEP_BGN;STEP-02;
;TIMEOUT;5
TASK_BGN;TASK-01;
;TYPE;QUE
;WAIT-ACK;NO
;DEST;7922
;CMD;FRDY
;TAB;Param1
;SEL;*DEF-FILE*
;FLD;Param3
;DAT;Param4
TASK_END;TASK-01;
STEP_END;STEP-02;
PROC_END;PROC-01;
CMDS_END;
CMDS_BGN;PAIDA;
;VALID;YES
PROC_BGN;PROC-01;
;DEF-FILE;xxx
STEP_BGN;STEP-01;
;TIMEOUT;5
TASK_BGN;TASK-01;
;TYPE;QUE
;WAIT-ACK;YES
;DEST;7300
;CMD;PAIDA
;TAB;xxx
;SEL;xxx
;FLD;xxx
;DAT;xxx
TASK_END;TASK-01;
STEP_END;STEP-01;
STEP_BGN;STEP-02;
;TIMEOUT;5
TASK_BGN;TASK-01;
;TYPE;QUE
;WAIT-ACK;NO
;DEST;7922
;CMD;FRDY
;TAB;Param1
;SEL;*DEF-FILE*
;FLD;Param3
;DAT;Param4
TASK_END;TASK-01;
STEP_END;STEP-02;
PROC_END;PROC-01;
CMDS_END;
CMDS_BGN;MQSTR;
;VALID;YES
PROC_BGN;PROC-01;
;DEF-FILE;xxx
STEP_BGN;STEP-01;
;TIMEOUT;5
TASK_BGN;TASK-01;
;TYPE;SYS
;WAIT-ACK;NO
;DEST;
;CMD;/ceda/etc/MqMon
;TAB;Param1
;SEL;*DEF-FILE*
;FLD;Param3
;DAT;Param4
TASK_END;TASK-01;
STEP_END;STEP-01
PROC_END;PROC-01;
CMDS_END;
CMDS_BGN;WMQMON;
;VALID;YES
PROC_BGN;PROC-01;
;DEF-FILE;xxx
STEP_BGN;STEP-01;
;TIMEOUT;5
TASK_BGN;TASK-01;
;TYPE;SYS
;WAIT-ACK;NO
;DEST;
;CMD;/ceda/etc/wmqmon
;TAB;Param1
;SEL;*DEF-FILE*
;FLD;Param3
;DAT;Param4
TASK_END;TASK-01;
STEP_END;STEP-01
PROC_END;PROC-01;
CMDS_END;
CMDS_BGN;EBZAP;
;VALID;YES
PROC_BGN;PROC-01;
;DEF-FILE;xxx
STEP_BGN;STEP-01;
;TIMEOUT;5
TASK_BGN;TASK-01;
;TYPE;QUE
;WAIT-ACK;YES
;DEST;7300
;CMD;EBZAP
;TAB;xxx
;SEL;xxx
;FLD;xxx
;DAT;xxx
TASK_END;TASK-01;
STEP_END;STEP-01;
STEP_BGN;STEP-02;
;TIMEOUT;5
TASK_BGN;TASK-01;
;TYPE;QUE
;WAIT-ACK;NO
;DEST;7922
;CMD;FRDY
;TAB;Param1
;SEL;*DEF-FILE*
;FLD;Param3
;DAT;Param4
TASK_END;TASK-01;
STEP_END;STEP-02;
PROC_END;PROC-01;
CMDS_END;
CMDS_BGN;SIMPS;
;VALID;YES
PROC_BGN;PROC-01;
;DEF-FILE;xxx
STEP_BGN;STEP-01;
;TIMEOUT;5
TASK_BGN;TASK-01;
;TYPE;QUE
;WAIT-ACK;YES
;DEST;7300
;CMD;SIMPS
;TAB;xxx
;SEL;xxx
;FLD;xxx
;DAT;xxx
TASK_END;TASK-01;
STEP_END;STEP-01;
STEP_BGN;STEP-02;
;TIMEOUT;5
TASK_BGN;TASK-01;
;TYPE;QUE
;WAIT-ACK;NO
;DEST;7922
;CMD;FRDY
;TAB;Param1
;SEL;*DEF-FILE*
;FLD;Param3
;DAT;Param4
TASK_END;TASK-01;
STEP_END;STEP-02;
PROC_END;PROC-01;
CMDS_END;
CMDS_BGN;RELFT;
;VALID;YES
PROC_BGN;PROC-01;
;DEF-FILE;xxx
STEP_BGN;STEP-01;
;TIMEOUT;5
TASK_BGN;TASK-01;
;TYPE;SYS
;WAIT-ACK;NO
;DEST;
;CMD;/ceda/etc/UfisRelFlight.sh
;TAB;xxx
;SEL;xxx
;FLD;xxx
;DAT;xxx
TASK_END;TASK-01;
STEP_END;STEP-01;
PROC_END;PROC-01;
CMDS_END;
