CREATE TABLE CEDA_HOUSEKEEPING (
	TYPE					VARCHAR2(10),
	TABLE_NAME				VARCHAR2(32),
	WHERE_CLAUSE			VARCHAR2(512),
	ARCHIVE_TABLE			VARCHAR2(32),
	RUN_SEQUENCE			NUMBER(3)				NOT NULL,
	MAX_RECORDS_FOR_SELECT	NUMBER(9)				NOT NULL,
	RECORDS_AT_ONCE			NUMBER(9)				NOT NULL,
	URNO_TEMP				CHAR(1),
	FLAT_FILE				CHAR(1),
	FLAT_FILE_DIR			VARCHAR2(128),
	ACTIVE					CHAR(1) )
  tablespace CEDAARCHIVE
  pctfree 10
  initrans 1
  maxtrans 255
  storage
  (
    initial 1M
    next 1M
    minextents 1
    maxextents unlimited
    pctincrease 0
  );
COMMENT ON COLUMN CEDA_HOUSEKEEPING.TYPE
IS 'ARCHIVE or DELETE';
COMMENT ON COLUMN CEDA_HOUSEKEEPING.TABLE_NAME
IS 'Source table';
COMMENT ON COLUMN CEDA_HOUSEKEEPING.WHERE_CLAUSE
IS 'Condition';
COMMENT ON COLUMN CEDA_HOUSEKEEPING.ARCHIVE_TABLE
IS 'Destination table should start with ARCH_xxx for TYPE=ARCHIVE and is empty for TYPE=DELETE';
COMMENT ON COLUMN CEDA_HOUSEKEEPING.RUN_SEQUENCE
IS 'Sortorder lowest entry is archived firsrt';
COMMENT ON COLUMN CEDA_HOUSEKEEPING.MAX_RECORDS_FOR_SELECT
IS 'Max records served in a loop until EOF';
COMMENT ON COLUMN CEDA_HOUSEKEEPING.RECORDS_AT_ONCE
IS 'Records archived in single COMMIT, otherwise archiving record by record';
COMMENT ON COLUMN CEDA_HOUSEKEEPING.URNO_TEMP
IS 'Y/J or N if temporaer table urno_temp holds only urnos';
COMMENT ON COLUMN CEDA_HOUSEKEEPING.FLAT_FILE
IS 'Y/J or N archive into flat file?';
COMMENT ON COLUMN CEDA_HOUSEKEEPING.FLAT_FILE_DIR
IS 'Directory where to put archive flat file?';
COMMENT ON COLUMN CEDA_HOUSEKEEPING.ACTIVE
IS 'Y/J or N this record is included in archive process?';
/
