AC;ANU;DC;DNU;HF;MHF;HT;MHT;M;T;W;H;F;S;U;SEN;TYP;AFR;BFR;AH;AM;DH;DM;V;ADE;BDE;FY;Q;REQUEST;DARXH;DTELOS;AORA;TORA;NOA;AATERM;DEPTERM;ARRDIS;DEPDIS;ARRREASON;DEPREASON;ARRREQ;DEPREQ;ACBODY;ACTION
LH ;1000;;;17;APR;22;APR;1;;3;;;;;;312;FRA;FRA;12;00;;;;;;P ;1;;17/04/02;22/04/02;;;;;;;;;;;;;
LH ;1000;;;19;APR;19;APR;;;;;5;;;;312;FRA;FRA;13;00;;;;;;P ;1;;19/04/02;19/04/02;;;;;;;;;;;;;
LH ;2000;;;23;APR;23;APR;;2;;;;;;;312;FRA;FRA;13;00;;;;;;P ;1;;23/04/02;23/04/02;;;;;;;;;;;;;
LH ;2000;;;19;APR;19;APR;;;;;5;;;;312;FRA;FRA;13;30;;;;;;P ;1;;19/04/02;19/04/02;;;;;;;;;;;;;
LH ;5000;;;22;APR;22;APR;1;;;;;;;;312;FRA;FRA;15;00;;;;;;P ;1;;22/04/02;22/04/02;;;;;;;;;;;;;
;;JA ;4711;18;APR;18;APR;;;;4;;;;;;;;;;06;06;;AMS;AMS; P;1;;18/04/02;18/04/02;;;;;;;;;;;;;
;;LH ;1001;17;APR;17;APR;;;3;;;;;;312;;;;;13;00;;FRA;FRA; P;1;;17/04/02;17/04/02;;;;;;;;;;;;;
;;LH ;1001;19;APR;19;APR;;;;;5;;;;312;;;;;14;00;;FRA;FRA; P;1;;19/04/02;19/04/02;;;;;;;;;;;;;
;;LH ;1001;23;APR;23;APR;;2;;;;;;;312;;;;;14;00;;FRA;FRA; P;1;;23/04/02;23/04/02;;;;;;;;;;;;;
;;LH ;4001;22;APR;22;APR;1;;;;;;;;312;;;;;14;30;;FRA;FRA; P;1;;22/04/02;22/04/02;;;;;;;;;;;;;
;;LH ;4711;18;APR;18;APR;;;;4;;;;;;;;;;16;29;;AUH;AUH; P;1;;18/04/02;18/04/02;;;;;;;;;;;;;
LH ; 100;LH ; 101;07;MAY;07;MAY;;2;;;;;;;312;MEL;BOM;09;00;10;00;;BOM;MEL;PP;1;;07/05/02;07/05/02;;;;;;;;;;;;;
LH ;1000;LH ;1001;16;APR;16;APR;;2;;;;;;;312;FRA;FRA;12;00;13;00;;FRA;FRA;PP;1;;16/04/02;16/04/02;;;;;;;;;;;;;
LH ;2000;LH ;2001;17;APR;17;APR;;;3;;;;;;312;FRA;FRA;12;15;13;15;;FRA;FRA;PP;1;;17/04/02;17/04/02;;;;;;;;;;;;;
LH ;2000;LH ;2001;22;APR;22;APR;1;;;;;;;;312;FRA;FRA;12;30;14;30;;FRA;FRA;PP;1;;22/04/02;22/04/02;;;;;;;;;;;;;
LH ;3000;LH ;3000;19;APR;19;APR;;;;;5;;;;312;FRA;FRA;06;00;16;00;;FRA;FRA;PP;1;;19/04/02;19/04/02;;;;;;;;;;;;;
LH ;3000;LH ;3001;17;APR;17;APR;;;3;;;;;;312;FRA;FRA;12;30;13;30;;FRA;FRA;PP;1;;17/04/02;17/04/02;;;;;;;;;;;;;
LH ;3000;LH ;3001;22;APR;22;APR;1;;;;;;;;312;FRA;FRA;13;00;16;00;;FRA;FRA;PP;1;;22/04/02;22/04/02;;;;;;;;;;;;;
LH ;4000;LH ;4000;19;APR;19;APR;;;;;5;;;;312;FRA;FRA;06;30;17;30;;FRA;FRA;PP;1;;19/04/02;19/04/02;;;;;;;;;;;;;
LH ;7000;LH ;7001;22;APR;22;APR;1;;;;;;;;312;FRA;FRA;12;00;13;00;1;FRA;FRA;PP;1;;22/04/02;22/04/02;;;;;;;;;;;;;
LH ;8000;LH ;8001;22;APR;22;APR;1;;;;;;;;312;FRA;FRA;12;15;13;15;1;FRA;FRA;PP;1;;22/04/02;22/04/02;;;;;;;;;;;;;
LH ;9000;LH ;9001;22;APR;22;APR;1;;;;;;;;312;FRA;FRA;12;30;13;30;;FRA;FRA;PP;1;;22/04/02;22/04/02;;;;;;;;;;;;;

