4000,DE,CM,"OK"
4001,DE,CM,"Ende"
4002,DE,CM,"Hallo - DE"
4002,EN,CM,"Hallo - EN"
4002,NL,CM,"Hallo - NL"
4003,DE,CM,"Neuer Eintrag hier..."
2000,DE,UM,"0000000000000000000"
2001,DE,UM,"11111111111111111"
2002,DE,UM,"22222222 22222222"
2002,EL,UM,"%d Testentraege von %s"
2003,DE,UM,"333333 333333"
2004,DE,UM,"444444444444444444"
2005,DE,UM,"5555555555555"
2006,DE,UM,"666666666666666"
2007,DE,UM,"777777777777777"
2008,DE,UM,"8888888888888888"
2009,DE,UM,"99999999999999999"
2010,DE,UM,"Diese %d Message wird %s geschrieben %f"
1,DE,EM,"Trace %d '%s'"
2,DE,EM,"CEDA will terminate in 1 min."
4,DE,EM,"TRACE ERROR"
5,DE,EM,"TRACE ERROR"
6,DE,EM,"Shutdown request received"
7,DE,EM,"Reset request received"
8,DE,EM,"System status switch."
9,DE,EM,"System now in status : %s. Orig=%d"
10,DE,EM,"%s"
51,DE,EM,"Error starting child %s"
52,DE,EM,"Spawn Error"
53,DE,EM,"Child %s terminated"
54,DE,EM,"Restarting %s"
55,DE,EM,"Child %s keeps dying"
101,DE,EM,"System error no. %d . Progress : %s"
102,DE,EM,"Internal error %d. (%s)"
103,DE,EM,"%d Messages switched in 20 minutes"
104,DE,EM,"Invalid function received %d"
105,DE,EM,"Queue added. ID : %d Owner : %s"
106,DE,EM,"Queue deleted. ID : %d"
107,DE,EM,"Route not found. ID : %d"
108,DE,EM,"Route added. ID : %d"
109,DE,EM,"Route deleted. ID : %d"
110,DE,EM,"Item with ORIGINATOR = 0 received."
111,DE,EM,"Error accessing %s recno : %d."
112,DE,EM,"No activity:%s total:%d"
113,DE,EM,"Missing ACK QUEUE ID : %d"
114,DE,EM,"No ACK QUEUE ID : %d"
115,DE,EM,"Rebuild failed ! Queue destroyed ID : %d"
119,DE,EM,"Consistent error QUEUE ID : %d"
120,DE,EM,"Que_Get error!!! %s %d"
121,DE,EM,"Queue corrupt, Rebuilding ID : %d"
151,DE,EM,"%d broadcasts sent"
301,DE,EM,"LOGIN  OK: USER <%s> WKS <%s> APPL <%s>"
302,DE,EM,"ACCESS DENIED: USER <%s> WKS <%s> APPL <%s>"
303,DE,EM,"LOGOFF OK: USER <%s> WKS <%s> APPL <%s>"
201,DE,EM,"Shared Memory Overflow for Table %s"
251,DE,EM,"SYSLIB-Complete Shared Memory for Project %s created."
252,DE,EM,"SYSLIB-Creation of complete Shared Memory for Project %s failed."
253,DE,EM,"SYSLIB-Complete Shared Memory for Project %s deleted."
254,DE,EM,"SYSLIB-Cannot attach SSM for Project %s. SSM permanently in Reorg Mode."
255,DE,EM,"SYSLIB-Cannot reorg SSM for Project %s. SSM permanently attached."
256,DE,EM,"SYSLIB-Data Shared Memory for Project %s reorganized."
257,DE,EM,"SYSLIB-Reorganization of Data Shared Memory for Project %s failed."
414,DE,EM,"Event scheduled, Dest = %d"
500,DE,EM,"Wrong Input Command %d"
501,DE,EM,"Queue Create failed with Code %d"
502,DE,EM,"Queue Response failed with Code %d"
503,DE,EM,"CONFIG ERROR %s"
504,DE,EM,"CONFIG ERROR %s %d"
505,DE,EM,"Queue Error, Code %d"
506,DE,EM,"DATABASE ERROR %s %d"
507,DE,EM,"Failed to open PrintFile %s"
508,DE,EM,"System Command %s returns Error Code %d"
509,DE,EM,"No Printers defined"
510,DE,EM,"No Output Lines defined"
511,DE,EM,"URNO not found in Field String %s"
512,DE,EM,"Writing line to Print File failed for Line %d"
513,DE,EM,"ErrorMessage (%s) from dest: %d"
514,DE,EM,"Open Connection: %s"
515,DE,EM,"Close Connection: %s"
516,DE,EM,"Write Error %s to Client"
651,DE,EM,"ToolSendSql for Command %s failed, code = %d"
652,DE,EM,"General Queing Error, Code = %d"
653,DE,EM,"QUE_CREATE failed, <%s> code = %d"
654,DE,EM,"QUE_RESPONSE failed, <%s> code = %d"
655,DE,EM,"General Error in Routine <%s>, code = %d"
656,DE,EM,"Input Command %s with wrong System Status %d"
657,DE,EM,"Wrong Input Command %s"
658,DE,EM,"Gate Entry %s not found"
659,DE,EM,"Write to %s Config file failed"
660,DE,EM,"Reading initial flight for position %s failed, code = %d"
661,DE,EM,"Status Error, Gate %s with Status %d"
662,DE,EM,"Gate %s not found in adshdl data structure"
663,DE,EM,"Reading next flight for position %s failed, code = %d"
664,DE,EM,"Wrong UFR Command Code %d"
665,DE,EM,"Field %s not found in Input Buffer"
666,DE,EM,"Read from Data Base with Special key (SKEY = %s) failed, code = %d"
667,DE,EM,"Insert Position %s Failed with code %d"
668,DE,EM,"Wrong ADS Send Command, code = %d"
669,DE,EM,"Maximum number of positions (%d) already allocated"
670,DE,EM,"Read position %s failed, code = %d"
671,DE,EM,"Send Update to flight failed for Gate %s, code = %d"
672,DE,EM,"Wrong Configuration mode: when %s mode = %d"
673,DE,EM,"Time Schedular Error for gate %s in mode %d"
674,DE,EM,"Wrong Read Mode %d"
675,DE,EM,"Wrong Mode in Form Data Routine, Code is %d"
676,DE,EM,"Wrong Mode for Reset Data Structures, Code is %d"
677,DE,EM,"Error reading %s of configuration file"
