Timetable booklet /Arrival/ (S2002: 31.03.2002 - 26.10.2002)
--------------------------------------------------------------------
BKK,Bangkok                         ,I,+0700
--------------------------------------------------------------------
20020507,20020507,weekly,.2.....,BKK,1500,1200,DXB,DLH,100  , ,312,1
--------------------------------------------------------------------
BOM,Mumbai (Bombay)                 ,I,+0530
--------------------------------------------------------------------
20020507,20020507,weekly,.2.....,BOM,1530,VABB,DXB,DLH,100  , ,312,0
--------------------------------------------------------------------
FRA,Frankfurt Rhein/Main Airport    ,I,+0200
--------------------------------------------------------------------
20020419,20020419,weekly,....5..,FRA,0600,1000,DXB,DLH,3000 , ,312,0
20020419,20020419,weekly,....5..,FRA,0600,1030,DXB,DLH,4000 , ,312,0
20020416,20020422,weekly,123....,FRA,1200,1600,DXB,DLH,1000 , ,312,0
20020422,20020422,weekly,1......,FRA,1200,1600,DXB,DLH,7000 , ,312,0
20020417,20020417,weekly,..3....,FRA,1215,1615,DXB,DLH,2000 , ,312,0
20020422,20020422,weekly,1......,FRA,1200,1615,DXB,DLH,8000 , ,312,0
20020422,20020422,weekly,1......,FRA,1230,1630,DXB,DLH,2000 , ,312,0
20020417,20020417,weekly,..3....,FRA,1230,1630,DXB,DLH,3000 , ,312,0
20020422,20020422,weekly,1......,FRA,1200,1630,DXB,DLH,9000 , ,312,0
20020419,20020419,weekly,....5..,FRA,1400,1700,DXB,DLH,1000 , ,312,0
20020423,20020423,weekly,.2.....,FRA,1300,1700,DXB,DLH,2000 , ,312,0
20020422,20020422,weekly,1......,FRA,1300,1700,DXB,DLH,3000 , ,312,0
20020419,20020419,weekly,....5..,FRA,1430,1730,DXB,DLH,2000 , ,312,0
20020422,20020422,weekly,1......,FRA,1000,1900,DXB,DLH,5000 , ,312,0
--------------------------------------------------------------------
MEL,Melbourne                       ,I,+1000
--------------------------------------------------------------------
20020507,20020507,weekly,.2.....,MEL,1400,1300,DXB,DLH,100  , ,312,2
--------------------------------------------------------------------

