Timetable booklet /Arrival/ (W2001: 28.10.2001 - 30.03.2002)
--------------------------------------------------------------------
ABD,Abadan                          ,.,+0400
--------------------------------------------------------------------
20020101,20020129,weekly,.2..5..,ABD,    ,2359,DXB,IRC,6737 , ,AT7,0
--------------------------------------------------------------------
ADB,Izmir                           ,.,+0200
--------------------------------------------------------------------
20020102,20020130,weekly,..3....,ADB,    ,0825,DXB,FDX,5042 , ,313,0
20020104,20020113,weekly,....567,ADB,    ,1345,DXB,FDX,5042 , ,313,0
20020114,20020128,weekly,1...567,ADB,    ,1345,DXB,FDX,5042 , ,313,0
20020107,20020107,weekly,1......,ADB,    ,1345,DXB,FDX,5042 ,P,313,0
--------------------------------------------------------------------
ADD,Addis Ababa                     ,I,+0300
--------------------------------------------------------------------
20020101,20020129,weekly,.2....7,ADD,    ,1600,DXB,ETH,3612 , ,70F,0
20020105,20020126,weekly,.....6.,ADD,    ,1730,DXB,ETH,632  , ,763,0
20020107,20020128,weekly,1......,ADD,    ,1730,DXB,ETH,652  , ,763,0
20020104,20020125,weekly,....5..,ADD,    ,1800,DXB,ETH,622  , ,752,0
20020101,20020129,weekly,.2.....,ADD,    ,1800,DXB,ETH,662  , ,752,0
20020103,20020124,weekly,...4...,ADD,    ,1900,DXB,ETH,612  , ,763,1
20020102,20020130,weekly,..3....,ADD,    ,1930,DXB,ETH,672  , ,752,1
20020106,20020127,weekly,......7,ADD,    ,1945,DXB,ETH,642  , ,752,1
20020103,20020124,weekly,...4...,ADD,    ,2100,DXB,ETH,3612 , ,70F,0
--------------------------------------------------------------------
ADE,Aden                            ,I,+0400
--------------------------------------------------------------------
20020105,20020126,weekly,.....6.,ADE,    ,    ,DXB,IYE,804  , ,313,0
--------------------------------------------------------------------
AKJ,AlKharj                         ,.,+????
--------------------------------------------------------------------
20020101,20020130,weekly,.234567,AKJ,    ,1330,DXB,FEC,504  , ,BES,1
--------------------------------------------------------------------
ALG,Algier                          ,I,+0100
--------------------------------------------------------------------
20011201,20011229,weekly,.....6.,ALG,    ,2000,DXB,KZW,6611 , ,313,0
20020101,20020129,weekly,.2.....,ALG,    ,2000,DXB,KZW,6611 , ,313,0
20020105,20020126,weekly,.....6.,ALG,    ,2100,DXB,KZW,611  , ,313,0
20020106,20020127,weekly,......7,ALG,    ,2130,DXB,DAH,4062 , ,738,0
--------------------------------------------------------------------
ALP,Aleppo                          ,I,+????
--------------------------------------------------------------------
20020107,20020107,weekly,1......,ALP,    ,    ,DXB,SYR,2923 , ,320,0
20020107,20020128,weekly,1......,ALP,    ,    ,DXB,SYR,515  , ,72S,0
20020106,20020127,weekly,......7,ALP,    ,1400,DXB,SYR,515  , ,72S,1
--------------------------------------------------------------------
AMM,Amman                           ,I,+0200
--------------------------------------------------------------------
20020101,20020129,weekly,.2.4..7,AMM,    ,    ,DXB,OAL,349  , ,734,0
20011031,20011031,weekly,..3....,AMM,    ,0001,DXB,RJA,082  , ,70F,0
20020105,20020126,weekly,.....6.,AMM,    ,0001,DXB,RJA,082  , ,70F,0
20020104,20020129,weekly,.2..5..,AMM,    ,0045,DXB,RJA,190  , ,313,0
20020103,20020131,weekly,...4...,AMM,    ,0150,DXB,RJA,602  , ,320,0
20011029,20011029,weekly,1......,AMM,    ,0200,DXB,RJA,084  , ,70F,0
20020103,20020131,weekly,...4...,AMM,    ,0200,DXB,RJA,084  , ,70F,0
20020102,20020130,weekly,..3....,AMM,    ,1530,DXB,UAE,904  , ,332,1
20020105,20020126,weekly,.....6.,AMM,    ,1530,DXB,UAE,904  , ,772,1
20020101,20020125,weekly,12..5..,AMM,    ,2115,DXB,UAE,904  , ,332,0
20020128,20020129,weekly,12.....,AMM,    ,2120,DXB,UAE,904  , ,332,0
20020103,20020127,weekly,...4..7,AMM,    ,2140,DXB,UAE,904  , ,332,0
20020101,20020129,weekly,.2.....,AMM,    ,2330,DXB,RJA,608  , ,320,0
20020104,20020127,weekly,....567,AMM,    ,2330,DXB,RJA,608  , ,313,0
--------------------------------------------------------------------
AMS,Amsterdam                       ,I,+0100
--------------------------------------------------------------------
20020101,20020129,weekly,.234.67,AMS,    ,    ,DXB,HDA,501  , ,742,0
20020130,20020130,weekly,..3....,AMS,    ,    ,DXB,HDA,501  , ,742,0
20020102,20020130,weekly,1.3..6.,AMS,    ,0110,DXB,KLM,9165 , ,742,0
20020102,20020130,weekly,..3....,AMS,    ,0155,DXB,UAE,9992 , ,742,0
20020106,20020129,weekly,.2....7,AMS,    ,0320,DXB,UAE,9990 , ,74F,0
20011028,20011028,weekly,......7,AMS,    ,0600,DXB,KLM,427  , ,763,0
20020101,20020130,weekly,1234567,AMS,    ,0600,DXB,KLM,427  , ,763,0
20020103,20020124,weekly,...4...,AMS,    ,0905,DXB,SIA,7379 , ,74F,0
20020112,20020112,weekly,.....6.,AMS,    ,1358,DXB,DLH,4711 ,A,   ,0
20020101,20020129,weekly,.2.....,AMS,    ,1845,DXB,SIA,7375 , ,74F,0
20020106,20020127,weekly,......7,AMS,    ,2150,DXB,SIA,7375 , ,74F,0
20020101,20020130,weekly,1234567,AMS,    ,2240,DXB,KLM,421  , ,763,0
20020102,20020130,weekly,..3....,AMS,    ,2315,DXB,UAE,9990 , ,74F,0
--------------------------------------------------------------------
ASM,Asmara                          ,I,+????
--------------------------------------------------------------------
20020106,20020127,weekly,......7,ASM,    ,2130,DXB,DAO,188  , ,TU5,1
--------------------------------------------------------------------
ATH,Athen                           ,I,+0200
--------------------------------------------------------------------
20020106,20020129,weekly,.2....7,ATH,    ,0120,DXB,OAL,345  , ,734,0
20020102,20020130,weekly,1.3.5..,ATH,    ,0200,DXB,OAL,349  , ,734,1
20020103,20020131,weekly,...4.6.,ATH,    ,0255,DXB,OAL,347  , ,734,1
20020209,20020209,weekly,.....6.,ATH,    ,1200,DXB,MPH,111  , ,744,0
20011204,20011204,weekly,.2.....,ATH,1300,1620,DXB,MPH,333  , ,744,0
20011204,20011204,weekly,.2.....,ATH,    ,1800,DXB,MPH,111  , ,744,0
20020101,20020129,weekly,12.4.6.,ATH,    ,2330,DXB,UAE,028  , ,AB6,1
--------------------------------------------------------------------
AUH,Abu Dhabi                       ,I,+0400
--------------------------------------------------------------------
20020103,20020124,weekly,...4...,AUH,    ,    ,DXB,AIC,701  , ,742,1
20020106,20020127,weekly,......7,AUH,    ,    ,DXB,AIC,727  , ,312,0
20020106,20020127,weekly,......7,AUH,    ,    ,DXB,AIC,747  , ,742,0
20011028,20011028,weekly,......7,AUH,    ,    ,DXB,AIC,941  , ,AB4,0
20020102,20020130,weekly,..3....,AUH,    ,    ,DXB,AIC,941  , ,AB4,0
20020104,20020125,weekly,....5..,AUH,    ,    ,DXB,RSO,434  , ,YK2,0
20020102,20020130,weekly,..3....,AUH,    ,    ,DXB,RSO,523  , ,YK2,0
20020106,20020127,weekly,......7,AUH,    ,    ,DXB,RSO,733  , ,YK2,0
20020107,20020128,weekly,1......,AUH,    ,    ,DXB,SAI,312  , ,TU5,0
20020102,20020130,weekly,..3....,AUH,    ,    ,DXB,UAE,904  , ,332,0
20020105,20020126,weekly,.....6.,AUH,    ,    ,DXB,UAE,904  , ,772,0
20020104,20020125,weekly,....5..,AUH,    ,    ,DXB,UAE,952  , ,772,0
20020104,20020125,weekly,....5..,AUH,    ,0005,DXB,GFA,604  , ,320,0
20020102,20020131,weekly,..34.67,AUH,    ,0050,DXB,GFA,602  , ,320,0
20020102,20020131,weekly,1234567,AUH,    ,0055,DXB,DLH,633  , ,343,0
20020103,20020124,weekly,...4...,AUH,    ,0740,DXB,RJA,603  , ,320,0
20020107,20020128,weekly,1......,AUH,    ,2215,DXB,GFA,600  , ,320,0
--------------------------------------------------------------------
AWZ,Ahwaz                           ,I,+0400
--------------------------------------------------------------------
20020106,20020127,weekly,......7,AWZ,    ,1040,DXB,IRA,675  , ,72S,0
--------------------------------------------------------------------
BAH,Bahrain                         ,I,+0300
--------------------------------------------------------------------
20020102,20020130,weekly,..3.56.,BAH,    ,    ,DXB,CPA,733  , ,772,0
20020106,20020127,weekly,......7,BAH,    ,    ,DXB,CYP,382  , ,320,0
20020107,20020128,weekly,1......,BAH,    ,    ,DXB,DSR,605  , ,D1F,0
20020105,20020126,weekly,.....6.,BAH,    ,    ,DXB,IYE,820  , ,72S,0
20020108,20020129,weekly,.2.....,BAH,    ,0045,DXB,IRC,6955 , ,AT7,0
20020102,20020131,weekly,1234567,BAH,    ,0230,DXB,DHX,021  , ,SWM,0
20020103,20020131,weekly,.2.4...,BAH,    ,0305,DXB,FEC,102  , ,BES,0
20020102,20020131,weekly,1234567,BAH,    ,0345,DXB,DHX,022  , ,SWM,0
20020101,20020130,weekly,1234567,BAH,    ,0940,DXB,GFA,500  , ,320,0
20020102,20020130,weekly,..3....,BAH,    ,1030,DXB,DHX,1023 , ,AB3,0
20020101,20020129,weekly,.2.....,BAH,    ,1125,DXB,UAE,242  , ,772,0
20020102,20020130,weekly,1.3....,BAH,    ,1125,DXB,UAE,242  , ,313,0
20020103,20020127,weekly,...4567,BAH,    ,1125,DXB,UAE,242  , ,332,0
20020101,20020129,weekly,.2..5..,BAH,    ,1250,DXB,IRB,9807 , ,TU5,0
20020101,20020113,weekly,.23.5.7,BAH,    ,1350,DXB,GFA,502  , ,320,0
20020103,20020112,weekly,...4.6.,BAH,    ,1350,DXB,GFA,502  , ,763,0
20020115,20020116,weekly,.23....,BAH,    ,1350,DXB,GFA,502  , ,320,0
20020117,20020129,weekly,.2.4567,BAH,    ,1350,DXB,GFA,502  , ,763,0
20020123,20020130,weekly,..3....,BAH,    ,1350,DXB,GFA,502  , ,320,0
20020107,20020128,weekly,1......,BAH,    ,1355,DXB,GFA,502  , ,763,0
20020103,20020128,weekly,1..4567,BAH,    ,1430,DXB,DHX,1023 , ,752,0
20020105,20020105,weekly,.....6.,BAH,    ,1545,DXB,DLH,504  , ,320,0
20020112,20020126,weekly,.....6.,BAH,    ,1545,DXB,GFA,504  , ,320,0
20020102,20020130,weekly,..3....,BAH,    ,1710,DXB,GFA,504  , ,763,0
20020105,20020126,weekly,.....6.,BAH,    ,1915,DXB,IRC,6955 , ,AT7,0
20020101,20020129,weekly,.2.....,BAH,    ,2000,DXB,DHX,1025 , ,752,0
20020102,20020130,weekly,..3.5..,BAH,    ,2030,DXB,DHX,024  , ,CVR,0
20020103,20020127,weekly,...4.67,BAH,    ,2030,DXB,DHX,024  , ,SWM,0
20020101,20020129,weekly,.2..5.7,BAH,    ,2200,DXB,UAE,244  , ,772,0
20020102,20020130,weekly,..3....,BAH,    ,2200,DXB,UAE,244  , ,312,0
20020103,20020128,weekly,1..4.6.,BAH,    ,2200,DXB,UAE,244  , ,332,0
20020101,20020119,weekly,123456.,BAH,    ,2210,DXB,GFA,506  , ,320,0
20020106,20020120,weekly,......7,BAH,    ,2210,DXB,GFA,506  , ,763,0
20020121,20020130,weekly,1234.6.,BAH,    ,2210,DXB,GFA,506  , ,320,0
20020125,20020127,weekly,....5.7,BAH,    ,2210,DXB,GFA,506  , ,763,0
20020103,20020124,weekly,...4...,BAH,    ,2310,DXB,IRC,6955 , ,AT7,0
20020101,20020130,weekly,1234567,BAH,    ,2320,DXB,GFA,508  , ,320,0
--------------------------------------------------------------------
BAK,Baku                            ,I,+????
--------------------------------------------------------------------
20020103,20020128,weekly,1..4.6.,BAK,    ,1100,DXB,AHC,017  , ,IL7,0
20020101,20020129,weekly,.2.4..7,BAK,    ,2330,DXB,AHY,015  , ,752,0
--------------------------------------------------------------------
BBO,Berbera                         ,I,+????
--------------------------------------------------------------------
20020104,20020125,weekly,....5..,BBO,    ,2130,DXB,DAO,188  , ,TU5,0
--------------------------------------------------------------------
BEN,Benghazi                        ,.,+????
--------------------------------------------------------------------
20020103,20020131,weekly,...4...,BEN,    ,0300,DXB,LAA,274  , ,313,0
--------------------------------------------------------------------
BEY,Beirut                          ,I,+0200
--------------------------------------------------------------------
20020105,20020126,weekly,.....6.,BEY,    ,0100,DXB,TMA,223  , ,70F,0
20020102,20020130,weekly,..3.5.7,BEY,    ,0100,DXB,UAE,954  , ,332,0
20020107,20020128,weekly,1......,BEY,    ,0100,DXB,UAE,954  , ,772,0
20020102,20020130,weekly,1.3....,BEY,    ,1500,DXB,UAE,952  , ,332,0
20020104,20020125,weekly,....5..,BEY,    ,1650,DXB,UAE,952  , ,772,1
20020101,20020130,weekly,1234567,BEY,    ,2050,DXB,MEA,428  , ,321,0
--------------------------------------------------------------------
BHX,Birmingham                      ,.,+0000
--------------------------------------------------------------------
20020102,20020131,weekly,1234567,BHX,    ,0005,DXB,UAE,040  , ,332,0
--------------------------------------------------------------------
BKK,Bangkok                         ,I,+0700
--------------------------------------------------------------------
20020101,20020130,weekly,.23..67,BKK,    ,    ,DXB,CPA,751  , ,773,1
20020101,20020129,weekly,.2...6.,BKK,    ,    ,DXB,RBA,033  , ,763,0
20020102,20020130,weekly,.23.5.7,BKK,    ,    ,DXB,UAE,083  , ,772,0
20020104,20020127,weekly,1..4.6.,BKK,    ,    ,DXB,UAE,087  , ,772,0
20020122,20020129,weekly,1......,BKK,    ,    ,DXB,UAE,087  , ,772,0
20020102,20020130,weekly,..3....,BKK,    ,    ,DXB,UAE,9883 , ,742,0
20020102,20020130,weekly,..3....,BKK,    ,0145,DXB,RJA,027  , ,70F,0
20020101,20020129,weekly,.2..5.7,BKK,    ,2140,DXB,THA,517  , ,333,0
--------------------------------------------------------------------
BLR,Bangalore                       ,I,+0500
--------------------------------------------------------------------
20020105,20020126,weekly,.....6.,BLR,    ,    ,DXB,AIC,775  , ,312,0
--------------------------------------------------------------------
BND,Bandar Abbas                    ,I,+????
--------------------------------------------------------------------
20020102,20020130,weekly,..3.5..,BND,    ,1150,DXB,IRA,677  , ,AB3,0
20020106,20020127,weekly,......7,BND,    ,1220,DXB,IRC,6813 , ,AT7,0
20020102,20020130,weekly,..3....,BND,    ,1720,DXB,IRC,6813 , ,AT7,0
20020103,20020124,weekly,...4...,BND,    ,1830,DXB,IRC,6813 , ,AT7,0
--------------------------------------------------------------------
BOM,Mumbai (Bombay)                 ,I,+0530
--------------------------------------------------------------------
20020101,20020129,weekly,.2...6.,BOM,    ,    ,DXB,BBC,029  , ,D10,0
20020107,20020128,weekly,1......,BOM,    ,    ,DXB,CPA,057  , ,742,0
20020101,20020130,weekly,.23..67,BOM,    ,    ,DXB,CPA,751  , ,773,0
20020104,20020125,weekly,....5..,BOM,    ,0015,DXB,AIC,729  , ,312,0
20020105,20020126,weekly,.....6.,BOM,    ,0045,DXB,AIC,757  , ,312,0
20020108,20020129,weekly,.2.....,BOM,    ,0130,DXB,AIC,845  , ,312,0
20020101,20020130,weekly,1234567,BOM,    ,0600,DXB,UAE,501  , ,332,0
20020105,20020126,weekly,.....6.,BOM,    ,0710,DXB,AIC,775  , ,312,1
20020102,20020130,weekly,..3...7,BOM,    ,0730,DXB,EVA,671  , ,M11,0
20020101,20020129,weekly,.2.....,BOM,    ,0905,DXB,AIC,711  , ,AB4,0
20020101,20020130,weekly,.23.5.7,BOM,    ,1115,DXB,UAE,505  , ,332,0
20020101,20020129,weekly,12..567,BOM,    ,1140,DXB,FDX,5034 , ,313,0
20020103,20020126,weekly,...4.6.,BOM,    ,1605,DXB,AIC,717  , ,313,0
20020101,20020129,weekly,.2.....,BOM,    ,1730,DXB,AIC,771  , ,312,1
20020107,20020128,weekly,1......,BOM,    ,1820,DXB,AIC,709  , ,742,1
20020105,20020126,weekly,.....6.,BOM,    ,1840,DXB,AIC,755  , ,742,1
20020103,20020124,weekly,...4...,BOM,    ,1900,DXB,AIC,701  , ,742,2
20020101,20020130,weekly,1234567,BOM,    ,2030,DXB,UAE,503  , ,332,0
20020102,20020130,weekly,..3....,BOM,    ,2045,DXB,AIC,705  , ,742,0
20020106,20020127,weekly,......7,BOM,    ,2045,DXB,AIC,747  , ,742,1
20020105,20020126,weekly,.....6.,BOM,    ,2305,DXB,AIC,765  , ,312,1
20020106,20020127,weekly,......7,BOM,    ,2325,DXB,AIC,963  , ,313,1
--------------------------------------------------------------------
BRU,Bruessels                       ,I,+0100
--------------------------------------------------------------------
20020101,20020129,weekly,12.456.,BRU,    ,    ,DXB,AHK,002  , ,742,0
20020102,20020130,weekly,..3....,BRU,    ,    ,DXB,BBC,010  , ,D10,0
20020106,20020127,weekly,......7,BRU,    ,1725,DXB,AHK,004  , ,742,0
20020102,20020130,weekly,..3....,BRU,    ,1945,DXB,AHK,004  , ,742,0
--------------------------------------------------------------------
BUH,Bukarest-Otopeni                ,I,+0100
--------------------------------------------------------------------
20020103,20020131,weekly,...4...,BUH,    ,0215,DXB,ROT,065  , ,733,1
20020105,20020126,weekly,.....6.,BUH,    ,0215,DXB,ROT,065  , ,313,1
20020107,20020128,weekly,1......,BUH,    ,0220,DXB,ROT,065  , ,733,1
--------------------------------------------------------------------
BUZ,Bushehr                         ,I,+????
--------------------------------------------------------------------
20020101,20020129,weekly,.2.4.6.,BUZ,    ,1400,DXB,IRC,6819 , ,72S,0
20020106,20020127,weekly,......7,BUZ,    ,1730,DXB,IRC,6954 , ,AT7,0
--------------------------------------------------------------------
BWN,Brunei                          ,I,+0800
--------------------------------------------------------------------
20020102,20020130,weekly,.23...7,BWN,    ,0015,DXB,RBA,097  , ,763,0
20020107,20020128,weekly,1......,BWN,    ,0510,DXB,RBA,095  , ,763,1
20020101,20020129,weekly,.2...6.,BWN,    ,1740,DXB,RBA,107  , ,763,2
20020101,20020129,weekly,.2...6.,BWN,    ,2359,DXB,RBA,033  , ,763,1
--------------------------------------------------------------------
CAI,Cairo                           ,I,+0200
--------------------------------------------------------------------
20020102,20020105,weekly,..3..6.,CAI,    ,    ,DXB,DAL,120  , ,M11,0
20020107,20020112,weekly,1....6.,CAI,    ,    ,DXB,DAL,120  , ,M11,0
20020109,20020109,weekly,..3....,CAI,    ,    ,DXB,DAL,120  , ,M11,0
20020114,20020130,weekly,1.3..6.,CAI,    ,    ,DXB,DAL,120  , ,M11,0
20020107,20020107,weekly,1......,CAI,    ,0100,DXB,MSR,912  , ,AB6,0
20020103,20020128,weekly,1..4...,CAI,    ,0945,DXB,MSR,870  , ,AB6,0
20020104,20020125,weekly,....5..,CAI,    ,1400,DXB,MSR,912  , ,AB6,0
20020105,20020126,weekly,.....6.,CAI,    ,1400,DXB,MSR,912  , ,342,0
20020104,20020128,weekly,1...5..,CAI,    ,1430,DXB,KAL,952  , ,332,0
20011028,20011028,weekly,......7,CAI,    ,1515,DXB,MSR,906  , ,320,0
20020102,20020130,weekly,..3....,CAI,    ,1515,DXB,MSR,906  , ,AB6,0
20020113,20020127,weekly,......7,CAI,    ,1530,DXB,MSR,912  , ,AB6,1
20020103,20020128,weekly,1..4.6.,CAI,    ,1840,DXB,SIA,427  , ,773,0
20020107,20020128,weekly,1......,CAI,    ,2315,DXB,MSR,928  , ,AB6,0
20020101,20020130,weekly,123.56.,CAI,    ,2350,DXB,UAE,402  , ,772,0
20020103,20020127,weekly,...4..7,CAI,    ,2350,DXB,UAE,402  , ,332,0
--------------------------------------------------------------------
CCJ,Calicut                         ,I,+????
--------------------------------------------------------------------
20020101,20020129,weekly,.2.4.6.,CCJ,    ,1030,DXB,AIC,921  , ,320,0
20020106,20020127,weekly,......7,CCJ,    ,1245,DXB,AIC,727  , ,312,1
20020106,20020127,weekly,......7,CCJ,    ,1945,DXB,AIC,921  , ,320,0
--------------------------------------------------------------------
CCU,Kolkata                         ,I,+????
--------------------------------------------------------------------
20020101,20020129,weekly,.2...6.,CCU,    ,    ,DXB,RBA,107  , ,763,0
20011031,20011031,weekly,..3....,CCU,    ,2115,DXB,RJA,023  , ,70F,0
20020106,20020127,weekly,......7,CCU,    ,2115,DXB,RJA,023  , ,70F,0
--------------------------------------------------------------------
CDG,Paris Charles de Gaulle         ,I,+0100
--------------------------------------------------------------------
20020103,20020131,weekly,.2.4..7,CDG,    ,0025,DXB,UAE,024  , ,332,0
20020107,20020128,weekly,1......,CDG,    ,0115,DXB,EVA,686  , ,M11,0
20020102,20020130,weekly,..3....,CDG,    ,0125,DXB,EVA,686  , ,M11,0
20020104,20020125,weekly,....5..,CDG,    ,0715,DXB,AFR,6790 , ,742,0
20020101,20020129,weekly,.2.....,CDG,    ,1225,DXB,SIA,7377 , ,744,0
20020103,20020124,weekly,...4...,CDG,    ,1735,DXB,CPA,058  , ,742,0
20020106,20020127,weekly,......7,CDG,    ,1805,DXB,CPA,058  , ,742,0
20020101,20020129,weekly,.2.....,CDG,    ,1815,DXB,CPA,058  , ,742,0
20020102,20020130,weekly,1.3.5..,CDG,    ,2115,DXB,HVN,532  , ,763,0
20020101,20020129,weekly,.2.4.6.,CDG,    ,2115,DXB,HVN,534  , ,763,0
20020101,20020130,weekly,1234567,CDG,    ,2220,DXB,AFR,626  , ,313,0
--------------------------------------------------------------------
CGK,Jakarta-Cengekareng             ,I,+0700
--------------------------------------------------------------------
20020101,20020129,weekly,12.4.6.,CGK,    ,0530,DXB,UAE,077  , ,772,2
--------------------------------------------------------------------
CMB,Colombo                         ,I,+0530
--------------------------------------------------------------------
20020101,20020129,weekly,12.4.6.,CMB,    ,    ,DXB,UAE,077  , ,772,0
20020103,20020124,weekly,...4...,CMB,    ,    ,DXB,UAE,9881 , ,74F,0
20020102,20020130,weekly,.2.....,CMB,    ,0425,DXB,ALK,531  , ,332,0
20020102,20020130,weekly,1.34.6.,CMB,    ,0515,DXB,UAE,815  , ,332,1
20020107,20020128,weekly,1......,CMB,    ,0520,DXB,ALK,531  , ,332,0
20020105,20020126,weekly,.....6.,CMB,    ,0640,DXB,ALK,507  , ,332,0
20020103,20020127,weekly,...4..7,CMB,    ,0740,DXB,ALK,555  , ,332,0
20020101,20020129,weekly,.2....7,CMB,    ,1130,DXB,ALK,507  , ,332,0
20020105,20020126,weekly,.....6.,CMB,    ,1235,DXB,UAE,801  , ,332,0
20020101,20020129,weekly,.2.4...,CMB,    ,1500,DXB,UAE,810  , ,332,1
20020104,20020125,weekly,....5..,CMB,    ,1555,DXB,ALK,227  , ,332,0
20020106,20020127,weekly,.....67,CMB,    ,1610,DXB,ALK,227  , ,332,0
20020105,20020105,weekly,.....6.,CMB,    ,1610,DXB,DLH,227  , ,332,0
--------------------------------------------------------------------
CMN,Casablanca Mohamed              ,I,+0000
--------------------------------------------------------------------
20020101,20020111,weekly,.2..5..,CMN,    ,2355,DXB,RAM,264  , ,752,0
20020115,20020129,weekly,.2.....,CMN,    ,2355,DXB,RAM,264  , ,752,0
--------------------------------------------------------------------
COK,Cochin                          ,I,+????
--------------------------------------------------------------------
20020103,20020124,weekly,...4...,COK,    ,    ,DXB,AIC,701  , ,742,0
20020101,20020129,weekly,.2.....,COK,    ,    ,DXB,AIC,931  , ,AB4,0
20020106,20020127,weekly,......7,COK,    ,    ,DXB,AIC,963  , ,313,0
20011028,20011028,weekly,......7,COK,    ,0610,DXB,AIC,965  , ,312,0
20020102,20020130,weekly,..3....,COK,    ,0610,DXB,AIC,965  , ,312,0
20020104,20020104,weekly,....5..,COK,    ,1535,DXB,AIC,933  , ,AB4,0
20020111,20020111,weekly,....5..,COK,    ,1535,DXB,AIC,933  , ,AB3,0
20020118,20020125,weekly,....5..,COK,    ,1535,DXB,AIC,933  , ,AB4,0
20011028,20011028,weekly,......7,COK,    ,1830,DXB,AIC,941  , ,AB4,1
20020102,20020130,weekly,..3....,COK,    ,1830,DXB,AIC,941  , ,AB4,1
--------------------------------------------------------------------
DAC,Dhaka                           ,I,+0200
--------------------------------------------------------------------
20020102,20020130,weekly,..3.567,DAC,    ,    ,DXB,UAE,063  , ,772,0
20020108,20020129,weekly,.2.....,DAC,    ,0100,DXB,BBC,009  , ,D10,0
20020104,20020125,weekly,....5..,DAC,    ,0115,DXB,BBC,001  , ,D10,0
20020107,20020128,weekly,1......,DAC,    ,0115,DXB,BBC,047  , ,D10,0
20020108,20020129,weekly,.2.....,DAC,    ,0115,DXB,BBC,051  , ,313,0
20020108,20020129,weekly,.2.....,DAC,    ,0315,DXB,BBC,003  , ,D10,0
20020106,20020127,weekly,......7,DAC,    ,0315,DXB,BBC,007  , ,D10,0
20020102,20020130,weekly,.2.....,DAC,    ,0415,DXB,BBC,005  , ,D10,0
20020103,20020124,weekly,...4...,DAC,    ,0515,DXB,BBC,057  , ,313,0
20020105,20020126,weekly,.....6.,DAC,    ,0700,DXB,BBC,015  , ,313,0
20020107,20020128,weekly,1......,DAC,    ,0700,DXB,BBC,017  , ,313,0
20020106,20020128,weekly,1.....7,DAC,    ,1235,DXB,UAE,613  , ,772,0
20020105,20020126,weekly,.....6.,DAC,    ,1420,DXB,UAE,613  , ,772,0
20020107,20020128,weekly,1......,DAC,    ,1430,DXB,IRA,610  , ,74L,0
20020101,20020129,weekly,.2.4...,DAC,    ,1515,DXB,UAE,611  , ,772,1
20020101,20020129,weekly,.2...6.,DAC,    ,2240,DXB,BBC,029  , ,D10,1
--------------------------------------------------------------------
DAM,Damaskus                        ,I,+0200
--------------------------------------------------------------------
20020104,20020125,weekly,....5..,DAM,    ,    ,DXB,CLX,780  , ,744,0
20020101,20020129,weekly,.2.....,DAM,    ,    ,DXB,CLX,796  , ,744,0
20020106,20020127,weekly,......7,DAM,    ,    ,DXB,SYR,515  , ,72S,0
20020105,20020126,weekly,.....6.,DAM,    ,0100,DXB,SYR,525  , ,72S,0
20020108,20020108,weekly,.2.....,DAM,    ,0130,DXB,SYR,2923 , ,320,1
20020101,20020129,weekly,.2.....,DAM,    ,1430,DXB,SYR,515  , ,72S,0
20020107,20020128,weekly,1......,DAM,    ,1500,DXB,SYR,515  , ,72S,1
20020101,20020129,weekly,.2.4567,DAM,    ,2130,DXB,UAE,912  , ,313,0
--------------------------------------------------------------------
DAR,Dar es Salaam                   ,I,+0300
--------------------------------------------------------------------
20020102,20020131,weekly,1.34.6.,DAR,    ,0025,DXB,UAE,422  , ,772,1
--------------------------------------------------------------------
DEL,New Delhi                       ,I,+0530
--------------------------------------------------------------------
20020105,20020126,weekly,.....6.,DEL,    ,    ,DXB,AIC,765  , ,312,0
20020102,20020130,weekly,1.34.6.,DEL,    ,0615,DXB,UAE,703  , ,332,0
20020102,20020130,weekly,..3....,DEL,    ,1050,DXB,AIC,725  , ,313,0
20020101,20020129,weekly,.2..5.7,DEL,    ,1145,DXB,UAE,701  , ,332,0
20020104,20020125,weekly,....5..,DEL,    ,2145,DXB,AIC,723  , ,744,0
--------------------------------------------------------------------
DMM,Dammam                          ,I,+0300
--------------------------------------------------------------------
20020108,20020129,weekly,.2.....,DMM,    ,0125,DXB,UAE,322  , ,772,0
20020101,20020130,weekly,1234567,DMM,    ,1915,DXB,SVA,556  , ,M90,0
20020103,20020126,weekly,...4.6.,DMM,    ,2010,DXB,UAE,322  , ,332,0
--------------------------------------------------------------------
DNK,Dnepropetrovsk                  ,I,+0200
--------------------------------------------------------------------
20020106,20020127,weekly,......7,DNK,    ,0035,DXB,UDN,201  , ,YK2,1
--------------------------------------------------------------------
DOH,Doha                            ,I,+0400
--------------------------------------------------------------------
20020103,20020131,weekly,...45.7,DOH,    ,0015,DXB,GFA,574  , ,320,0
20020102,20020131,weekly,1.345.7,DOH,    ,0105,DXB,UAE,226  , ,332,0
20020105,20020129,weekly,.2...6.,DOH,    ,0105,DXB,UAE,226  , ,772,0
20020104,20020125,weekly,....5..,DOH,    ,0330,DXB,BBC,026  , ,D10,0
20020101,20020130,weekly,1234567,DOH,    ,1015,DXB,GFA,570  , ,320,0
20020101,20020130,weekly,.234567,DOH,    ,1015,DXB,QTR,104  , ,AB6,0
20020107,20020128,weekly,1......,DOH,    ,1015,DXB,QTR,104  , ,320,0
20020102,20020130,weekly,..3....,DOH,    ,1500,DXB,QTR,110  , ,AB6,0
20020104,20020125,weekly,....5..,DOH,    ,1500,DXB,QTR,110  , ,320,0
20020105,20020105,weekly,.....6.,DOH,    ,1700,DXB,DLH,224  , ,772,0
20020101,20020129,weekly,12.....,DOH,    ,1700,DXB,QTR,112  , ,320,0
20020106,20020127,weekly,......7,DOH,    ,1700,DXB,QTR,112  , ,AB6,0
20020101,20020106,weekly,.2.45.7,DOH,    ,1700,DXB,UAE,224  , ,772,0
20020102,20020109,weekly,..3....,DOH,    ,1700,DXB,UAE,224  , ,313,0
20020108,20020113,weekly,.2.4.67,DOH,    ,1700,DXB,UAE,224  , ,772,0
20020111,20020111,weekly,....5..,DOH,    ,1700,DXB,UAE,224  , ,772,0
20020115,20020120,weekly,.2.4567,DOH,    ,1700,DXB,UAE,224  , ,772,0
20020116,20020116,weekly,..3....,DOH,1500,1700,DXB,UAE,224  , ,343,0
20020122,20020125,weekly,.2345..,DOH,1500,1700,DXB,UAE,224  , ,343,0
20020126,20020129,weekly,.2...67,DOH,    ,1700,DXB,UAE,224  , ,772,0
20020130,20020130,weekly,..3....,DOH,    ,1700,DXB,UAE,224  , ,313,0
20020101,20020130,weekly,1234567,DOH,    ,1740,DXB,GFA,572  , ,320,0
20020105,20020126,weekly,.....6.,DOH,    ,1830,DXB,QTR,112  , ,AB6,0
20020103,20020124,weekly,...4...,DOH,    ,1900,DXB,QTR,112  , ,AB6,0
20020107,20020114,weekly,1......,DOH,    ,2020,DXB,UAE,224  , ,313,0
20020121,20020121,weekly,1......,DOH,1820,2020,DXB,UAE,224  , ,343,0
20020128,20020128,weekly,1......,DOH,    ,2020,DXB,UAE,224  , ,313,0
20020101,20020130,weekly,123....,DOH,    ,2305,DXB,QTR,118  , ,AB6,0
20020103,20020127,weekly,...4567,DOH,    ,2305,DXB,QTR,118  , ,320,0
--------------------------------------------------------------------
DUS,Duesseldorf                     ,I,+0100
--------------------------------------------------------------------
20020101,20020130,weekly,1234567,DUS,    ,2335,DXB,UAE,022  , ,313,0
--------------------------------------------------------------------
EBB,Entebbe                         ,I,+0300
--------------------------------------------------------------------
20020104,20020129,weekly,.2..5.7,EBB,    ,0025,DXB,UAE,424  , ,772,1
--------------------------------------------------------------------
EVN,Eriwan                          ,I,+0400
--------------------------------------------------------------------
20020105,20020126,weekly,.....6.,EVN,    ,    ,DXB,UDN,201  , ,YK2,0
20020107,20020128,weekly,1......,EVN,    ,2055,DXB,RME,311  , ,TU5,0
20020104,20020125,weekly,....5..,EVN,    ,2105,DXB,RME,311  , ,TU3,0
--------------------------------------------------------------------
EWR,Newark                          ,I,-0500
--------------------------------------------------------------------
20020101,20020129,weekly,.2.4.6.,EWR,    ,0815,DXB,MAS,091  , ,772,0
--------------------------------------------------------------------
FCO,Rome (Fiumicino IntI.)          ,I,+0100
--------------------------------------------------------------------
20020102,20020130,weekly,1.34...,FCO,    ,    ,DXB,UAE,018  , ,332,0
20020102,20020130,weekly,1.3..67,FCO,    ,0045,DXB,UAE,019  , ,332,1
--------------------------------------------------------------------
FJR,Fujairah                        ,I,+????
--------------------------------------------------------------------
20020113,20020127,weekly,......7,FJR,    ,    ,DXB,MSR,912  , ,AB6,0
20020102,20020130,weekly,..3....,FJR,    ,2205,DXB,GFA,585  , ,320,0
--------------------------------------------------------------------
FRA,Frankfurt Rhein/Main Airport    ,I,+0100
--------------------------------------------------------------------
20020101,20020129,weekly,.2.4...,FRA,    ,    ,DXB,RNA,230  , ,752,0
20020106,20020127,weekly,......7,FRA,    ,    ,DXB,RNA,232  , ,752,0
20020102,20020130,weekly,..3....,FRA,    ,0515,DXB,CPA,066  , ,742,0
20011211,20011214,weekly,.2345..,FRA,0700,1200,DXB,DLH,900  , ,737,0
20011211,20011214,weekly,.2345..,FRA,0800,1300,DXB,DLH,1000 , ,737,0
20011211,20011214,weekly,.2345..,FRA,0900,1400,DXB,DLH,1100 , ,737,0
20011211,20011213,weekly,.234...,FRA,1000,1500,DXB,DLH,1200 , ,343,0
20011214,20011214,weekly,....5..,FRA,1000,1500,DXB,DLH,1200 , ,737,0
20011220,20011220,weekly,...4...,FRA,1000,1500,DXB,RYR,232  , ,343,0
20011211,20011213,weekly,.234...,FRA,1100,1600,DXB,DLH,1300 , ,343,0
20011214,20011214,weekly,....5..,FRA,1100,1600,DXB,DLH,1300 , ,737,0
20020218,20020218,weekly,1......,FRA,1200,1700,DXB,DLH,110  , ,343,0
20020219,20020222,weekly,.2345..,FRA,1200,1700,DXB,DLH,110  , ,737,0
20011211,20011213,weekly,.234...,FRA,1200,1700,DXB,DLH,1400 , ,343,0
20011214,20011214,weekly,....5..,FRA,1200,1700,DXB,DLH,1400 , ,737,0
20020102,20020130,weekly,1.3..67,FRA,    ,1730,DXB,CPA,068  , ,742,0
20011211,20011214,weekly,.2345..,FRA,1300,1800,DXB,DLH,1500 , ,737,0
20020228,20020228,weekly,...4...,FRA,1400,1900,DXB,DLH,110  , ,737,0
20011211,20011214,weekly,.2345..,FRA,1400,1900,DXB,DLH,1600 , ,737,0
20020327,20020327,weekly,..3....,FRA,1400,1900,DXB,DLH,500  , ,   ,0
20011220,20011220,weekly,...4...,FRA,    ,1950,DXB,RYR,235  , ,737,0
20020204,20020208,weekly,1.3.5..,FRA,1500,2000,DXB,DLH,110  , ,737,0
20020205,20020205,weekly,.2.....,FRA,1500,2000,DXB,DLH,110  , ,343,0
20020207,20020207,weekly,...4...,FRA,1500,2000,DXB,DLH,110  , ,343,0
20011211,20011214,weekly,.2345..,FRA,1500,2000,DXB,DLH,1700 , ,737,0
20011211,20011214,weekly,.2345..,FRA,1600,2100,DXB,DLH,1800 , ,737,0
20020314,20020314,weekly,...4...,FRA,1600,2100,DXB,DLH,500  , ,   ,0
20020322,20020322,weekly,....5..,FRA,1600,2100,DXB,DLH,500  , ,   ,0
20020101,20020130,weekly,1234567,FRA,    ,2130,DXB,DLH,632  , ,343,0
20020102,20020130,weekly,..3...7,FRA,    ,2335,DXB,RBA,034  , ,763,0
20020101,20020130,weekly,1234567,FRA,    ,2335,DXB,UAE,016  , ,332,0
--------------------------------------------------------------------
GSM,Gheshm                          ,I,+????
--------------------------------------------------------------------
20020102,20020130,weekly,..3....,GSM,    ,1100,DXB,IRQ,1102 , ,TU5,0
20020106,20020127,weekly,......7,GSM,    ,1130,DXB,IRQ,1102 , ,TU5,0
20020101,20020129,weekly,.2.4...,GSM,    ,1600,DXB,IRQ,1104 , ,YK4,0
20020104,20020128,weekly,1...5..,GSM,    ,1630,DXB,IRQ,1102 , ,TU5,0
20020103,20020124,weekly,...4...,GSM,    ,1800,DXB,IRQ,1102 , ,TU5,0
20020101,20020129,weekly,.2.4.67,GSM,    ,1830,DXB,IRQ,1106 , ,YK4,0
20020101,20020130,weekly,.234567,GSM,    ,2030,DXB,IRQ,1108 , ,YK4,0
--------------------------------------------------------------------
GXF,Seiyun                          ,.,+????
--------------------------------------------------------------------
20020101,20020129,weekly,.2.....,GXF,    ,    ,DXB,IYE,800  , ,72S,0
--------------------------------------------------------------------
HAN,Hanoi                           ,I,+0800
--------------------------------------------------------------------
20020103,20020131,weekly,.2.4.6.,HAN,    ,0001,DXB,HVN,535  , ,763,0
--------------------------------------------------------------------
HBE,Borg El Arab                    ,.,+????
--------------------------------------------------------------------
20020105,20020112,weekly,.....6.,HBE,    ,1600,DXB,MSR,918  , ,AB6,0
20020119,20020126,weekly,.....6.,HBE,    ,1600,DXB,MSR,918  , ,320,0
--------------------------------------------------------------------
HGA,Hargeisa                        ,.,+????
--------------------------------------------------------------------
20020103,20020117,weekly,...4...,HGA,    ,    ,DXB,STA,102  , ,IL8,0
20020106,20020127,weekly,......7,HGA,    ,1930,DXB,DAO,178  ,A,IL8,0
20020106,20020127,weekly,......7,HGA,    ,1930,DXB,DML,506  , ,IL8,1
--------------------------------------------------------------------
HKG,Hongkong                        ,I,+0800
--------------------------------------------------------------------
20020103,20020131,weekly,...4...,HKG,    ,0010,DXB,UAE,9883 , ,742,1
20020102,20020130,weekly,1.3....,HKG,    ,0020,DXB,UAE,9881 , ,74F,0
20020103,20020131,weekly,...4...,HKG,    ,0035,DXB,CPA,057  , ,742,0
20020108,20020129,weekly,.2.....,HKG,    ,0045,DXB,CPA,057  , ,742,1
20020106,20020127,weekly,......7,HKG,    ,0100,DXB,CPA,057  , ,742,0
20020102,20020130,weekly,1.3..67,HKG,    ,0105,DXB,CPA,067  , ,742,0
20020106,20020127,weekly,......7,HKG,    ,0110,DXB,AHK,003  , ,742,0
20020102,20020130,weekly,..3....,HKG,    ,0115,DXB,AHK,003  , ,742,0
20020102,20020131,weekly,1234567,HKG,    ,0230,DXB,AHK,001  , ,742,0
20020102,20020131,weekly,.234.67,HKG,    ,0345,DXB,HDA,500  , ,742,0
20020102,20020130,weekly,.23.5.7,HKG,    ,0425,DXB,UAE,083  , ,772,1
20020104,20020127,weekly,1..4.6.,HKG,    ,0425,DXB,UAE,087  , ,772,1
20020122,20020129,weekly,1......,HKG,    ,0425,DXB,UAE,087  , ,772,1
20020101,20020130,weekly,.234...,HKG,    ,1300,DXB,CPA,065  , ,742,0
20020101,20020129,weekly,.2.4.6.,HKG,    ,1315,DXB,UAE,081  , ,332,0
20020101,20020129,weekly,12.4..7,HKG,    ,2005,DXB,CPA,731  , ,772,0
20020101,20020130,weekly,.23..67,HKG,    ,2205,DXB,CPA,751  , ,773,2
20020102,20020130,weekly,..3.56.,HKG,    ,2255,DXB,CPA,733  , ,772,1
20020103,20020124,weekly,...4...,HKG,    ,2345,DXB,UAE,9881 , ,74F,1
--------------------------------------------------------------------
HYD,Hyderabad                       ,I,+0530
--------------------------------------------------------------------
20020107,20020128,weekly,1......,HYD,    ,0855,DXB,AIC,767  , ,313,0
20020102,20020130,weekly,..3....,HYD,    ,1745,DXB,AIC,735  , ,313,0
20020102,20020130,weekly,1.34...,HYD,    ,2250,DXB,IAC,951  , ,AB3,0
--------------------------------------------------------------------
ICN,Incheon                         ,I,+????
--------------------------------------------------------------------
20020104,20020128,weekly,1...5..,ICN,    ,0240,DXB,KAL,951  , ,332,0
--------------------------------------------------------------------
IFN,Isfahan                         ,I,+0330
--------------------------------------------------------------------
20020104,20020121,weekly,1...5..,IFN,    ,1100,DXB,IRK,7144 , ,TU5,0
--------------------------------------------------------------------
ISB,Islamabad                       ,I,+0500
--------------------------------------------------------------------
20020103,20020131,weekly,...4...,ISB,    ,0005,DXB,RSO,523  , ,YK2,1
20020105,20020127,weekly,.....67,ISB,    ,0155,DXB,PIA,231  , ,AB3,1
20011028,20011028,weekly,......7,ISB,    ,0540,DXB,UAE,665  , ,332,0
20020102,20020130,weekly,..3....,ISB,    ,0540,DXB,UAE,665  , ,313,0
20020105,20020127,weekly,.....67,ISB,    ,0540,DXB,UAE,665  , ,332,0
20020103,20020128,weekly,1..4...,ISB,    ,1110,DXB,UAE,665  , ,772,0
20020107,20020128,weekly,1......,ISB,    ,1240,DXB,PIA,233  , ,AB3,0
20020105,20020126,weekly,.....6.,ISB,    ,2200,DXB,RSO,511  , ,YK2,0
20020104,20020125,weekly,....5..,ISB,    ,2200,DXB,SAI,065  , ,TU5,0
20020101,20020129,weekly,.2.....,ISB,    ,2300,DXB,SAI,102  , ,TU5,0
--------------------------------------------------------------------
IST,Istanbul                        ,I,+0200
--------------------------------------------------------------------
20020104,20020129,weekly,12..5.7,IST,    ,0035,DXB,UAE,032  , ,313,0
20020103,20020131,weekly,12.4.6.,IST,    ,0240,DXB,THY,1162 , ,738,0
20020101,20020130,weekly,.23.5.7,IST,    ,1840,DXB,SIA,403  , ,772,0
20020101,20020129,weekly,.2...6.,IST,    ,1850,DXB,MAS,031  , ,333,0
--------------------------------------------------------------------
JED,Jeddah                          ,I,+0300
--------------------------------------------------------------------
20020102,20020130,weekly,..3....,JED,    ,    ,DXB,ETH,672  , ,752,0
20020102,20020130,weekly,.23.567,JED,    ,0015,DXB,UAE,302  , ,772,0
20020102,20020130,weekly,..34.67,JED,    ,1125,DXB,FEC,602  , ,BES,0
20020112,20020112,weekly,.....6.,JED,    ,1424,DXB,DLH,1111 , ,   ,0
20020103,20020128,weekly,1..4.6.,JED,    ,1925,DXB,SVA,550  , ,772,0
--------------------------------------------------------------------
JFK,J.F.Kennedy                     ,I,-0500
--------------------------------------------------------------------
20020102,20020105,weekly,..3..6.,JFK,    ,1715,DXB,DAL,120  , ,M11,1
20020107,20020112,weekly,1....6.,JFK,    ,1715,DXB,DAL,120  , ,M11,1
20020109,20020109,weekly,..3....,JFK,0615,1715,DXB,DAL,120  , ,M11,1
20020114,20020130,weekly,1.3..6.,JFK,    ,1715,DXB,DAL,120  , ,M11,1
20020102,20020130,weekly,..3....,JFK,    ,2150,DXB,BBC,010  , ,D10,1
--------------------------------------------------------------------
JIB,Djibouti                        ,I,+????
--------------------------------------------------------------------
20020106,20020127,weekly,......7,JIB,    ,    ,DXB,DAO,188  , ,TU5,0
20020103,20020117,weekly,...4...,JIB,    ,1930,DXB,STA,102  , ,IL8,1
--------------------------------------------------------------------
JNB,Johannesburg                    ,I,+0200
--------------------------------------------------------------------
20020101,20020130,weekly,1234567,JNB,    ,0530,DXB,UAE,464  , ,332,0
--------------------------------------------------------------------
KBP,Kiev/Borispol                   ,.,+0300
--------------------------------------------------------------------
20020107,20020128,weekly,1......,KBP,    ,2100,DXB,TVR,301  , ,YK2,1
20020103,20020124,weekly,...4...,KBP,    ,2100,DXB,UKR,233  , ,TU5,1
--------------------------------------------------------------------
KER,Karman                          ,I,+????
--------------------------------------------------------------------
20020101,20020129,weekly,.2..5..,KER,    ,1100,DXB,IRM,5034 , ,TU5,0
--------------------------------------------------------------------
KHI,Karachi                         ,I,+0500
--------------------------------------------------------------------
20020102,20020130,weekly,..3...7,KHI,    ,    ,DXB,MAS,160  , ,333,0
20020101,20020129,weekly,.2.4...,KHI,    ,    ,DXB,UAE,611  , ,772,0
20020103,20020131,weekly,1..4.6.,KHI,    ,0050,DXB,SWR,395  , ,332,0
20020106,20020127,weekly,......7,KHI,    ,0200,DXB,ETH,643  , ,763,0
20020108,20020129,weekly,.2.....,KHI,    ,0200,DXB,ETH,663  , ,763,0
20020103,20020124,weekly,...4...,KHI,    ,0600,DXB,IYE,861  , ,313,0
20020101,20020129,weekly,.2..5..,KHI,    ,0700,DXB,RJA,191  , ,313,0
20020102,20020130,weekly,1.3..6.,KHI,    ,0900,DXB,PIA,787  , ,742,0
20020101,20020130,weekly,1234567,KHI,    ,1315,DXB,UAE,601  , ,772,0
20020102,20020130,weekly,..34567,KHI,    ,1400,DXB,PIA,211  , ,733,0
20020101,20020129,weekly,.2.....,KHI,1700,1500,DXB,PIA,211  , ,733,0
20020107,20020128,weekly,1......,KHI,    ,1500,DXB,PIA,211  , ,AB3,0
20020103,20020128,weekly,1..4...,KHI,    ,1545,DXB,MSR,871  , ,AB6,0
20020214,20020214,weekly,...4...,KHI,1600,1700,DXB,DLH,110  , ,343,0
20020215,20020215,weekly,....5..,KHI,1600,1700,DXB,DLH,110  , ,737,0
20020102,20020130,weekly,..3....,KHI,    ,1700,DXB,RSO,755  , ,YK2,0
20020105,20020126,weekly,.....6.,KHI,    ,1830,DXB,RSO,766  , ,YK2,0
20020104,20020125,weekly,....5..,KHI,    ,1850,DXB,RSO,744  , ,YK2,0
20020106,20020127,weekly,......7,KHI,    ,1910,DXB,RSO,766  , ,YK2,0
20020106,20020127,weekly,......7,KHI,    ,1910,DXB,RSO,786  , ,YK2,0
20020107,20020128,weekly,1......,KHI,    ,2000,DXB,RSO,711  , ,YK2,0
20020103,20020124,weekly,...4...,KHI,    ,2125,DXB,RSO,723  , ,YK2,0
20020104,20020125,weekly,....5..,KHI,    ,2200,DXB,SAI,913  , ,TU5,0
20020106,20020127,weekly,......7,KHI,    ,2320,DXB,RSO,733  , ,YK2,1
20020101,20020130,weekly,12345..,KHI,    ,2330,DXB,PIA,213  , ,AB3,0
20020106,20020127,weekly,......7,KHI,    ,2330,DXB,PIA,213  , ,312,0
20020101,20020130,weekly,1234567,KHI,    ,2330,DXB,UAE,603  , ,772,0
20020101,20020129,weekly,.2.....,KHI,    ,2355,DXB,RSO,701  , ,YK2,1
20020102,20020130,weekly,..3....,KHI,    ,2355,DXB,SAI,903  , ,TU5,0
20020105,20020126,weekly,.....6.,KHI,    ,2359,DXB,PIA,213  , ,AB3,0
--------------------------------------------------------------------
KIH,Kish                            ,I,+????
--------------------------------------------------------------------
20020101,20020130,weekly,123..67,KIH,    ,0810,DXB,IRG,2605 , ,F50,0
20020101,20020130,weekly,1234567,KIH,    ,1530,DXB,IRG,2612 , ,DHT,0
20020106,20020127,weekly,......7,KIH,    ,1530,DXB,IRK,7132 , ,YK4,0
20020101,20020121,weekly,123456.,KIH,    ,1630,DXB,IRK,7134 , ,YK2,0
20020106,20020127,weekly,......7,KIH,    ,1810,DXB,IRK,7134 , ,YK4,0
20020101,20020105,weekly,.23456.,KIH,    ,2000,DXB,IRK,7136 , ,YK4,0
20020107,20020112,weekly,12.456.,KIH,    ,2000,DXB,IRK,7136 , ,YK4,0
20020114,20020121,weekly,123456.,KIH,    ,2000,DXB,IRK,7136 , ,YK4,0
20020109,20020109,weekly,..3....,KIH,    ,2005,DXB,IRK,7136 , ,YK4,0
20020106,20020127,weekly,......7,KIH,    ,2110,DXB,IRK,7136 , ,YK4,0
--------------------------------------------------------------------
KRT,Khartoum                        ,I,+0300
--------------------------------------------------------------------
20020106,20020127,weekly,......7,KRT,    ,    ,DXB,ETH,642  , ,752,0
20020105,20020126,weekly,.....6.,KRT,    ,1230,DXB,SUD,2234 , ,AB6,0
20011028,20011028,weekly,......7,KRT,    ,1330,DXB,SUD,224  , ,AB6,0
20020102,20020130,weekly,..3....,KRT,    ,1330,DXB,SUD,224  , ,AB6,0
20011031,20011031,weekly,..3....,KRT,    ,1530,DXB,SUD,234  , ,AB6,0
20020107,20020128,weekly,1......,KRT,    ,2230,DXB,SUD,230  , ,72S,0
--------------------------------------------------------------------
KSH,Kermanshah                      ,I,+????
--------------------------------------------------------------------
20020106,20020127,weekly,......7,KSH,    ,1800,DXB,IRQ,1121 , ,TU5,0
--------------------------------------------------------------------
KTM,Kathmandu                       ,I,+0530
--------------------------------------------------------------------
20020102,20020130,weekly,1.3....,KTM,    ,1040,DXB,RNA,229  , ,752,0
20020105,20020126,weekly,.....6.,KTM,    ,1040,DXB,RNA,231  , ,752,0
--------------------------------------------------------------------
KUL,Kuala Lumpur                    ,I,+0800
--------------------------------------------------------------------
20020102,20020130,weekly,1.3.5..,KUL,    ,0110,DXB,MAS,090  , ,772,0
20020105,20020129,weekly,.2...6.,KUL,    ,0240,DXB,MAS,030  , ,333,0
20020102,20020130,weekly,..3...7,KUL,    ,1725,DXB,MAS,160  , ,333,1
20020102,20020130,weekly,..3.567,KUL,    ,2340,DXB,UAE,063  , ,772,1
--------------------------------------------------------------------
KWI,Kuwait                          ,I,+0300
--------------------------------------------------------------------
20020102,20020130,weekly,..3.5..,KWI,    ,    ,DXB,OAL,347  , ,734,0
20020105,20020126,weekly,.....6.,KWI,    ,    ,DXB,OMA,418  , ,733,0
20020102,20020131,weekly,1234567,KWI,    ,0045,DXB,KAC,675  , ,320,0
20020106,20020127,weekly,.....6.,KWI,    ,0401,DXB,BBC,046  , ,D10,0
20020101,20020129,weekly,.2....7,KWI,    ,1000,DXB,FEC,202  , ,BES,0
20020103,20020128,weekly,1..4.6.,KWI,    ,1205,DXB,UAE,102  , ,332,0
20020105,20020105,weekly,.....6.,KWI,    ,1355,DXB,KAC,671  , ,320,0
20020107,20020107,weekly,1......,KWI,    ,1355,DXB,KAC,671  , ,320,0
20020114,20020128,weekly,1....6.,KWI,    ,1355,DXB,KAC,671  , ,320,0
20020112,20020112,weekly,.....6.,KWI,    ,1455,DXB,KAC,671  , ,320,0
20020101,20020129,weekly,.2.....,KWI,    ,1835,DXB,GFA,232  , ,320,0
20020101,20020130,weekly,123..67,KWI,    ,1905,DXB,KAC,673  , ,AB6,0
20020103,20020104,weekly,...45..,KWI,    ,1905,DXB,KAC,673  , ,313,0
20020110,20020110,weekly,...4...,KWI,    ,1905,DXB,KAC,673  , ,313,0
20020111,20020111,weekly,....5..,KWI,    ,1905,DXB,KAC,673  , ,312,0
20020117,20020125,weekly,...45..,KWI,    ,1905,DXB,KAC,673  , ,313,0
20020101,20020129,weekly,12...6.,KWI,    ,2035,DXB,UAE,104  , ,772,0
20020102,20020130,weekly,..345.7,KWI,    ,2035,DXB,UAE,104  , ,332,0
20020104,20020125,weekly,....5..,KWI,    ,2145,DXB,GFA,232  , ,320,0
20020104,20020125,weekly,....5..,KWI,    ,2200,DXB,ALK,228  , ,332,0
20020105,20020127,weekly,.....67,KWI,    ,2215,DXB,ALK,228  , ,332,0
20020101,20020129,weekly,.2...6.,KWI,    ,2340,DXB,RBA,118  , ,763,0
--------------------------------------------------------------------
LAM,Lamerd                          ,I,+????
--------------------------------------------------------------------
20020104,20020125,weekly,....5..,LAM,    ,1030,DXB,IRC,6717 , ,AT7,0
20020107,20020128,weekly,1......,LAM,    ,1400,DXB,IRC,6717 , ,AT7,0
--------------------------------------------------------------------
LAR,LAR                             ,I,+????
--------------------------------------------------------------------
20020106,20020127,weekly,......7,LAR,    ,0830,DXB,IRC,6549 , ,AT7,0
20020107,20020128,weekly,1......,LAR,    ,1000,DXB,IRC,6747 , ,AT7,0
20020102,20020130,weekly,..3....,LAR,    ,1030,DXB,IRC,6549 , ,AT7,0
20020101,20020129,weekly,.2.4.6.,LAR,    ,1030,DXB,IRC,6747 , ,AT7,0
20020104,20020125,weekly,....5..,LAR,    ,1430,DXB,IRC,6549 , ,AT7,0
--------------------------------------------------------------------
LBV,Libreville                      ,I,+0100
--------------------------------------------------------------------
20020105,20020126,weekly,.....6.,LBV,    ,0810,DXB,AGN,700  , ,763,0
--------------------------------------------------------------------
LCA,Larnaca                         ,I,+0200
--------------------------------------------------------------------
20020101,20020111,weekly,.2.45..,LCA,    ,    ,DXB,CSA,400  , ,734,0
20020115,20020129,weekly,.2.4...,LCA,    ,    ,DXB,CSA,400  , ,734,0
20020102,20020130,weekly,..3....,LCA,    ,    ,DXB,ROT,065  , ,733,0
20020104,20020125,weekly,....5..,LCA,    ,    ,DXB,ROT,065  , ,313,0
20020106,20020127,weekly,......7,LCA,    ,    ,DXB,ROT,065  , ,733,0
20020101,20020129,weekly,12.4.6.,LCA,    ,    ,DXB,UAE,028  , ,AB6,0
20020106,20020127,weekly,......7,LCA,    ,1305,DXB,CYP,382  , ,320,1
20020102,20020130,weekly,..3....,LCA,    ,2155,DXB,CYP,392  , ,320,0
--------------------------------------------------------------------
LGW,London Gatwick                  ,I,+0000
--------------------------------------------------------------------
20020106,20020127,weekly,.....6.,LGW,    ,0415,DXB,SEY,027  , ,762,0
20020102,20020130,weekly,..3....,LGW,    ,0600,DXB,DSR,606  , ,D1F,0
20020101,20020129,weekly,.2.4...,LGW,    ,0800,DXB,RNA,230  , ,752,1
20020105,20020126,weekly,.....6.,LGW,    ,0830,DXB,DSR,602  , ,D1F,0
20020107,20020128,weekly,1......,LGW,    ,1000,DXB,DSR,605  , ,D1F,1
20020101,20020120,weekly,1234567,LGW,    ,2000,DXB,UAE,008  , ,332,0
20020121,20020130,weekly,123.567,LGW,    ,2000,DXB,UAE,008  , ,332,0
20020124,20020124,weekly,...4...,LGW,    ,2000,DXB,UAE,008  , ,332,0
--------------------------------------------------------------------
LHE,Lahore                          ,I,+0530
--------------------------------------------------------------------
20020103,20020128,weekly,1..45..,LHE,    ,0550,DXB,UAE,675  , ,332,0
20020101,20020129,weekly,.2.....,LHE,    ,1120,DXB,UAE,675  , ,313,0
20020102,20020130,weekly,..3.5.7,LHE,    ,1320,DXB,PIA,209  , ,AB3,0
20020106,20020127,weekly,......7,LHE,    ,2150,DXB,RSO,411  , ,YK2,0
20020103,20020127,weekly,...4..7,LHE,    ,2315,DXB,SAI,075  , ,TU5,0
20020103,20020124,weekly,...4...,LHE,    ,2325,DXB,RSO,445  , ,YK2,1
20020104,20020125,weekly,....5..,LHE,    ,2355,DXB,RSO,434  , ,YK2,1
--------------------------------------------------------------------
LHR,London Heathrow                 ,I,+0000
--------------------------------------------------------------------
20020104,20020125,weekly,....5..,LHR,    ,0015,DXB,BBC,058  , ,313,0
20020106,20020127,weekly,......7,LHR,    ,0125,DXB,ALK,508  , ,332,0
20020103,20020131,weekly,...4..7,LHR,    ,0330,DXB,PIA,788  , ,742,0
20020102,20020130,weekly,.2.....,LHR,    ,0455,DXB,EVA,678  , ,M11,0
20020107,20020128,weekly,1......,LHR,    ,0555,DXB,SIA,7395 , ,74F,0
20020101,20020130,weekly,1234567,LHR,    ,0625,DXB,UAE,004  , ,772,0
20020106,20020127,weekly,......7,LHR,    ,0710,DXB,BBC,016  , ,313,0
20020101,20020130,weekly,1234567,LHR,    ,0715,DXB,BAW,109  , ,772,0
20020101,20020129,weekly,.2.....,LHR,    ,0720,DXB,BBC,018  , ,313,0
20020103,20020124,weekly,...4...,LHR,    ,0730,DXB,EVA,678  , ,M11,0
20020101,20020129,weekly,.2.....,LHR,    ,0730,DXB,PIA,788  , ,742,0
20011028,20011028,weekly,......7,LHR,    ,0740,DXB,ALK,508  , ,332,0
20020102,20020130,weekly,1.3....,LHR,    ,0740,DXB,ALK,508  , ,332,0
20020106,20020127,weekly,......7,LHR,    ,0800,DXB,EVA,678  , ,M11,0
20020101,20020130,weekly,1234567,LHR,    ,0830,DXB,UAE,006  , ,332,0
20020103,20020124,weekly,...4...,LHR,    ,1645,DXB,SIA,7395 , ,74F,0
20020106,20020127,weekly,......7,LHR,    ,2200,DXB,RBA,096  , ,763,0
20020101,20020130,weekly,1234567,LHR,    ,2230,DXB,BAW,107  , ,772,0
20020101,20020130,weekly,.23..6.,LHR,    ,2340,DXB,RBA,098  , ,762,0
20020101,20020130,weekly,1234567,LHR,    ,2355,DXB,UAE,002  , ,772,0
--------------------------------------------------------------------
LUX,Luxemburg                       ,I,+0100
--------------------------------------------------------------------
20020105,20020126,weekly,.....6.,LUX,    ,0045,DXB,CLX,780  , ,744,1
20020103,20020124,weekly,...4...,LUX,    ,0700,DXB,CLX,790  , ,744,0
20020105,20020126,weekly,.....6.,LUX,    ,1930,DXB,CLX,796  , ,744,0
20020107,20020128,weekly,1......,LUX,    ,1945,DXB,CLX,796  , ,744,0
20020101,20020129,weekly,.2.....,LUX,    ,2000,DXB,CLX,796  , ,744,1
--------------------------------------------------------------------
LYP,Faisalabad                      ,I,+0530
--------------------------------------------------------------------
20020101,20020129,weekly,.2.....,LYP,    ,    ,DXB,PIA,251  , ,733,0
20020104,20020125,weekly,....5..,LYP,    ,0100,DXB,PIA,253  , ,733,1
--------------------------------------------------------------------
MAA,Chennai (Madras)                ,I,+0530
--------------------------------------------------------------------
20020107,20020128,weekly,1......,MAA,    ,    ,DXB,AIC,709  , ,742,0
20020105,20020126,weekly,.....6.,MAA,    ,    ,DXB,AIC,755  , ,742,0
20020102,20020130,weekly,..3...7,MAA,    ,0645,DXB,UAE,543  , ,332,0
20020107,20020128,weekly,1......,MAA,    ,1225,DXB,UAE,541  , ,332,0
20020103,20020124,weekly,...4...,MAA,    ,1300,DXB,UAE,541  , ,332,0
20020102,20020130,weekly,..3....,MAA,    ,1355,DXB,AIC,759  , ,312,0
--------------------------------------------------------------------
MAN,Manchester                      ,I,+0000
--------------------------------------------------------------------
20020102,20020131,weekly,1234567,MAN,    ,0010,DXB,UAE,036  , ,332,0
20020102,20020130,weekly,.23.567,MAN,    ,0050,DXB,AHK,002  , ,742,1
20020102,20020130,weekly,1.345.7,MAN,    ,0205,DXB,HDA,501  , ,742,1
20020131,20020131,weekly,...4...,MAN,2000,0205,DXB,HDA,501  , ,742,1
20020102,20020130,weekly,..3...7,MAN,    ,2215,DXB,AHK,002  ,A,742,0
--------------------------------------------------------------------
MCT,Muscat                          ,I,+0300
--------------------------------------------------------------------
20020101,20020129,weekly,.2.....,MCT,    ,    ,DXB,AIC,771  , ,312,0
20020103,20020124,weekly,...4...,MCT,    ,    ,DXB,RSO,445  , ,YK2,0
20020101,20020129,weekly,.2.....,MCT,    ,    ,DXB,RSO,701  , ,YK2,0
20020102,20020131,weekly,1234567,MCT,    ,0005,DXB,OMA,119  , ,AT4,0
20020102,20020130,weekly,..3.5.7,MCT,    ,0045,DXB,SWR,399  , ,333,0
20020102,20020130,weekly,123....,MCT,    ,0200,DXB,GFA,537  , ,320,0
20020105,20020126,weekly,.....6.,MCT,    ,0500,DXB,SYR,526  , ,72S,0
20020101,20020130,weekly,1234567,MCT,    ,0800,DXB,OMA,111  , ,AT4,0
20020101,20020130,weekly,1234567,MCT,    ,0955,DXB,GFA,501  , ,320,0
20020104,20020125,weekly,....5..,MCT,    ,1130,DXB,GFA,231  , ,320,0
20020101,20020130,weekly,1234567,MCT,1050,1150,DXB,OMA,413  , ,313,0
20020101,20020129,weekly,12.4.67,MCT,    ,1150,DXB,UAE,203  , ,772,0
20020102,20020130,weekly,..3.5..,MCT,    ,1150,DXB,UAE,203  , ,312,0
20020107,20020128,weekly,1......,MCT,    ,1300,DXB,OMA,417  , ,733,0
20020101,20020130,weekly,1234567,MCT,    ,1310,DXB,GFA,503  , ,320,0
20020101,20020130,weekly,1234567,MCT,    ,1500,DXB,OMA,113  , ,AT4,0
20020105,20020126,weekly,.....6.,MCT,    ,1630,DXB,OMA,418  , ,733,1
20020102,20020130,weekly,..3....,MCT,    ,1740,DXB,GFA,231  , ,320,0
20020101,20020115,weekly,.2..5.7,MCT,    ,1755,DXB,GFA,507  , ,320,0
20020103,20020112,weekly,1..4.6.,MCT,    ,1755,DXB,GFA,507  , ,763,0
20020114,20020120,weekly,1..4567,MCT,    ,1755,DXB,GFA,507  , ,763,0
20020121,20020129,weekly,12.4567,MCT,    ,1755,DXB,GFA,507  , ,763,0
20020101,20020130,weekly,1234567,MCT,    ,1900,DXB,OMA,115  , ,AT4,0
20020101,20020130,weekly,1234567,MCT,    ,2105,DXB,OMA,411  , ,313,0
20020101,20020129,weekly,.2.....,MCT,    ,2210,DXB,GFA,601  , ,320,0
--------------------------------------------------------------------
MEL,Melbourne                       ,I,+1100
--------------------------------------------------------------------
20020101,20020130,weekly,1234567,MEL,    ,0510,DXB,UAE,069  , ,772,1
--------------------------------------------------------------------
MGQ,Mogadishu                       ,I,+0300
--------------------------------------------------------------------
20020106,20020127,weekly,......7,MGQ,    ,1800,DXB,PHG,7007 , ,IL8,0
--------------------------------------------------------------------
MHD,Mashad                          ,I,+????
--------------------------------------------------------------------
20020101,20020129,weekly,.2..5..,MHD,    ,0850,DXB,IRB,9806 , ,TU5,0
20020107,20020128,weekly,1......,MHD,    ,1550,DXB,IRC,6789 , ,72S,0
20020102,20020130,weekly,..3....,MHD,    ,2315,DXB,IRC,6789 , ,TU3,0
--------------------------------------------------------------------
MLA,Malta                           ,I,+0100
--------------------------------------------------------------------
20020102,20020130,weekly,..3.5.7,MLA,    ,    ,DXB,UAE,445  , ,AB6,0
20020106,20020127,weekly,......7,MLA,    ,0010,DXB,AMC,832  , ,320,0
20020103,20020124,weekly,...4...,MLA,    ,0830,DXB,AMC,834  , ,320,0
--------------------------------------------------------------------
MLE,Male                            ,I,+????
--------------------------------------------------------------------
20020101,20020129,weekly,.2.4...,MLE,    ,    ,DXB,UAE,810  , ,332,0
20020102,20020130,weekly,1.34.6.,MLE,    ,    ,DXB,UAE,815  , ,332,0
20020107,20020128,weekly,1......,MLE,    ,1320,DXB,AUO,3332 , ,333,0
--------------------------------------------------------------------
MNL,Manila                          ,I,+0800
--------------------------------------------------------------------
20020102,20020128,weekly,123.567,MNL,    ,0425,DXB,UAE,085  , ,332,0
20020122,20020129,weekly,12.....,MNL,    ,0425,DXB,UAE,085  , ,332,0
--------------------------------------------------------------------
MUC,Muenchen                        ,S,+0100
--------------------------------------------------------------------
20020101,20020130,weekly,1234567,MUC,    ,2345,DXB,UAE,026  , ,332,0
--------------------------------------------------------------------
MUX,Multan                          ,I,+????
--------------------------------------------------------------------
20020103,20020124,weekly,...4...,MUX,    ,    ,DXB,PIA,253  , ,733,0
20020101,20020129,weekly,.2.....,MUX,    ,1200,DXB,PIA,251  , ,733,1
--------------------------------------------------------------------
MXP,Milan-Malpensa                  ,I,+0100
--------------------------------------------------------------------
20020101,20020129,weekly,.2..567,MXP,    ,    ,DXB,UAE,019  , ,332,0
20020102,20020130,weekly,..3.5..,MXP,    ,0130,DXB,AZA,748  , ,M11,0
20020101,20020129,weekly,.2.4..7,MXP,    ,0545,DXB,AZA,748  , ,M11,0
--------------------------------------------------------------------
NBO,Nairobi                         ,I,+0300
--------------------------------------------------------------------
20020101,20020130,weekly,.23.5.7,NBO,    ,    ,DXB,UAE,422  , ,772,0
20020103,20020128,weekly,1..4.6.,NBO,    ,    ,DXB,UAE,424  , ,772,0
20020102,20020131,weekly,1234567,NBO,    ,0130,DXB,KQA,310  , ,313,0
--------------------------------------------------------------------
NCE,Nizza (Cote d Azur)             ,I,+0100
--------------------------------------------------------------------
20020103,20020131,weekly,.2.45..,NCE,    ,0130,DXB,UAE,018  , ,332,1
--------------------------------------------------------------------
ODS,Odessa                          ,I,+0300
--------------------------------------------------------------------
20020107,20020128,weekly,1......,ODS,    ,    ,DXB,TVR,301  , ,YK2,0
20020103,20020124,weekly,...4...,ODS,    ,    ,DXB,UKR,233  , ,TU5,0
--------------------------------------------------------------------
ORY,Paris Orly                      ,I,+0100
--------------------------------------------------------------------
20020106,20020127,weekly,......7,ORY,    ,0800,DXB,RNA,232  , ,752,1
--------------------------------------------------------------------
OVB,Novosibirsk                     ,I,+1000
--------------------------------------------------------------------
20020104,20020125,weekly,....5..,OVB,    ,1000,DXB,SBI,865  , ,TU5,0
--------------------------------------------------------------------
PEN,Penang                          ,I,+????
--------------------------------------------------------------------
20020102,20020130,weekly,1.3..6.,PEN,    ,    ,DXB,KLM,9166 , ,742,0
--------------------------------------------------------------------
PEW,Peshawar                        ,I,+0500
--------------------------------------------------------------------
20020104,20020126,weekly,....56.,PEW,    ,    ,DXB,PIA,231  , ,AB3,0
20020103,20020131,weekly,...4...,PEW,    ,0001,DXB,PIA,221  , ,AB3,0
20020104,20020129,weekly,12..5..,PEW,    ,0100,DXB,PIA,223  , ,AB3,0
20020104,20020127,weekly,....5.7,PEW,    ,1200,DXB,UAE,655  , ,313,0
20020102,20020130,weekly,..3....,PEW,    ,1600,DXB,SAI,087  , ,TU5,0
20020107,20020128,weekly,1......,PEW,    ,1800,DXB,SAI,312  , ,TU5,1
20020103,20020124,weekly,...4...,PEW,    ,2135,DXB,RSO,655  , ,YK2,0
20020107,20020128,weekly,1......,PEW,    ,2150,DXB,RSO,622  , ,YK2,0
20020106,20020127,weekly,......7,PEW,    ,2300,DXB,SAI,085  , ,TU5,0
20020101,20020129,weekly,.2.....,PEW,    ,2359,DXB,PIA,223  , ,AB3,0
--------------------------------------------------------------------
PRG,Prague                          ,.,+0100
--------------------------------------------------------------------
20020101,20020111,weekly,.2.45..,PRG,    ,2215,DXB,CSA,400  , ,734,1
20020115,20020129,weekly,.2.4...,PRG,    ,2215,DXB,CSA,400  , ,734,1
--------------------------------------------------------------------
RIY,Riyan(Mukalla)                  ,I,+????
--------------------------------------------------------------------
20020106,20020127,weekly,......7,RIY,    ,    ,DXB,DML,506  , ,IL8,0
20020104,20020125,weekly,....5..,RIY,    ,    ,DXB,IYE,802  , ,313,0
--------------------------------------------------------------------
RUH,Riyadh                          ,I,+0300
--------------------------------------------------------------------
20020103,20020124,weekly,...4...,RUH,    ,    ,DXB,ETH,612  , ,763,0
20020108,20020129,weekly,.2.....,RUH,    ,0150,DXB,FEC,506  , ,BES,0
20020102,20020131,weekly,1.34567,RUH,    ,0355,DXB,FEC,502  , ,BES,0
20020101,20020130,weekly,1234567,RUH,    ,1740,DXB,SVA,554  , ,772,0
20020103,20020128,weekly,1..4.6.,RUH,    ,2325,DXB,UAE,314  , ,772,0
--------------------------------------------------------------------
SAH,Sanaa                           ,I,+0300
--------------------------------------------------------------------
20020106,20020127,weekly,......7,SAH,    ,0010,DXB,IYE,820  , ,72S,1
20020104,20020125,weekly,....5..,SAH,    ,1115,DXB,IYE,802  , ,313,1
20020101,20020129,weekly,.2.....,SAH,    ,1200,DXB,IYE,800  , ,72S,1
20020101,20020129,weekly,.2.4.6.,SAH,    ,1200,DXB,UAE,452  , ,313,0
20020107,20020128,weekly,1......,SAH,    ,1300,DXB,IYE,821  , ,72S,0
20020105,20020126,weekly,.....6.,SAH,    ,1715,DXB,IYE,804  , ,313,1
20020102,20020130,weekly,..3....,SAH,    ,2230,DXB,IYE,860  , ,313,0
--------------------------------------------------------------------
SEZ,Seychelles                      ,I,+0530
--------------------------------------------------------------------
20020105,20020126,weekly,.....6.,SEZ,    ,0110,DXB,SEY,028  , ,762,0
--------------------------------------------------------------------
SGN,Ho Chi Minh City                ,I,+0700
--------------------------------------------------------------------
20020102,20020130,weekly,1.3.5..,SGN,    ,0001,DXB,HVN,533  , ,763,0
--------------------------------------------------------------------
SHJ,Sharjah                         ,I,+0400
--------------------------------------------------------------------
20020101,20020130,weekly,.234567,SHJ,    ,    ,DXB,FEC,504  , ,BES,0
20020106,20020127,weekly,......7,SHJ,    ,0200,DXB,PHG,7006 , ,IL8,0
20020103,20020131,weekly,...4...,SHJ,    ,0230,DXB,DML,505  , ,IL8,0
20020106,20020120,weekly,......7,SHJ,    ,0230,DXB,STA,101  , ,IL8,0
--------------------------------------------------------------------
SIN,Singapore                       ,I,+0700
--------------------------------------------------------------------
20020107,20020128,weekly,1......,SIN,    ,    ,DXB,RBA,095  , ,763,0
20020101,20020129,weekly,.2...6.,SIN,    ,    ,DXB,RBA,107  , ,763,1
20020101,20020129,weekly,.2.45.7,SIN,    ,    ,DXB,UAE,067  , ,772,0
20020101,20020130,weekly,1234567,SIN,    ,    ,DXB,UAE,069  , ,772,0
20020101,20020129,weekly,12.4.6.,SIN,    ,    ,DXB,UAE,077  , ,772,1
20020108,20020129,weekly,.2.....,SIN,    ,0120,DXB,SIA,7376 , ,74F,0
20020102,20020130,weekly,.23.5.7,SIN,    ,0230,DXB,SIA,404  , ,772,0
20020103,20020131,weekly,1..4.6.,SIN,    ,0250,DXB,SIA,428  , ,773,0
20020106,20020127,weekly,.....6.,SIN,    ,0415,DXB,SIA,7376 , ,74F,0
20020106,20020127,weekly,......7,SIN,    ,1115,DXB,SIA,7396 , ,74F,0
20020103,20020124,weekly,...4...,SIN,    ,1310,DXB,AFR,6755 , ,742,0
20020102,20020130,weekly,..3....,SIN,    ,1555,DXB,SIA,7396 , ,74F,0
20020102,20020130,weekly,..3....,SIN,    ,1610,DXB,SIA,7380 , ,74F,0
20020107,20020128,weekly,1......,SIN,    ,1810,DXB,SIA,7378 , ,74F,0
20020105,20020126,weekly,.....6.,SIN,    ,1850,DXB,SIA,7378 , ,74F,0
20020102,20020130,weekly,1.3..6.,SIN,    ,2155,DXB,KLM,9166 , ,742,1
--------------------------------------------------------------------
SOF,Sofia                           ,I,+0100
--------------------------------------------------------------------
20020106,20020127,weekly,.....6.,SOF,    ,0415,DXB,LAZ,537  , ,TU5,0
20020102,20020130,weekly,.2.....,SOF,    ,0415,DXB,LAZ,539  , ,TU5,0
--------------------------------------------------------------------
STO,Stockholm                       ,I,+0100
--------------------------------------------------------------------
20011028,20011028,weekly,......7,STO,    ,2000,DXB,ALK,532  , ,332,0
20020102,20020102,weekly,..3....,STO,    ,2000,DXB,ALK,532  , ,332,0
20020116,20020130,weekly,..3....,STO,    ,2000,DXB,ALK,532  , ,332,0
20020109,20020109,weekly,..3....,STO,    ,2010,DXB,ALK,532  , ,332,0
20020107,20020128,weekly,1......,STO,    ,2130,DXB,ALK,532  , ,332,0
--------------------------------------------------------------------
SVO,Moskau-Sheremetyevo             ,I,+0300
--------------------------------------------------------------------
20020106,20020127,weekly,......7,SVO,    ,0200,DXB,AFL,521  , ,TU5,0
20020104,20020128,weekly,1...5..,SVO,    ,1245,DXB,PVV,8807 , ,ILW,0
20020107,20020128,weekly,1......,SVO,    ,1310,DXB,AFL,521  , ,ILW,0
20020104,20020125,weekly,....5..,SVO,    ,1710,DXB,AFL,521  , ,ILW,0
--------------------------------------------------------------------
SVX,Ekaterinburg                    ,I,+0300
--------------------------------------------------------------------
20020104,20020125,weekly,....5..,SVX,    ,1435,DXB,SVR,3737 , ,TU5,0
--------------------------------------------------------------------
SXF,Berlin/Schonefeld               ,.,+0100
--------------------------------------------------------------------
20020103,20020127,weekly,...4..7,SXF,    ,2240,DXB,ALK,556  , ,332,0
--------------------------------------------------------------------
SYD,Sydney                          ,I,+1100
--------------------------------------------------------------------
20020101,20020129,weekly,.2.45.7,SYD,    ,0635,DXB,UAE,067  , ,772,1
--------------------------------------------------------------------
SYZ,Shiraz                          ,I,+0400
--------------------------------------------------------------------
20020101,20020129,weekly,.2.4.6.,SYZ,    ,1200,DXB,IRA,657  , ,AB3,0
20020102,20020130,weekly,..3.5.7,SYZ,    ,1330,DXB,IRC,6811 , ,72S,0
20020107,20020128,weekly,1......,SYZ,    ,1930,DXB,IRC,6811 , ,AT7,0
--------------------------------------------------------------------
TBZ,Tabriz                          ,.,+????
--------------------------------------------------------------------
20020102,20020130,weekly,..3....,TBZ,    ,1700,DXB,IRQ,1158 , ,TU5,0
--------------------------------------------------------------------
THR,Tehran                          ,I,+0330
--------------------------------------------------------------------
20020107,20020128,weekly,1......,THR,    ,0600,DXB,IRA,659  , ,313,0
20020101,20020130,weekly,.23456.,THR,    ,0740,DXB,IRA,659  , ,AB3,0
20020106,20020127,weekly,......7,THR,    ,0830,DXB,IRA,611  , ,74L,0
20020101,20020130,weekly,1234567,THR,    ,0905,DXB,IRC,6743 , ,72S,0
20020101,20020129,weekly,.2.....,THR,    ,1300,DXB,UAE,623  , ,772,0
20020103,20020106,weekly,...4.67,THR,    ,1300,DXB,UAE,623  , ,313,0
20020107,20020113,weekly,1..4..7,THR,    ,1300,DXB,UAE,623  , ,313,0
20020114,20020128,weekly,1..4.67,THR,    ,1300,DXB,UAE,623  , ,313,0
20020112,20020112,weekly,.....6.,THR,    ,1400,DXB,UAE,623  , ,313,0
20020102,20020130,weekly,..3..6.,THR,    ,1445,DXB,IRM,5041 , ,AB6,0
20020106,20020127,weekly,......7,THR,    ,1845,DXB,IRA,659  , ,313,0
20020101,20020130,weekly,1234567,THR,    ,2035,DXB,IRC,6753 , ,72S,0
20020102,20020130,weekly,..3.5..,THR,    ,2345,DXB,UAE,625  , ,313,0
--------------------------------------------------------------------
TIP,Tripoli                         ,.,+0100
--------------------------------------------------------------------
20020103,20020131,weekly,1..4.6.,TIP,    ,0045,DXB,UAE,445  , ,AB6,1
20020106,20020127,weekly,......7,TIP,    ,0130,DXB,LAA,272  , ,313,0
20020101,20020129,weekly,.2.....,TIP,    ,0530,DXB,LAA,276  , ,313,0
--------------------------------------------------------------------
TPE,Taipeh                          ,I,+0800
--------------------------------------------------------------------
20020101,20020129,weekly,.2....7,TPE,    ,0615,DXB,EVA,685  , ,M11,0
20020105,20020126,weekly,.....6.,TPE,    ,0915,DXB,EVA,677  , ,M11,0
20020101,20020129,weekly,.2.....,TPE,    ,0920,DXB,EVA,677  , ,M11,0
20020102,20020130,weekly,..3....,TPE,    ,0925,DXB,EVA,677  , ,M11,0
--------------------------------------------------------------------
TRV,Trivandrum                      ,I,+????
--------------------------------------------------------------------
20020104,20020125,weekly,....5..,TRV,    ,1020,DXB,AIC,929  , ,312,0
20020107,20020128,weekly,1......,TRV,    ,1420,DXB,AIC,949  , ,AB4,0
20020101,20020129,weekly,.2.....,TRV,    ,2045,DXB,AIC,931  , ,AB4,1
20020106,20020127,weekly,......7,TRV,    ,2220,DXB,AIC,947  , ,313,0
--------------------------------------------------------------------
VIE,Vienna                          ,I,+0100
--------------------------------------------------------------------
20020107,20020128,weekly,1......,VIE,    ,0210,DXB,AUO,3331 , ,333,0
--------------------------------------------------------------------
ZAH,Zahedan                         ,I,+????
--------------------------------------------------------------------
20020101,20020129,weekly,.2..5..,ZAH,    ,1530,DXB,IRM,5036 , ,TU5,0
--------------------------------------------------------------------
ZRH,Zurich                          ,I,+0100
--------------------------------------------------------------------
20020102,20020130,weekly,..3.5.7,ZRH,    ,1810,DXB,SWR,394  , ,332,0
20020107,20020128,weekly,1......,ZRH,    ,2045,DXB,SWR,396  , ,332,0
20020101,20020129,weekly,.2.4.6.,ZRH,    ,2045,DXB,SWR,398  , ,332,0
20020101,20020130,weekly,1234567,ZRH,    ,2315,DXB,UAE,034  , ,332,0
--------------------------------------------------------------------

