SGS 1572864 512 2000 500
/*##########################################################################################
/*#                                                                                        #
/*#  #     # #######   ###    #####                                                        #
/*#  #     # #          #    #     #                                                       #
/*#  #     # #          #    #                                                             #
/*#  #     # #####      #     #####                                                        #
/*#  #     # #          #          #                                                       #
/*#  #     # #          #    #     #                                                       #
/*#   #####  #         ###    #####   ABB Airport Technologies GmbH (c)                    #
/*#                                                                                        #
/*#  sgs.tab        Rel. 4.5   Vers. 1.2     19-May-2006 for NBIA Bangkok                  #
/*#                                                                                        #
/*#                                                                                        #
/*##########################################################################################

/* SGS 98304 512 600 500
/*    |    |   |   |--- STATUS TABLE SIZE
/*    |    |   |--------MAX OCURRENCE OF A LABEL
/*    |    |------------RECORD SIZE
/*    |-----------------SYSTEM MEMORY SIZE


MTABNUM 40              /* MAX TABLE NO (CURRENT)
MTABNUM 76              /* MAX TABLE NO (ABSOLUTE)

/*****************************************************************************
/* Versionseintrag:
/* SCCS: @(#)  sgs.tab 1.134 / 97/07/07 13:54:50 
/*****************************************************************************
/*	SYSTEM PARAMETER CONFIGURATION FILE
/*****************************************************************************

SPTABNR   1             /* TABLE NO
SPTABSZ 992             /* TABLE SIZE

/*  FSMEM RT1SZ,RT2SZ,RT1P,MEMSZ
/*          |     |    |     |
/*          |     |    |     --- FS MEMORY SIZE IN BYTES
/*          |     |    --------- PERCENTAGE OF RT1 AREA
/*          |     -------------- RT2 RECORD SIZE
/*          -------------------- RT1 RECORD SIZE

FSMEM 30,100,40,20000

/*	PRTDEV PMSG,SMSG,SW
/*		|    |   |------ 0 = DISPLAY ON BOTH DEVICES
/*		|    |           1 = DISPLAY ON PRIMARY DEVICE ONLY
/*              |    |---------- SECONDARY DEVICE FOR SYSTEM MESSAGES
/*              |--------------- PRIMARY DEVICE FOR SYSTEM MESSAGES
/* PRTDEV /dev/null,/dev/null,0

PRTDEV /ceda/conf/ceda.log,/dev/null,0

/*	INCLUDE COMP1
/*                |----SYSTEM COMPONENT 

/* INCLUDE ICC         /* HOT-STANDBY CONFIGURATION
/* INCLUDE LOG1           /* LOGGING (ACTUAL FLIGHTS)
/* INCLUDE ILOG           /* INPUT LOGGING


/******************************************
/*	T E R M I N A L  T A B L E
/******************************************

TETABNR    3
TETABRSZ 432

/*  TETAB NAME,I,FULLNAME
/*	   |   |    |--------------- FULL DEVICE NAME
/*         |   |-------------------- 1 = SUPERVISOR TERMINAL
/*	   |		             0 = NO SUPERVISOR TERMINAL
/*	   |------------------------ DEVICE ID

TETAB "TTYP0 ",0,"DISPLAY11"


/*  R O U T E  T A B L E
/******************************************

ROTABNR   5                     /* TABLE NO.
ROTABRSZ 32                     /* RECORD SIZE

/*  ROTAB ROUTEID,QUEUE1,...,QUEUE16
/*	     |      |           |
/*	     |      |------------------- QUEUE NUMBERS
/*	     |-------------------------- ROUTE ID


ROTAB 506,7150,7160,0,0,0,0,0,0,0,0,0,0,0,0,0,0  /* sqlhdl1,2
ROTAB 509,7810,7820,7830,7840,0,0,0,0,0,0,0,0,0,0,0,0  /* fligro1,2,3,4
                                                                      

/* ROTAB 5,1100,0,0,0,0,0,0,0,0,0,0,0,0,0,0,0  /* progress msg to msghdl+eroute
ROTAB 9101,1900,0,0,0,0,0,0,0,0,0,0,0,0,0,0,0  /* dispo to bchdl
ROTAB 1101,1900,0,0,0,0,0,0,0,0,0,0,0,0,0,0,0  /* msghdl to bchdl
ROTAB 1801,1200,0,0,0,0,0,0,0,0,0,0,0,0,0,0,0  /* netin to router
ROTAB 1802,1900,0,0,0,0,0,0,0,0,0,0,0,0,0,0,0  /* netin to bchdl
ROTAB 3101,7800,0,0,0,0,0,0,0,0,0,0,0,0,0,0,0 /* ctxhdl to flthdl
ROTAB 3102,7800,0,0,0,0,0,0,0,0,0,0,0,0,0,0,0 /* ctxhdl to seahdl
ROTAB 3103,1900,0,0,0,0,0,0,0,0,0,0,0,0,0,0,0 /* ctxhdl to bchdl
ROTAB 3104,3500,0,0,0,0,0,0,0,0,0,0,0,0,0,0,0 /* ctxhdl to mvtgen
ROTAB 7151,1900,7400,0,0,0,0,0,0,0,0,0,0,0,0,0,0 /* sqlhdl1 to bchdl,action
ROTAB 7161,1900,7400,0,0,0,0,0,0,0,0,0,0,0,0,0,0 /* sqlhdl1 to bchdl,action
ROTAB 7171,1900,7400,0,0,0,0,0,0,0,0,0,0,0,0,0,0 /* sqlhdl1 to bchdl,action
ROTAB 7181,1900,7400,0,0,0,0,0,0,0,0,0,0,0,0,0,0 /* sqlhdl1 to bchdl,action
/* first run on ZAGREB: no ROTAB 7401,7550,7560,0,0,0,0,0,0,0,0,0,0,0,0,0,0 /* action to rulfndo and rulfndp
ROTAB 7801,1900,0,0,0,0,0,0,0,0,0,0,0,0,0,0,0 /* flight to bchdl
ROTAB 8801,7800,0,0,0,0,0,0,0,0,0,0,0,0,0,0,0 /* i80hdl to flight
ROTAB 19001,1300,0,0,0,0,0,0,0,0,0,0,0,0,0,0,0 /* Timsch Interface to timsch
ROTAB 15432,6100,0,0,0,0,0,0,0,0,0,0,0,0,0,0,0 /* Hsb! DB_data to netif
ROTAB 16384,1100,0,0,0,0,0,0,0,0,0,0,0,0,0,0,0 /* Message Route to msghdl


/******************************************
/*	P R O C E S S  N A M E  T A B L E
/******************************************

PNTABNR  10			/* TABLE NO.
PNTABRSZ 28			/* RECORD SIZE

/*  PNTAB  PRCNAM,QUEUEID
/*            |      |--------- QUEUE NUMBER
/*            |---------------- PROCESS NAME

PNTAB sysqcp,1,0,0,0,0,0,0
PNTAB nmghdl,1100,0,0,0,0,0,0
PNTAB router,1200,0,0,0,0,0,0
/* PNTAB timsch,1300,0,0,0,0,0,0
PNTAB netin,1800,0,0,0,0,0,0
PNTAB bchdl,1900,0,0,0,0,0,0
PNTAB cdrhdl,1910,0,0,0,0,0,0
PNTAB authdl,2600,0,0,0,0,0,0
/* PNTAB namsrv,3000,0,0,0,0,0,0
/* PNTAB ctxhdl,3100,0,0,0,0,0,0
/* PNTAB reshdl,4500,0,0,0,0,0,0 
/* first run on ZAGREB: no PNTAB discal,5250,0,0,0,0,0,0 
/* first run on ZAGREB: no PNTAB demcci,5270,0,0,0,0,0,0 
PNTAB relhdl,5400,0,0,0,0,0,0 
/* PNTAB archdl,5500,0,0,0,0,0,0 
/* PNTAB cedamo,5800,0,0,0,0,0,0 
/* PNTAB netif,6100,0,0,0,0,0,0 
/* PNTAB dbtcl,6200,0,0,0,0,0,0 
/* PNTAB watch,6300,0,0,0,0,0,0 
/* PNTAB atshdl,6400,0,0,0,0,0,0 
/* PNTAB dcshdl,6500,0,0,0,0,0,0 
/* PNTAB swihdl,6600,0,0,0,0,0,0 
PNTAB sqlhdl1,7150,0,0,0,0,0,0 
PNTAB sqlhdl2,7160,0,0,0,0,0,0
/* PNTAB sqlhdl3,7170,0,0,0,0,0,0
/* PNTAB sqlhdl4,7180,0,0,0,0,0,0
/* PNTAB cdiif1,7200,0,0,0,0,0,0  
/* PNTAB cdiif2,7210,0,0,0,0,0,0  
/* PNTAB cdiif3,7220,0,0,0,0,0,0  
/* PNTAB cdiif5,7240,0,0,0,0,0,0  
/* PNTAB cdiclt,7250,0,0,0,0,0,0
PNTAB wmqtrg,7230,0,0,0,0,0,0
PNTAB wmqgms,7232,0,0,0,0,0,0
PNTAB wmqatc,7234,0,0,0,0,0,0
PNTAB wmqoti,7236,0,0,0,0,0,0
PNTAB wmqflt,7240,0,0,0,0,0,0
PNTAB wmqcic,7242,0,0,0,0,0,0
PNTAB wmqblt,7244,0,0,0,0,0,0
PNTAB wmqgat,7246,0,0,0,0,0,0
PNTAB wmqpos,7248,0,0,0,0,0,0
PNTAB wmqtro,7250,0,0,0,0,0,0
PNTAB wmqoto,7252,0,0,0,0,0,0
PNTAB wmqfli,7254,0,0,0,0,0,0
/* open_item_mkl_050527 PNTAB wmqout,7254,0,0,0,0,0,0
PNTAB fileif,7300,0,0,0,0,0,0
/* PNTAB adshdl,7350,0,0,0,0,0,0
PNTAB action,7400,0,0,0,0,0,0
/* PNTAB cdi2_1,7500,0,0,0,0,0,0
/* PNTAB cdi2_2,7510,0,0,0,0,0,0
/* PNTAB cdi2_3,7520,0,0,0,0,0,0
/* first run on ZAGREB: no PNTAB flicol,7540,0,0,0,0,0,0
/* first run on ZAGREB: no PNTAB rulfndo,7550,0,0,0,0,0,0
/* first run on ZAGREB: no PNTAB rulfndp,7560,0,0,0,0,0,0
PNTAB loghdl,7700,0,0,0,0,0,0
/* PNTAB prtnew,7750,0,0,0,0,0,0
PNTAB ssiuhd,7760,0,0,0,0,0,0
PNTAB ssiehd,7765,0,0,0,0,0,0
PNTAB fogdhd,7770,0,0,0,0,0,0
PNTAB fogshd,7775,0,0,0,0,0,0
PNTAB roghdl,7780,0,0,0,0,0,0
/* PNTAB swfimp,7790,0,0,0,0,0,0
PNTAB flight,7800,0,0,0,0,0,0
PNTAB flisea,7805,0,0,0,0,0,0
PNTAB fligro1,7810,0,0,0,0,0,0
PNTAB fligro2,7820,0,0,0,0,0,0
PNTAB fligro3,7830,0,0,0,0,0,0
PNTAB fligro4,7840,0,0,0,0,0,0
PNTAB flicki,7845,0,0,0,0,0,0
PNTAB ntisch,7850,0,0,0,0,0,0
PNTAB imphdl,7890,0,0,0,0,0,0
PNTAB stxhdl,7900,0,0,0,0,0,0
PNTAB exchdi,7920,0,0,0,0,0,0
PNTAB exchdo,7922,0,0,0,0,0,0
PNTAB excmgr,7924,0,0,0,0,0,0
PNTAB exchdf,7928,0,0,0,0,0,0
PNTAB nflhdl,7950,0,0,0,0,0,0
/* first run on ZAGREB: no PNTAB difhdl,8000,0,0,0,0,0,0
/* PNTAB baghdl,8050,0,0,0,0,0,0
/* PNTAB htmhdl,8100,0,0,0,0,0,0
/* PNTAB crash1,8200,0,0,0,0,0,0
/* PNTAB crash2,8210,0,0,0,0,0,0
PNTAB fdihdl,8450,0,0,0,0,0,0
/* PNTAB simhdl,8700,0,0,0,0,0,0
PNTAB ftphdl,8750,0,0,0,0,0,0
PNTAB stahdl,8950,0,0,0,0,0,0
/* first run on ZAGREB: no PNTAB i80hdl,8800,0,0,0,0,0,0
/* first run on ZAGREB: no PNTAB i80if,8830,0,0,0,0,0,0
/* first run on ZAGREB: no PNTAB saphdl,8810,0,0,0,0,0,0
/* first run on ZAGREB: no PNTAB azehdl,8820,0,0,0,0,0,0
/* first run on ZAGREB: no PNTAB profnd,8850,0,0,0,0,0,0
PNTAB pdehdl,8960,0,0,0,0,0,0
/* first run on ZAGREB: no PNTAB demhdl,9000,0,0,0,0,0,0
/* first run on ZAGREB: no PNTAB polhdl,9050,0,0,0,0,0,0
/* PNTAB evthdl,9060,0,0,0,0,0,0
/* PNTAB dispo,9100,0,0,0,0,0,0
/* first run on ZAGREB: no PNTAB jobhdl,9100,0,0,0,0,0,0
/* first run on ZAGREB: no PNTAB demfnd,9150,0,0,0,0,0,0
PNTAB tlxgen,9200,0,0,0,0,0,0
/* first run on ZAGREB: no PNTAB scbhdl,9300,0,0,0,0,0,0
/* first run on ZAGREB: no PNTAB xbshdl,9310,0,0,0,0,0,0
/* first run on ZAGREB: no PNTAB reldpl,9400,0,0,0,0,0,0
PNTAB impmgr,9550,0,0,0,0,0,0
PNTAB asehdl,9800,0,0,0,0,0,0
PNTAB eqihdl,9820,0,0,0,0,0,0
/*PNTAB tsmhdl,9900,0,0,0,0,0,0











/******************************************
/*	BROADCAST TABLE
/* 100 entries written and read by the bchdl
/******************************************
BCTABNR 14
BCTABRSZ 1024

BCTAB "new bchdl does not need this"

/* *********************************************
/* THE TIMSCH TABLE 
/* *********************************************
TTTABNR 25
TTTABRSZ 16

TTTAB 00,04,00,00,0,1,1600,100

/* *********************************************/
/* THE Name Server Table		       */
/* *********************************************/
NMTABNR 31
NMTABRSZ 16

NMTAB OWN_TYPE,bkkufis3
NMTAB XXX,0    
NMTAB RAMPSCO,0  
NMTAB LSG,0  
NMTAB POPS,0  
NMTAB CEDANT,0  
NMTAB PARIS,0  
NMTAB NOTE,0  


/* **********************************************/
/* THE EXCO Generator Process config table Table (used on CEDA)	       */
/* Process code (RSA, MVT), key, data			*/
/* **********************************************/
EXTABNR 33
EXTABRSZ 80

EXTAB SYS,HOMEAP,"BKK"

EXTAB ALL,TABTAB,"TABTAB"
EXTAB ALL,TABEND,"TAB"

EXTAB BC,PORT2,UFIS_BC2

EXTAB NET,HOST,bkkufis3
EXTAB NET,SECUR,N
EXTAB NET,MASK,ffffff00
EXTAB NET,BCADDR,0xc0a801ff

EXTAB MON,5MIN,0
EXTAB MON,10MIN,0
EXTAB MON,20MIN,0
EXTAB MSG,LANG,DE
EXTAB CDI,CDI1,cdiif1.cfg
EXTAB CDI,CDI2,cdiif2.cfg
EXTAB CDI,CDI3,cdiif3.cfg
EXTAB CDI,CDI4,cdiif4.cfg
EXTAB CDI,CDI5,cdiif5.cfg
EXTAB CDI2,CDI2_1,cdi2_1.cfg
EXTAB CDI2,CDI2_2,cdi2_2.cfg
EXTAB CDI2,CDI2_3,cdi2_3.cfg
EXTAB FLI,CCA,000000 /* CCAHDL Communication queue.
EXTAB DIF,DIF,000000 /* DIFHDL Communication queue.


HSTABNR 34
HSTABRSZ 1024
HSTAB _STATUS_,"STANDALONE"
HSTAB QUE_HOLD,"1100,6000"
HSTAB QUE_GOFI,"1100"
HSTAB QUE_GOLA,"6000"

/***********************************/
/* C3TAB ************************/
/***********************************/
C3TABNR	35 
C3TABRSZ 17 

C3TAB URT,506
C3TAB RT,506
C3TAB IRT,506
C3TAB RTA,506
C3TAB RTB,506
C3TAB URF,506
C3TAB DRT,506
C3TAB DRF,506
C3TAB UCD,506
C3TAB DCD,506
C3TAB SNU,506 /* new Command - GSA 16-04-98 SetNextUrno */
C3TAB SYS,506 /* new SYS Command - GSA 17-07-97 08:20 */
C3TAB SA32,506 /* special commands - GSA 17-07-97 AKL Aufgaben 08:20 */
C3TAB SA23,506
C3TAB S2O3,506
C3TAB SBC,1900
C3TAB RBC,1900
C3TAB RBS,1900
C3TAB GPR,2600 /* authdl Get Privs */
C3TAB SEC,2600 /* authdl General Commands */
C3TAB SSI,2600 /* authdl Security System Ini */
C3TAB SMI,2600 /* authdl Security Module Ini */
C3TAB IBT,506
C3TAB GNU,506
C3TAB GMU,506
C3TAB GMN,506 
C3TAB CPE,2600
C3TAB UBT,506
C3TAB DBT,506
C3TAB ISF,7805
C3TAB SEAS,7805
C3TAB ART,7805
C3TAB UFR,7800
C3TAB GFR,509
C3TAB GFRC,509
C3TAB GFRS,509
C3TAB GDF,7800
C3TAB CFL,7540
C3TAB SPR,7800
C3TAB DFR,7800
C3TAB CGM,7800
C3TAB DGM,7800
C3TAB JOF,7800
C3TAB 380,7800
C3TAB IDF,7800
C3TAB TSCH,7800
C3TAB EXCO,7800
C3TAB AFI,7800
C3TAB VRM,1100
C3TAB CTX,3100
C3TAB CTC,3100
C3TAB SME,1100 
C3TAB TST,7300 
C3TAB DIFF,8000 
C3TAB REL,5400 
C3TAB NFP,1900 
C3TAB IAQ,1900 
C3TAB AAN,7400
C3TAB APB,7400 
C3TAB ABE,7400 
C3TAB AFR,7400 
C3TAB ABR,7400 
C3TAB GFL,7400 
C3TAB ABW,7300 
C3TAB LZD,7300 
C3TAB KZD,7300 
C3TAB SSIR,7765 
C3TAB ROGR,7780 
/* first run on ZAGREB: no C3TAB SFL,7550 
/* first run on ZAGREB: no C3TAB FIR,7550 
/* first run on ZAGREB: no C3TAB IFI,7550 
/* first run on ZAGREB: no C3TAB UFI,7550 
/* first run on ZAGREB: no C3TAB DFI,7550 
/* first run on ZAGREB: no C3TAB IAZ,7550 
/* first run on ZAGREB: no C3TAB UAZ,7550 
/* first run on ZAGREB: no C3TAB DAZ,7550 
C3TAB FDI,8450 
C3TAB FTX,8450 
C3TAB FDIU,8450 
C3TAB FDIT,8450 
C3TAB SCC,8950
C3TAB CFS,8950
C3TAB TLX,9200 
C3TAB IMP,9550 
C3TAB IMPM,9550 
/* first run on ZAGREB: no C3TAB SAP,8810 
/* first run on ZAGREB: no C3TAB AFL,9100 
/* first run on ZAGREB: no C3TAB PROS,9300
/* first run on ZAGREB: no C3TAB GBD,9310
/* first run on ZAGREB: no C3TAB GBE,9310
/* first run on ZAGREB: no C3TAB MKB,9310
/* first run on ZAGREB: no C3TAB OJC,9310
/* first run on ZAGREB: no C3TAB PROX,9310
/* first run on ZAGREB: no C3TAB XBS,9310
/* first run on ZAGREB: no C3TAB RDN,9400 
/* first run on ZAGREB: no C3TAB RDL,9400
/* first run on ZAGREB: no C3TAB RDS,9400
/* first run on ZAGREB: no C3TAB RDT,9400
/* first run on ZAGREB: no C3TAB RDD,9400
/* first run on ZAGREB: no C3TAB UDR,9000
/* first run on ZAGREB: no /* first run on ZAGREB: no C3TAB CDF,5270


/* *********************************************/
/* THE COMMAND Table 4 for the router
/* *********************************************
C4TABNR 36
C4TABRSZ 23

C4TAB SDBTAB,URT,netin

!EOF

