CREATE TABLE FIDS_TABLE
       (FDDURNO							NUMBER(22),								--FDDTAB.URNO
       	AFTURNO							NUMBER(22),								--AFTTAB.URNO
       	FTYP							VARCHAR2(8),							--DEVTAB.DFFD
        ADVERTISMENT_ID					VARCHAR2(5)			DEFAULT '',			--FDDTAB.ADID
      	IP_ADDRESS						VARCHAR2(15)		DEFAULT '',			--DEVTAB.DADR
        IP_PORT							VARCHAR2(4)			DEFAULT '',			--DEVTAB.DPRT
        DEVICE_NAME						VARCHAR2(20)		DEFAULT '',			--DEVTAB.DEVN
        DEVICE_AREA						VARCHAR2(10)		DEFAULT '',			--DEVTAB.DARE
        ALARM_PAGE_NUMBER				VARCHAR2(3)			DEFAULT '',			--DSPTAB.DAPN
        DEFAULT_PAGE_NUMBER				VARCHAR2(3)			DEFAULT '',			--DSPTAB.DEMT
        FIRST_PAGE_NUMER				VARCHAR2(3)			DEFAULT '',			--DSPTAB.DFPN
        NUMBER_OF_PAGES					VARCHAR2(3)			DEFAULT '',			--DSPTAB.DNOP
        PAGE_NUMBER						VARCHAR2(3)			DEFAULT '',			--DSPTAB.PNxx
        INSTALLATION_CONFIG_FILE		VARCHAR2(12)		DEFAULT '',			--DSPTAB.DICF
        TERMINAL_NAME					VARCHAR2(5)			DEFAULT '',			--DEVTAB.DTER
        GROUP_NAME						VARCHAR2(12)		DEFAULT '',			--DEVTAB.GRPN
        DISPLAY_ID						VARCHAR2(12)		DEFAULT '',			--DEVTAB.DPID
        PAGE_ID							VARCHAR2(12)		DEFAULT '',			--PAGTAB.PAGI
        CONFIG_FILE						VARCHAR2(12)		DEFAULT '',			--PAGTAB.PCFN
        DISPLAY_SEQUENCE				NUMBER(22),								--FDDTAB.DSEQ
        NUMBER_OF_FLIGHTS				VARCHAR2(5)			DEFAULT '',			--PAGTAB.PNOF
        REFERENCED_FIELD				VARCHAR2(4)			DEFAULT '',			--PAGTAB.PRFN
        PAGE_CAROUSEL_TIME				VARCHAR2(2)			DEFAULT '',			--PAGTAB.PCTI
        TIME_DELETE_1					VARCHAR2(4)			DEFAULT '',			--PAGTAB.PTD1
        TIME_DELETE_2					VARCHAR2(4)			DEFAULT '',			--PAGTAB.PDT2
        TIME_CANCELLED					VARCHAR2(4)			DEFAULT '',			--PAGTAB.PTDC
        TIME_FRAME_BEGIN				VARCHAR2(4)			DEFAULT '',			--PAGTAB.PTFB
        TIME_FRAME_END					VARCHAR2(4)			DEFAULT '',			--PAGTAB.PTFE
        HOME_AIRPORT					VARCHAR2(3)			DEFAULT '',			--FDDTAB.HOPO
        AIRPORTCODE						VARCHAR2(3)			DEFAULT '',			--FDDTAB.APC3
        AIRPORT_DESCRIPTION				VARCHAR2(32)		DEFAULT '',			--APTTAB.APFN
        AIRPORT_SHORT_NAME_2			VARCHAR2(255)		DEFAULT '',			--APTTAB.APN2
        AIRPORT_SHORT_NAME_3			VARCHAR2(255)		DEFAULT '',			--APTTAP.APN3
        AIRPORT_SHORT_NAME_4			VARCHAR2(255)		DEFAULT '',			--APTTAB.APN4
        AIRPORT_SHORT_NAME				VARCHAR2(255)		DEFAULT '',			--APTTAB.APSN
        AIRPORT_ORIGIN					VARCHAR2(3)			DEFAULT '',			--FLVTAB.ORG3
        ORIGIN_DESCRIPTION				VARCHAR2(32)		DEFAULT '',			--APTTAB.APFN
        ORIGIN_SHORT_NAME_2				VARCHAR2(255)		DEFAULT '',			--APTTAB.APN2
        ORIGIN_SHORT_NAME_3				VARCHAR2(255)		DEFAULT '',			--APTTAP.APN3
        ORIGIN_SHORT_NAME_4				VARCHAR2(255)		DEFAULT '',			--APTTAB.APN4
        ORIGIN_SHORT_NAME				VARCHAR2(255)		DEFAULT '',			--APTTAB.APSN
        AIRPORT_DESTINATION				VARCHAR2(3)			DEFAULT '',			--FLVTAB.DES3
        DESTINATION_DESCRIPTION			VARCHAR2(32)		DEFAULT '',			--APTTAB.APFN
        DESTINATION_SHORT_NAME_2		VARCHAR2(255)		DEFAULT '',			--APTTAB.APN2
        DESTINATION_SHORT_NAME_3		VARCHAR2(255)		DEFAULT '',			--APTTAP.APN3
        DESTINATION_SHORT_NAME_4		VARCHAR2(255)		DEFAULT '',			--APTTAB.APN4
        DESTINATION_SHORT_NAME			VARCHAR2(255)		DEFAULT '',			--APTTAB.APSN
        AIRPORT_VIA						VARCHAR2(3)			DEFAULT '',			--FLVTAB.VIA3
        VIA_DESCRIPTION					VARCHAR2(32)		DEFAULT '',			--APTTAB.APFN
        VIA_SHORT_NAME_2				VARCHAR2(255)		DEFAULT '',			--APTTAB.APN2
        VIA_SHORT_NAME_3				VARCHAR2(255)		DEFAULT '',			--APTTAP.APN3
        VIA_SHORT_NAME_4				VARCHAR2(255)		DEFAULT '',			--APTTAB.APN4
        VIA_SHORT_NAME					VARCHAR2(255)		DEFAULT '',			--APTTAB.APSN
        AIRLINECODE						VARCHAR2(3)			DEFAULT '',			--AFTTAB.ALC3
        AIRLINECODE2					VARCHAR2(2)			DEFAULT '',			--AFTTAB.ALC2
        FLIGHTNUMBER					VARCHAR2(9)			DEFAULT '',			--FDDTAB.FLNO
        FLIGHT_TYPE						VARCHAR2(1)			DEFAULT '',			--FDDTAB.FTYP
        CODE_SHARE						VARCHAR2(110)		DEFAULT '',			--AFTTAB.JFNO
        FLIGHT_NATURE					VARCHAR2(8)			DEFAULT '',			--FDDTAB.DNAT
        VIA_AIRPORT						VARCHAR2(3)			DEFAULT '',			--FDDTAB.VIA3
        ESTIMATED_TIME_OF_FLIGHT		VARCHAR2(14)		DEFAULT '',			--FDDTAB.ETOF
        SCHEDULED_TIME					VARCHAR2(14)		DEFAULT '',			--FDDTAB.STOF
        TIFF							VARCHAR2(14)		DEFAULT '',			--FDDTAB.TIFF
        STANDARD_TIME_OF_DEPARTURE		VARCHAR2(14)		DEFAULT '',			--FLVTAB.STOD
        ESTIMATED_TIME_OF_DEPARTURE		VARCHAR2(14)		DEFAULT '',			--FLVTAB.ETOD
        STANDARD_TIME_OF_ARRIVAL		VARCHAR2(14)		DEFAULT '',			--FLVTAB.STOA
        TIF_ARRIVAL						VARCHAR2(14)		DEFAULT '',			--FLVTAB.TIFA
        TIF_DEPARTURE					VARCHAR2(14)		DEFAULT '',			--FLVTAB.TIFD
        NEW_TIME						VARCHAR2(14)		DEFAULT '',
        ETA_INTERN_BEST					VARCHAR2(14)		DEFAULT '',			--AFTTAB.ETAI
        ETD_INTERN_BEST					VARCHAR2(14)		DEFAULT '',			--AFTTAB.ETDI
        BOARDING_OPEN					VARCHAR2(14)		DEFAULT '',			--FLVTAB.BOAO
        ACTUAL_TIME						VARCHAR2(14)		DEFAULT '',			
        OFFBLOCK_TIME					VARCHAR2(14)		DEFAULT '',			--FDDTAB.OFBL
        ONBLOCK_TIME					VARCHAR2(14)		DEFAULT '',			--FDDTAB.ONBL
        AIRBORNE_TIME					VARCHAR2(14)		DEFAULT '',			--FDDTAB.AIRB
        TIME_TO_CURRENT_REMARK			VARCHAR2(14)		DEFAULT '',			--FDDTAB.RMTI
        LANDING_TIME					VARCHAR2(14)		DEFAULT '',			--FDDTAB.LAND
        FLIGHT_STATUS					VARCHAR2(4)			DEFAULT '',			--FDDTAB.REMP
        FLIGHT_STATUS_DESCRIPTION		VARCHAR2(255)		DEFAULT '',			--FIDTAB.BEME
        FLIGHT_STATUS_LOCAL				VARCHAR2(255)		DEFAULT '',			--FIDTAB.BEMD
        FLIGHT_STATUS_3					VARCHAR2(255)		DEFAULT '',			--FIDTAB.BET3
        FLIGHT_STATUS_4					VARCHAR2(255)		DEFAULT '',			--FIDTAB.BET4
        BELT1							VARCHAR2(5)			DEFAULT '',			--FDDTAB.BLT1
        BELT2							VARCHAR2(5)			DEFAULT '',			--FDDTAB.BLT2
        CHECK_IN_FROM					VARCHAR2(5)			DEFAULT '',			--FDDTAB.CKIF
        CHECK_IN_TO						VARCHAR2(5)			DEFAULT '',			--FDDTAB.CKIT
        CHECKIN_REMARK					VARCHAR2(12)		DEFAULT '',			--FLVTAB.CREC
        CHECKIN_TYPE					VARCHAR2(8)			DEFAULT '',			--FLVTAB.CTYP
        CHECKIN_SUM_REMARK_STATUS		VARCHAR2(4)			DEFAULT '',			--FDDTAB.REM2
        CHECKIN_SUM_REMARK_DESCRIPTION	VARCHAR2(255)		DEFAULT '',			--FIDTAB.BEME
        CHECKIN_SUM_REMARK_LOCAL		VARCHAR2(255)		DEFAULT '',			--FIDTAB.BEMD
        CHECKIN_SUM_REMARK_3			VARCHAR2(255)		DEFAULT '',			--FIDTAB.BET3
        CHECKIN_SUM_REMARK_4			VARCHAR2(255)		DEFAULT '',			--FIDTAB.BET4
        BELT_REMARK						VARCHAR2(60)		DEFAULT '',			--FLVTAB.DISP
        RESOURCE_NAME					VARCHAR2(32)		DEFAULT '',			--FLVTAB.RNAM
        RESOURCE_TYPE					VARCHAR2(12)		DEFAULT '',			--FLVTAB.RTYP
        FLIGHT_LOGO						VARCHAR2(2)			DEFAULT '',			--FLVTAB.FLG1
        FULL_SCREEN_LOGO				VARCHAR2(60)		DEFAULT '',			--FLVTAB.FLG2
        TEXT1							VARCHAR2(128)		DEFAULT '',			--FXTTAB.TEXT
        TEXT2							VARCHAR2(128)		DEFAULT '',			--FXTTAB.TEXT
        GATE_DEPARTURE_1				VARCHAR2(5)			DEFAULT '',			--FDDTAB.GTD1
        GATE_DEPARTURE_2				VARCHAR2(5)			DEFAULT '',			--FDDTAB.GTD2
        GATE_ARRIVAL_1					VARCHAR2(5)			DEFAULT '',			--AFTTAB.GTA1
        GATE_ARRIVAL_2					VARCHAR2(5)			DEFAULT '',			--AFTTAB.GTA2
        POSITION_ARRIVAL				VARCHAR2(5)			DEFAULT '',			--AFTTAB.PSTA
        POSITION_DEPARTURE				VARCHAR2(5)			DEFAULT '',			--AFTTAB.PSTD
        REGISTRATION					VARCHAR2(12)		DEFAULT '',			--AFTTAB.REGN
        CAROUSEL						VARCHAR2(3)			DEFAULT '',			--AFTTAB.BAZ1
        STATUS							VARCHAR2(1)			DEFAULT '',
        SEQ_ID							NUMBER(22),
        DATAREFRESHTIME					NUMBER(3)		
      );
COMMENT ON COLUMN FIDS_TABLE.FDDURNO
IS 'FDDTAB.URNO';
COMMENT ON COLUMN FIDS_TABLE.AFTURNO
IS 'AFTTAB.URNO';
COMMENT ON COLUMN FIDS_TABLE.FTYP
IS 'DEVTAB.DFFD';
COMMENT ON COLUMN FIDS_TABLE.ADVERTISMENT_ID
IS 'FDDTAB.ADID';
COMMENT ON COLUMN FIDS_TABLE.IP_ADDRESS
IS 'DEVTAB.DADR';
COMMENT ON COLUMN FIDS_TABLE.IP_PORT
IS 'DEVTAB.DPRT';
COMMENT ON COLUMN FIDS_TABLE.DEVICE_NAME
IS 'DEVTAB.DEVN';
COMMENT ON COLUMN FIDS_TABLE.DEVICE_AREA
IS 'DEVTAB.DARE';
COMMENT ON COLUMN FIDS_TABLE.ALARM_PAGE_NUMBER
IS 'DSPTAB.DAPN';
COMMENT ON COLUMN FIDS_TABLE.DEFAULT_PAGE_NUMBER
IS 'DSPTAB.DEMT';
COMMENT ON COLUMN FIDS_TABLE.FIRST_PAGE_NUMER
IS 'DSPTAB.DFPN';
COMMENT ON COLUMN FIDS_TABLE.NUMBER_OF_PAGES
IS 'DSPTAB.DNOP';
COMMENT ON COLUMN FIDS_TABLE.PAGE_NUMBER
IS 'DSPTAB.PNxx';
COMMENT ON COLUMN FIDS_TABLE.INSTALLATION_CONFIG_FILE
IS 'DSPTAB.DICF';
COMMENT ON COLUMN FIDS_TABLE.TERMINAL_NAME
IS 'DEVTAB.DTER';
COMMENT ON COLUMN FIDS_TABLE.GROUP_NAME
IS 'DEVTAB.GRPN';
COMMENT ON COLUMN FIDS_TABLE.DISPLAY_ID
IS 'DEVTAB.DPID';
COMMENT ON COLUMN FIDS_TABLE.PAGE_ID
IS 'PAGTAB.PAGI';
COMMENT ON COLUMN FIDS_TABLE.CONFIG_FILE
IS 'PAGTAB.PCFN';
COMMENT ON COLUMN FIDS_TABLE.DISPLAY_SEQUENCE
IS 'FDDTAB.DSEQ';
COMMENT ON COLUMN FIDS_TABLE.NUMBER_OF_FLIGHTS
IS 'PAGTAB.PNOF';
COMMENT ON COLUMN FIDS_TABLE.REFERENCED_FIELD
IS 'PAGTAB.PRFN';
COMMENT ON COLUMN FIDS_TABLE.PAGE_CAROUSEL_TIME
IS 'PAGTAB.PCTI';
COMMENT ON COLUMN FIDS_TABLE.TIME_DELETE_1
IS 'PAGTAB.PTD1';
COMMENT ON COLUMN FIDS_TABLE.TIME_DELETE_2
IS 'PAGTAB.PDT2';
COMMENT ON COLUMN FIDS_TABLE.TIME_CANCELLED
IS 'PAGTAB.PTDC';
COMMENT ON COLUMN FIDS_TABLE.TIME_FRAME_BEGIN
IS 'PAGTAB.PTFB';
COMMENT ON COLUMN FIDS_TABLE.TIME_FRAME_END
IS 'PAGTAB.PTFE';
COMMENT ON COLUMN FIDS_TABLE.HOME_AIRPORT
IS 'FDDTAB.HOPO';
COMMENT ON COLUMN FIDS_TABLE.AIRPORTCODE
IS 'FDDTAB.APC3';
COMMENT ON COLUMN FIDS_TABLE.AIRPORT_DESCRIPTION
IS 'APTTAB.APFN';
COMMENT ON COLUMN FIDS_TABLE.AIRPORT_SHORT_NAME_2
IS 'APTTAB.APN2';
COMMENT ON COLUMN FIDS_TABLE.AIRPORT_SHORT_NAME_3
IS 'APTTAP.APN3';
COMMENT ON COLUMN FIDS_TABLE.AIRPORT_SHORT_NAME_4
IS 'APTTAB.APN4';
COMMENT ON COLUMN FIDS_TABLE.AIRPORT_SHORT_NAME
IS 'APTTAB.APSN';
COMMENT ON COLUMN FIDS_TABLE.AIRPORT_ORIGIN
IS 'FLVTAB.ORG3';
COMMENT ON COLUMN FIDS_TABLE.ORIGIN_DESCRIPTION
IS 'APTTAB.APFN';
COMMENT ON COLUMN FIDS_TABLE.ORIGIN_SHORT_NAME_2
IS 'APTTAB.APN2';
COMMENT ON COLUMN FIDS_TABLE.ORIGIN_SHORT_NAME_3
IS 'APTTAP.APN3';
COMMENT ON COLUMN FIDS_TABLE.ORIGIN_SHORT_NAME_4
IS 'APTTAB.APN4';
COMMENT ON COLUMN FIDS_TABLE.ORIGIN_SHORT_NAME
IS 'APTTAB.APSN';
COMMENT ON COLUMN FIDS_TABLE.AIRPORT_DESTINATION
IS 'FLVTAB.DES3';
COMMENT ON COLUMN FIDS_TABLE.DESTINATION_DESCRIPTION
IS 'APTTAB.APFN';
COMMENT ON COLUMN FIDS_TABLE.DESTINATION_SHORT_NAME_2
IS 'APTTAB.APN2';
COMMENT ON COLUMN FIDS_TABLE.DESTINATION_SHORT_NAME_3
IS 'APTTAP.APN3';
COMMENT ON COLUMN FIDS_TABLE.DESTINATION_SHORT_NAME_4
IS 'APTTAB.APN4';
COMMENT ON COLUMN FIDS_TABLE.DESTINATION_SHORT_NAME
IS 'APTTAB.APSN';
COMMENT ON COLUMN FIDS_TABLE.AIRPORT_VIA
IS 'FLVTAB.VIA3';
COMMENT ON COLUMN FIDS_TABLE.VIA_DESCRIPTION
IS 'APTTAB.APFN';
COMMENT ON COLUMN FIDS_TABLE.VIA_SHORT_NAME_2
IS 'APTTAB.APN2';
COMMENT ON COLUMN FIDS_TABLE.VIA_SHORT_NAME_3
IS 'APTTAP.APN3';
COMMENT ON COLUMN FIDS_TABLE.VIA_SHORT_NAME_4
IS 'APTTAB.APN4';
COMMENT ON COLUMN FIDS_TABLE.VIA_SHORT_NAME
IS 'APTTAB.APSN';
COMMENT ON COLUMN FIDS_TABLE.AIRLINECODE
IS 'AFTTAB.ALC3';
COMMENT ON COLUMN FIDS_TABLE.AIRLINECODE2
IS 'AFTTAB.ALC2';
COMMENT ON COLUMN FIDS_TABLE.FLIGHTNUMBER
IS 'FDDTAB.FLNO';
COMMENT ON COLUMN FIDS_TABLE.FLIGHT_TYPE
IS 'FDDTAB.FTYP';
COMMENT ON COLUMN FIDS_TABLE.CODE_SHARE
IS 'AFTTAB.JFNO';
COMMENT ON COLUMN FIDS_TABLE.FLIGHT_NATURE
IS 'FDDTAB.DNAT';
COMMENT ON COLUMN FIDS_TABLE.VIA_AIRPORT
IS 'FDDTAB.VIA3';
COMMENT ON COLUMN FIDS_TABLE.ESTIMATED_TIME_OF_FLIGHT
IS 'FDDTAB.ETOF';
COMMENT ON COLUMN FIDS_TABLE.SCHEDULED_TIME
IS 'FDDTAB.STOF';
COMMENT ON COLUMN FIDS_TABLE.TIFF
IS 'FDDTAB.TIFF';
COMMENT ON COLUMN FIDS_TABLE.STANDARD_TIME_OF_DEPARTURE
IS 'FLVTAB.STOD';
COMMENT ON COLUMN FIDS_TABLE.ESTIMATED_TIME_OF_DEPARTURE
IS 'FLVTAB.ETOD';
COMMENT ON COLUMN FIDS_TABLE.STANDARD_TIME_OF_ARRIVAL
IS 'FLVTAB.STOA';
COMMENT ON COLUMN FIDS_TABLE.TIF_ARRIVAL
IS 'FLVTAB.TIFA';
COMMENT ON COLUMN FIDS_TABLE.TIF_DEPARTURE
IS 'FLVTAB.TIFD';
COMMENT ON COLUMN FIDS_TABLE.NEW_TIME					
IS 'NEWTIME';
COMMENT ON COLUMN FIDS_TABLE.ETA_INTERN_BEST
IS 'AFTTAB.ETAI';
COMMENT ON COLUMN FIDS_TABLE.ETD_INTERN_BEST
IS 'AFTTAB.ETDI';
COMMENT ON COLUMN FIDS_TABLE.BOARDING_OPEN
IS 'FLVTAB.BOAO';
COMMENT ON COLUMN FIDS_TABLE.ACTUAL_TIME				
IS 'ACTUAL TIME';
COMMENT ON COLUMN FIDS_TABLE.OFFBLOCK_TIME
IS 'FDDTAB.OFBL';
COMMENT ON COLUMN FIDS_TABLE.ONBLOCK_TIME
IS 'FDDTAB.ONBL';
COMMENT ON COLUMN FIDS_TABLE.AIRBORNE_TIME
IS 'FDDTAB.AIRB';
COMMENT ON COLUMN FIDS_TABLE.TIME_TO_CURRENT_REMARK
IS 'FDDTAB.RMTI';
COMMENT ON COLUMN FIDS_TABLE.LANDING_TIME
IS 'FDDTAB.LAND';
COMMENT ON COLUMN FIDS_TABLE.FLIGHT_STATUS
IS 'FDDTAB.REMP';
COMMENT ON COLUMN FIDS_TABLE.FLIGHT_STATUS_DESCRIPTION
IS 'FIDTAB.BEME';
COMMENT ON COLUMN FIDS_TABLE.FLIGHT_STATUS_LOCAL
IS 'FIDTAB.BEMD';
COMMENT ON COLUMN FIDS_TABLE.FLIGHT_STATUS_3
IS 'FIDTAB.BET3';
COMMENT ON COLUMN FIDS_TABLE.FLIGHT_STATUS_4
IS 'FIDTAB.BET4';
COMMENT ON COLUMN FIDS_TABLE.BELT1
IS 'FDDTAB.BLT1';
COMMENT ON COLUMN FIDS_TABLE.BELT2
IS 'FDDTAB.BLT2';
COMMENT ON COLUMN FIDS_TABLE.CHECK_IN_FROM
IS 'FDDTAB.CKIF';
COMMENT ON COLUMN FIDS_TABLE.CHECK_IN_TO
IS 'FDDTAB.CKIT';
COMMENT ON COLUMN FIDS_TABLE.CHECKIN_REMARK
IS 'FLVTAB.CREC';
COMMENT ON COLUMN FIDS_TABLE.CHECKIN_TYPE
IS 'FLVTAB.CTYP';
COMMENT ON COLUMN FIDS_TABLE.CHECKIN_SUM_REMARK_STATUS
IS 'FDDTAB.REM2';
COMMENT ON COLUMN FIDS_TABLE.CHECKIN_SUM_REMARK_DESCRIPTION
IS 'FIDTAB.BEME';
COMMENT ON COLUMN FIDS_TABLE.CHECKIN_SUM_REMARK_LOCAL
IS 'FIDTAB.BEMD';
COMMENT ON COLUMN FIDS_TABLE.CHECKIN_SUM_REMARK_3
IS 'FIDTAB.BET3';
COMMENT ON COLUMN FIDS_TABLE.CHECKIN_SUM_REMARK_4
IS 'FIDTAB.BET4';
COMMENT ON COLUMN FIDS_TABLE.BELT_REMARK
IS 'FLVTAB.DISP';
COMMENT ON COLUMN FIDS_TABLE.RESOURCE_NAME
IS 'FLVTAB.RNAM';
COMMENT ON COLUMN FIDS_TABLE.RESOURCE_TYPE
IS 'FLVTAB.RTYP';
COMMENT ON COLUMN FIDS_TABLE.FLIGHT_LOGO
IS 'FLVTAB.FLG1';
COMMENT ON COLUMN FIDS_TABLE.FULL_SCREEN_LOGO
IS 'FLVTAB.FLG2';
COMMENT ON COLUMN FIDS_TABLE.TEXT1
IS 'FXTTAB.TEXT';
COMMENT ON COLUMN FIDS_TABLE.TEXT2
IS 'FXTTAB.TEXT';
COMMENT ON COLUMN FIDS_TABLE.GATE_DEPARTURE_1
IS 'FDDTAB.GTD1';
COMMENT ON COLUMN FIDS_TABLE.GATE_DEPARTURE_2
IS 'FDDTAB.GTD2';
COMMENT ON COLUMN FIDS_TABLE.GATE_ARRIVAL_1
IS 'AFTTAB.GTA1';
COMMENT ON COLUMN FIDS_TABLE.GATE_ARRIVAL_2
IS 'AFTTAB.GTA2';
COMMENT ON COLUMN FIDS_TABLE.POSITION_ARRIVAL
IS 'AFTTAB.PSTA';
COMMENT ON COLUMN FIDS_TABLE.POSITION_DEPARTURE
IS 'AFTTAB.PSTD';
COMMENT ON COLUMN FIDS_TABLE.REGISTRATION
IS 'AFTTAB.REGN';
COMMENT ON COLUMN FIDS_TABLE.CAROUSEL
IS 'AFTTAB.BAZ1';
COMMENT ON COLUMN FIDS_TABLE.STATUS						
IS 'STATUS';
COMMENT ON COLUMN FIDS_TABLE.SEQ_ID								
IS 'SEQUENCE ID';
COMMENT ON COLUMN FIDS_TABLE.DATAREFRESHTIME								
IS 'DATAREFRESHTIME';
/
