08/05/2004:17:41:52   Migration Started on project file InfoPC.csproj.
08/05/2004:17:41:52   Removed file bin\InfoPC.dll.
08/05/2004:17:41:52   Removed file bin\InfoPC.pdb.
08/05/2004:17:41:52   Deleting attribute AutoEventWireup.
08/05/2004:17:41:52   Deleting attribute Inherits.
08/05/2004:17:41:52   Deleting attribute Codebehind.
08/05/2004:17:41:52   Removed Assembly attribute from Register Tag in arrival.aspx.
08/05/2004:17:41:52   Removed xmlns:mobile attribute from body Tag in arrival.aspx.
08/05/2004:17:41:52   Removed 'vs_targetSchema' attribute from head Tag in arrival.aspx.
08/05/2004:17:41:53   Succeeded parsing the file arrival.aspx.
08/05/2004:17:41:53   Deleting attribute AutoEventWireup.
08/05/2004:17:41:53   Deleting attribute Inherits.
08/05/2004:17:41:53   Deleting attribute Codebehind.
08/05/2004:17:41:53   Removed xmlns:mobile attribute from body Tag in bye.aspx.
08/05/2004:17:41:53   Removed 'vs_targetSchema' attribute from head Tag in bye.aspx.
08/05/2004:17:41:53   Succeeded parsing the file bye.aspx.
08/05/2004:17:41:53   Deleting attribute AutoEventWireup.
08/05/2004:17:41:53   Deleting attribute Inherits.
08/05/2004:17:41:53   Deleting attribute Codebehind.
08/05/2004:17:41:53   Failed to remove xmlns:mobile attribute from body Tag in dailydeploymentbyflightnumber.aspx.
08/05/2004:17:41:53   Succeeded parsing the file dailydeploymentbyflightnumber.aspx.
08/05/2004:17:41:53   Deleting attribute AutoEventWireup.
08/05/2004:17:41:53   Deleting attribute Inherits.
08/05/2004:17:41:53   Deleting attribute Codebehind.
08/05/2004:17:41:53   Removed Assembly attribute from Register Tag in departure.aspx.
08/05/2004:17:41:53   Removed xmlns:mobile attribute from body Tag in departure.aspx.
08/05/2004:17:41:53   Removed 'vs_targetSchema' attribute from head Tag in departure.aspx.
08/05/2004:17:41:53   Succeeded parsing the file departure.aspx.
08/05/2004:17:41:53   Deleting attribute Codebehind.
08/05/2004:17:41:53   Succeeded parsing the file global.asax.
08/05/2004:17:41:53   Deleting attribute AutoEventWireup.
08/05/2004:17:41:53   Deleting attribute Inherits.
08/05/2004:17:41:53   Deleting attribute Codebehind.
08/05/2004:17:41:53   Removed Assembly attribute from Register Tag in jobcard.aspx.
08/05/2004:17:41:53   Failed to remove xmlns:mobile attribute from body Tag in jobcard.aspx.
08/05/2004:17:41:53   Succeeded parsing the file jobcard.aspx.
08/05/2004:17:41:53   Deleting attribute AutoEventWireup.
08/05/2004:17:41:53   Deleting attribute Inherits.
08/05/2004:17:41:53   Deleting attribute Codebehind.
08/05/2004:17:41:53   Removed Assembly attribute from Register Tag in remarks.aspx.
08/05/2004:17:41:53   Removed xmlns:mobile attribute from body Tag in remarks.aspx.
08/05/2004:17:41:53   Removed 'vs_targetSchema' attribute from head Tag in remarks.aspx.
08/05/2004:17:41:54   Succeeded parsing the file remarks.aspx.
08/05/2004:17:41:54   Deleting attribute AutoEventWireup.
08/05/2004:17:41:54   Deleting attribute Inherits.
08/05/2004:17:41:54   Deleting attribute Codebehind.
08/05/2004:17:41:54   Removed Assembly attribute from Register Tag in telex.aspx.
08/05/2004:17:41:54   Removed xmlns:mobile attribute from body Tag in telex.aspx.
08/05/2004:17:41:54   Removed 'vs_targetSchema' attribute from head Tag in telex.aspx.
08/05/2004:17:41:54   Succeeded parsing the file telex.aspx.
08/05/2004:17:41:54   Deleting attribute AutoEventWireup.
08/05/2004:17:41:54   Deleting attribute Inherits.
08/05/2004:17:41:54   Deleting attribute Codebehind.
08/05/2004:17:41:54   Failed to remove xmlns:mobile attribute from body Tag in welcome.aspx.
08/05/2004:17:41:54   Succeeded parsing the file welcome.aspx.
08/05/2004:17:41:54   Succeeded parsing the file stylesheet.aspx.cs.
08/05/2004:17:41:54   Added folder code\ to the web.
08/05/2004:17:41:54   Moving file stylesheet.aspx.cs to the code\ directory.
08/05/2004:17:41:55   Succeeded parsing the file servicemask.cs.
08/05/2004:17:41:55   Moving file servicemask.cs to the code\ directory.
08/05/2004:17:41:55   Succeeded parsing the file rotationmask.cs.
08/05/2004:17:41:56   Moving file rotationmask.cs to the code\ directory.
08/05/2004:17:41:56   Succeeded parsing the file global.asax.cs.
08/05/2004:17:41:56   Moving file global.asax.cs to the code\ directory.
08/05/2004:17:41:57   Succeeded parsing the file telexmask.cs.
08/05/2004:17:41:57   Moving file telexmask.cs to the code\ directory.
08/05/2004:17:41:57   Succeeded parsing the file assemblyinfo.cs.
08/05/2004:17:41:57   Moving file assemblyinfo.cs to the code\ directory.
08/05/2004:17:41:57   Unable to migrate user settings in D:\Documents and Settings\aje\VSWebCache\C\DIPLOMARBEIT\InfoPC\InfoPC.csproj.user.
08/05/2004:17:41:58   Removed file InfoPC.csproj.
