SQL> connect system/celicatyt as sysdba
Connected.
SQL> REM connect system/manager
SQL> 
SQL> create user aid
  2  identified by aid
  3  default tablespace ceda02
  4  temporary tablespace temp
  5  profile default
  6  /

User created.

SQL> grant connect,resource,dba to aid identified by aid;

Grant succeeded.

SQL> /

Grant succeeded.

SQL> spool off
